abbreviation	edges
G-a-D-s-D	[('gene', 'disease', 'association', 'both'), ('disease', 'disease', 'similarity', 'both')]
G-f-G-a-D	[('gene', 'gene', 'function', 'both'), ('gene', 'disease', 'association', 'both')]
G-e-T-c-D	[('gene', 'tissue', 'expression', 'both'), ('tissue', 'disease', 'cooccurrence', 'both')]
G-i-G-a-D	[('gene', 'gene', 'interaction', 'both'), ('gene', 'disease', 'association', 'both')]
G-a-D-a-G-a-D	[('gene', 'disease', 'association', 'both'), ('disease', 'gene', 'association', 'both'), ('gene', 'disease', 'association', 'both')]
G-a-D-s-D-s-D	[('gene', 'disease', 'association', 'both'), ('disease', 'disease', 'similarity', 'both'), ('disease', 'disease', 'similarity', 'both')]
G-a-D-c-T-c-D	[('gene', 'disease', 'association', 'both'), ('disease', 'tissue', 'cooccurrence', 'both'), ('tissue', 'disease', 'cooccurrence', 'both')]
G-f-G-a-D-s-D	[('gene', 'gene', 'function', 'both'), ('gene', 'disease', 'association', 'both'), ('disease', 'disease', 'similarity', 'both')]
G-f-G-f-G-a-D	[('gene', 'gene', 'function', 'both'), ('gene', 'gene', 'function', 'both'), ('gene', 'disease', 'association', 'both')]
G-f-G-e-T-c-D	[('gene', 'gene', 'function', 'both'), ('gene', 'tissue', 'expression', 'both'), ('tissue', 'disease', 'cooccurrence', 'both')]
G-f-G-i-G-a-D	[('gene', 'gene', 'function', 'both'), ('gene', 'gene', 'interaction', 'both'), ('gene', 'disease', 'association', 'both')]
G-e-T-e-G-a-D	[('gene', 'tissue', 'expression', 'both'), ('tissue', 'gene', 'expression', 'both'), ('gene', 'disease', 'association', 'both')]
G-e-T-c-D-s-D	[('gene', 'tissue', 'expression', 'both'), ('tissue', 'disease', 'cooccurrence', 'both'), ('disease', 'disease', 'similarity', 'both')]
G-i-G-a-D-s-D	[('gene', 'gene', 'interaction', 'both'), ('gene', 'disease', 'association', 'both'), ('disease', 'disease', 'similarity', 'both')]
G-i-G-f-G-a-D	[('gene', 'gene', 'interaction', 'both'), ('gene', 'gene', 'function', 'both'), ('gene', 'disease', 'association', 'both')]
G-i-G-e-T-c-D	[('gene', 'gene', 'interaction', 'both'), ('gene', 'tissue', 'expression', 'both'), ('tissue', 'disease', 'cooccurrence', 'both')]
G-i-G-i-G-a-D	[('gene', 'gene', 'interaction', 'both'), ('gene', 'gene', 'interaction', 'both'), ('gene', 'disease', 'association', 'both')]
G-a-D-a-G-a-D-s-D	[('gene', 'disease', 'association', 'both'), ('disease', 'gene', 'association', 'both'), ('gene', 'disease', 'association', 'both'), ('disease', 'disease', 'similarity', 'both')]
G-a-D-a-G-f-G-a-D	[('gene', 'disease', 'association', 'both'), ('disease', 'gene', 'association', 'both'), ('gene', 'gene', 'function', 'both'), ('gene', 'disease', 'association', 'both')]
G-a-D-a-G-e-T-c-D	[('gene', 'disease', 'association', 'both'), ('disease', 'gene', 'association', 'both'), ('gene', 'tissue', 'expression', 'both'), ('tissue', 'disease', 'cooccurrence', 'both')]
G-a-D-a-G-i-G-a-D	[('gene', 'disease', 'association', 'both'), ('disease', 'gene', 'association', 'both'), ('gene', 'gene', 'interaction', 'both'), ('gene', 'disease', 'association', 'both')]
G-a-D-s-D-a-G-a-D	[('gene', 'disease', 'association', 'both'), ('disease', 'disease', 'similarity', 'both'), ('disease', 'gene', 'association', 'both'), ('gene', 'disease', 'association', 'both')]
G-a-D-s-D-s-D-s-D	[('gene', 'disease', 'association', 'both'), ('disease', 'disease', 'similarity', 'both'), ('disease', 'disease', 'similarity', 'both'), ('disease', 'disease', 'similarity', 'both')]
G-a-D-s-D-c-T-c-D	[('gene', 'disease', 'association', 'both'), ('disease', 'disease', 'similarity', 'both'), ('disease', 'tissue', 'cooccurrence', 'both'), ('tissue', 'disease', 'cooccurrence', 'both')]
G-a-D-c-T-e-G-a-D	[('gene', 'disease', 'association', 'both'), ('disease', 'tissue', 'cooccurrence', 'both'), ('tissue', 'gene', 'expression', 'both'), ('gene', 'disease', 'association', 'both')]
G-a-D-c-T-c-D-s-D	[('gene', 'disease', 'association', 'both'), ('disease', 'tissue', 'cooccurrence', 'both'), ('tissue', 'disease', 'cooccurrence', 'both'), ('disease', 'disease', 'similarity', 'both')]
G-f-G-a-D-a-G-a-D	[('gene', 'gene', 'function', 'both'), ('gene', 'disease', 'association', 'both'), ('disease', 'gene', 'association', 'both'), ('gene', 'disease', 'association', 'both')]
G-f-G-a-D-s-D-s-D	[('gene', 'gene', 'function', 'both'), ('gene', 'disease', 'association', 'both'), ('disease', 'disease', 'similarity', 'both'), ('disease', 'disease', 'similarity', 'both')]
G-f-G-a-D-c-T-c-D	[('gene', 'gene', 'function', 'both'), ('gene', 'disease', 'association', 'both'), ('disease', 'tissue', 'cooccurrence', 'both'), ('tissue', 'disease', 'cooccurrence', 'both')]
G-f-G-f-G-a-D-s-D	[('gene', 'gene', 'function', 'both'), ('gene', 'gene', 'function', 'both'), ('gene', 'disease', 'association', 'both'), ('disease', 'disease', 'similarity', 'both')]
G-f-G-f-G-e-T-c-D	[('gene', 'gene', 'function', 'both'), ('gene', 'gene', 'function', 'both'), ('gene', 'tissue', 'expression', 'both'), ('tissue', 'disease', 'cooccurrence', 'both')]
G-f-G-e-T-e-G-a-D	[('gene', 'gene', 'function', 'both'), ('gene', 'tissue', 'expression', 'both'), ('tissue', 'gene', 'expression', 'both'), ('gene', 'disease', 'association', 'both')]
G-f-G-e-T-c-D-s-D	[('gene', 'gene', 'function', 'both'), ('gene', 'tissue', 'expression', 'both'), ('tissue', 'disease', 'cooccurrence', 'both'), ('disease', 'disease', 'similarity', 'both')]
G-f-G-i-G-a-D-s-D	[('gene', 'gene', 'function', 'both'), ('gene', 'gene', 'interaction', 'both'), ('gene', 'disease', 'association', 'both'), ('disease', 'disease', 'similarity', 'both')]
G-f-G-i-G-e-T-c-D	[('gene', 'gene', 'function', 'both'), ('gene', 'gene', 'interaction', 'both'), ('gene', 'tissue', 'expression', 'both'), ('tissue', 'disease', 'cooccurrence', 'both')]
G-e-T-e-G-a-D-s-D	[('gene', 'tissue', 'expression', 'both'), ('tissue', 'gene', 'expression', 'both'), ('gene', 'disease', 'association', 'both'), ('disease', 'disease', 'similarity', 'both')]
G-e-T-e-G-f-G-a-D	[('gene', 'tissue', 'expression', 'both'), ('tissue', 'gene', 'expression', 'both'), ('gene', 'gene', 'function', 'both'), ('gene', 'disease', 'association', 'both')]
G-e-T-e-G-e-T-c-D	[('gene', 'tissue', 'expression', 'both'), ('tissue', 'gene', 'expression', 'both'), ('gene', 'tissue', 'expression', 'both'), ('tissue', 'disease', 'cooccurrence', 'both')]
G-e-T-e-G-i-G-a-D	[('gene', 'tissue', 'expression', 'both'), ('tissue', 'gene', 'expression', 'both'), ('gene', 'gene', 'interaction', 'both'), ('gene', 'disease', 'association', 'both')]
G-e-T-c-D-a-G-a-D	[('gene', 'tissue', 'expression', 'both'), ('tissue', 'disease', 'cooccurrence', 'both'), ('disease', 'gene', 'association', 'both'), ('gene', 'disease', 'association', 'both')]
G-e-T-c-D-s-D-s-D	[('gene', 'tissue', 'expression', 'both'), ('tissue', 'disease', 'cooccurrence', 'both'), ('disease', 'disease', 'similarity', 'both'), ('disease', 'disease', 'similarity', 'both')]
G-e-T-c-D-c-T-c-D	[('gene', 'tissue', 'expression', 'both'), ('tissue', 'disease', 'cooccurrence', 'both'), ('disease', 'tissue', 'cooccurrence', 'both'), ('tissue', 'disease', 'cooccurrence', 'both')]
G-i-G-a-D-a-G-a-D	[('gene', 'gene', 'interaction', 'both'), ('gene', 'disease', 'association', 'both'), ('disease', 'gene', 'association', 'both'), ('gene', 'disease', 'association', 'both')]
G-i-G-a-D-s-D-s-D	[('gene', 'gene', 'interaction', 'both'), ('gene', 'disease', 'association', 'both'), ('disease', 'disease', 'similarity', 'both'), ('disease', 'disease', 'similarity', 'both')]
G-i-G-a-D-c-T-c-D	[('gene', 'gene', 'interaction', 'both'), ('gene', 'disease', 'association', 'both'), ('disease', 'tissue', 'cooccurrence', 'both'), ('tissue', 'disease', 'cooccurrence', 'both')]
G-i-G-f-G-a-D-s-D	[('gene', 'gene', 'interaction', 'both'), ('gene', 'gene', 'function', 'both'), ('gene', 'disease', 'association', 'both'), ('disease', 'disease', 'similarity', 'both')]
G-i-G-f-G-e-T-c-D	[('gene', 'gene', 'interaction', 'both'), ('gene', 'gene', 'function', 'both'), ('gene', 'tissue', 'expression', 'both'), ('tissue', 'disease', 'cooccurrence', 'both')]
G-i-G-e-T-e-G-a-D	[('gene', 'gene', 'interaction', 'both'), ('gene', 'tissue', 'expression', 'both'), ('tissue', 'gene', 'expression', 'both'), ('gene', 'disease', 'association', 'both')]
G-i-G-e-T-c-D-s-D	[('gene', 'gene', 'interaction', 'both'), ('gene', 'tissue', 'expression', 'both'), ('tissue', 'disease', 'cooccurrence', 'both'), ('disease', 'disease', 'similarity', 'both')]
G-i-G-i-G-a-D-s-D	[('gene', 'gene', 'interaction', 'both'), ('gene', 'gene', 'interaction', 'both'), ('gene', 'disease', 'association', 'both'), ('disease', 'disease', 'similarity', 'both')]
G-i-G-i-G-e-T-c-D	[('gene', 'gene', 'interaction', 'both'), ('gene', 'gene', 'interaction', 'both'), ('gene', 'tissue', 'expression', 'both'), ('tissue', 'disease', 'cooccurrence', 'both')]
