gene	block	in_network	prior	wtccc2_pval	meta2.5_pval	nature.gene	nature.linked
REL	80	0	0.056107	0.000307	0.000905	0	0
ORMDL3	541	0	0.051825	0.03063	0.00178	0	0
JAK2	322	0	0.038064	0.00165	0.04872	0	0
STAT4	121	0	0.022934	0.000264	0.322	0	0
TNFAIP3	260	0	0.02281	0.00533	0.01002	0	0
IL1R2	91	0	0.021852	0.01943	0.03743	0	0
IKZF1	276	0	0.02138	0.02065	0.00815	0	0
IRF5	292	0	0.02058	0.01649	0.453	0	0
IL3	206	0	0.020301	0.01679	0.05856	0	0
IRF1	207	0	0.020301	0.006	0.02252	0	0
NDFIP1	214	0	0.020301	0.000961	0.01168	0	0
ZNF365	363	0	0.019	0.0133	0.06483	0	0
RELA	397	0	0.018766	0.000207	0.571	0	0
RPS6KA4	396	0	0.017253	5.7e-05	0.134	0	0
SH2B3	447	0	0.017198	0.01352	0.01167	0	0
IFNAR1	642	0	0.014653	0.04102	0.49	0	0
EP300	661	0	0.014451	0.03302	0.425	0	0
RUNX3	10	0	0.012659	0.007322	0.01565	0	0
ATF4	658	0	0.012556	0.01763	0.182	0	0
CD48	44	0	0.012556	5.8e-05	0.000487	0	0
FOSL1	399	0	0.012556	0.00917	0.04714	0	0
COX15	370	0	0.01253	0.02473	0.242	0	0
FUT2	610	0	0.01253	0.01155	0.00179	0	0
HSD17B4	204	0	0.01253	0.01287	0.04775	0	0
LGALS9	534	0	0.01253	0.03358	0.98	0	0
TEC	173	0	0.01253	0.000301	0.000354	0	0
JAK1	26	0	0.011449	0.00784	0.37	0	0
DLD	288	0	0.011058	0.03991	0.986	0	0
FCGR2C	46	0	0.011058	0.0196	0.933	0	0
ZFP90	517	0	0.011058	0.04059	0.02806	0	0
ETS1	418	0	0.011048	0.00812	0.02482	0	0
GGPS1	60	0	0.010664	0.04019	0.227	0	0
LAMP1	464	0	0.010664	0.00871	0.149	0	0
MPZL2	409	0	0.010664	0.01296	0.245	0	0
SYPL1	287	0	0.010664	0.00971	0.03561	0	0
NEK2	56	0	0.010656	0.03036	0.48	0	0
NUP35	116	0	0.010656	0.004425	0.479	0	0
GATA3	353	0	0.01064	0.01451	0.174	0	0
SRP9	57	0	0.01064	0.000969	0.461	0	0
CHST12	266	0	0.010602	0.000381	0.03454	0	0
GFRA3	209	0	0.010602	0.03041	0.595	0	0
GNG2	474	0	0.010602	0.00899	0.03835	0	0
KIF21A	425	0	0.010602	0.00538	0.502	0	0
RCAN2	239	0	0.010602	0.04078	0.559	0	0
BAI1	320	0	0.010586	0.02706	0.08561	0	0
GPR17	100	0	0.010586	0.01839	0.186	0	0
OLIG1	641	0	0.010586	0.01285	0.667	0	0
PLCL2	133	0	0.010404	0.0163	0.05709	0	0
KIAA1109	187	0	0.010377	0.01118	0.646	0	0
UBE2E3	115	0	0.010377	0.02387	0.244	0	0
ELMO1	274	0	0.010361	0.01273	0.968	0	0
CENPO	72	0	0.009083	0.04493	0.798	0	0
CTSH	501	0	0.009083	0.00946	0.00521	0	0
DLL1	265	0	0.009083	0.0159	0.01815	0	0
ANKRD55	199	0	0.009072	0.02478	0.03822	0	0
HAX1	40	0	0.008717	0.03835	0.642	0	0
CD28	125	0	0.008689	0.02118	0.674	0	0
PTPN1	635	0	0.008677	0.01133	0.463	0	0
SYK	337	0	0.008677	0.004057	0.739	0	0
CSF3R	16	0	0.008672	0.008	0.989	0	0
HDAC3	213	0	0.008661	0.000456	0.9	0	0
TRAF3	487	0	0.008656	0.001411	0.00529	0	0
GRB2	558	0	0.00858	0.01974	0.01236	0	0
TBKBP1	548	1	0.008503	0.001034	1.3e-05	0	0
SPRY2	459	0	0.008495	0.04001	0.681	0	0
CDKN2A	325	0	0.008481	0.02955	0.586	0	0
DGKQ	166	0	0.00794	0.01579	0.559	0	0
FCRL3	41	0	0.00794	1e-06	0.01205	0	0
MPDU1	529	0	0.00794	0.00145	0.499	0	0
NSF	547	0	0.00794	0.01811	0.79	0	0
RHOH	172	0	0.00794	0.0431	0.49	0	0
SREBF1	531	0	0.00794	0.04248	0.496	0	0
C9orf156	339	0	0.007938	0.01521	0.234	0	0
GLB1	135	0	0.007938	0.001503	0.342	0	0
NCF4	656	0	0.007938	2e-06	0.03575	0	0
HMG20A	500	0	0.007937	0.03759	0.461	0	0
SRR	526	0	0.007937	0.00194	0.673	0	0
VPS26A	364	0	0.007937	0.00761	0.174	0	0
SPATA2	634	0	0.007936	0.01377	0.344	0	0
VEGFA	237	0	0.007936	0.00244	0.567	0	0
AFF1	178	0	0.007935	0.04034	0.211	0	0
ITGAM	514	0	0.007935	0.00469	0.03587	0	0
ABCA1	340	0	0.007414	0.02724	0.609	0	0
ABCA10	557	0	0.007414	0.0099	0.66	0	0
ABCA2	349	0	0.007414	0.00888	0.0751	0	0
ABCG5	77	0	0.007414	0.04815	0.998	0	0
ACOT7	2	0	0.007414	0.02874	0.21	0	0
ACP2	392	0	0.007414	0.001196	0.000997	0	0
ADRA2B	88	0	0.007414	0.03777	0.302	0	0
AES	578	0	0.007414	0.0252	0.679	0	0
AIM2	42	0	0.007414	0.02707	0.441	0	0
AK1	344	0	0.007414	0.03348	0.02824	0	0
ALDH8A1	257	0	0.007414	0.04382	0.0144	0	0
ALDOA	512	0	0.007414	0.00313	4.9e-05	0	0
ALS2CR8	124	0	0.007414	0.000524	0.253	0	0
AMZ2	556	0	0.007414	0.00351	0.05328	0	0
ANAPC7	445	0	0.007414	0.01168	0.04375	0	0
ANKRD6	246	0	0.007414	0.01917	0.409	0	0
ANTXR1	83	0	0.007414	0.000106	0.49	0	0
ANXA7	365	0	0.007414	0.01554	0.726	0	0
AP1M2	588	0	0.007414	0.02842	0.08981	0	0
AP4M1	284	0	0.007414	0.01324	0.317	0	0
APBA1	332	0	0.007414	0.03076	0.456	0	0
APOA1	407	0	0.007414	0.03997	0.26	0	0
APTX	326	0	0.007414	0.04604	0.391	0	0
ARCN1	410	0	0.007414	0.04631	0.05074	0	0
ARF4	144	0	0.007414	0.00772	0.707	0	0
ARFIP1	188	0	0.007414	0.000913	0.05979	0	0
ARHGAP19	369	0	0.007414	0.01684	0.01141	0	0
ARHGAP24	177	0	0.007414	0.04173	0.496	0	0
ARHGAP26	215	0	0.007414	0.00982	0.608	0	0
ARHGAP9	436	0	0.007414	0.02149	0.127	0	0
ARID1A	11	0	0.007414	0.01016	0.318	0	0
ARID3A	575	0	0.007414	0.02456	0.91	0	0
ARMC6	593	0	0.007414	0.02893	0.428	0	0
ASF1A	252	0	0.007414	0.01445	0.133	0	0
ATP6V1E2	78	0	0.007414	0.03083	0.735	0	0
ATPBD4	491	0	0.007414	0.01562	0.674	0	0
AZI1	562	0	0.007414	0.00911	0.514	0	0
BBC3	608	0	0.007414	0.000301	0.00631	0	0
BCL10	28	0	0.007414	2.1e-05	0.00081	0	0
BET1L	374	0	0.007414	0.00499	0.02034	0	0
BIRC7	639	0	0.007414	0.04513	0.268	0	0
BRD9	191	0	0.007414	0.00642	0.107	0	0
BRF1	489	0	0.007414	0.00142	0.299	0	0
BSG	574	0	0.007414	0.04989	0.846	0	0
C12orf40	426	0	0.007414	0.02718	0.287	0	0
C19orf43	589	0	0.007414	0.00653	0.937	0	0
C2orf44	71	0	0.007414	0.00453	0.679	0	0
C2orf48	68	0	0.007414	0.009433	0.901	0	0
C6orf165	245	0	0.007414	0.03928	0.71	0	0
CALR3	590	0	0.007414	0.00204	0	0	0
CAMK2G	366	0	0.007414	0.001592	0.42	0	0
CARS	379	0	0.007414	0.039	0.683	0	0
CASC3	542	0	0.007414	0.00472	0.689	0	0
CASQ1	43	0	0.007414	0.002349	0.814	0	0
CCDC122	457	0	0.007414	0.03721	0.594	0	0
CCDC127	190	0	0.007414	0.00889	0.524	0	0
CCDC134	664	0	0.007414	0.00627	0.87	0	0
CCNB2	496	0	0.007414	0.001339	0.17	0	0
CCT6A	277	0	0.007414	0.000145	0.06904	0	0
CDAN1	493	0	0.007414	0.04529	0.282	0	0
CDC42SE2	205	0	0.007414	0.00164	0.02434	0	0
CDK3	560	0	0.007414	0.04012	0.332	0	0
CGN	39	0	0.007414	0.02827	0.478	0	0
CHAC1	492	0	0.007414	0.01357	0.678	0	0
CHAF1A	580	0	0.007414	0.000452	0.11242	0	0
CHI3L2	34	0	0.007414	0.02523	0.977	0	0
CIAO1	89	0	0.007414	0.01223	0.71	0	0
CIDEA	565	0	0.007414	0.02368	0.832	0	0
CISH	141	0	0.007414	0.00299	0.498	0	0
CKAP2L	94	0	0.007414	0.04158	0.682	0	0
CKB	488	0	0.007414	0.00332	0.000148	0	0
CLEC2B	423	0	0.007414	0.02536	0.181	0	0
CLIP1	451	0	0.007414	0.00357	0.000242	0	0
CNP	544	0	0.007414	0.00487	0.02915	0	0
CNPY4	285	0	0.007414	0.01744	0.382	0	0
COMMD3	354	0	0.007414	0.00572	0.06673	0	0
COX5A	499	0	0.007414	0.00183	0.459	0	0
CPSF6	438	0	0.007414	0.01784	0.496	0	0
CR1L	54	0	0.007414	0.03241	0.128	0	0
CRMP1	168	0	0.007414	0.01041	0.985	0	0
CSGALNACT2	358	0	0.007414	0.00647	0.325	0	0
CST7	619	0	0.007414	0.03598	0.0815	0	0
CTSS	38	0	0.007414	0.00766	0.04223	0	0
CXCR6	137	0	0.007414	0.04169	0.856	0	0
CXXC5	210	0	0.007414	0.02483	0.01804	0	0
CYB5B	518	0	0.007414	0.0168	0.885	0	0
DAP	193	0	0.007414	0.00325	0.671	0	0
DCPS	417	0	0.007414	0.03826	0.976	0	0
DEFB119	620	0	0.007414	0.00898	0.673	0	0
DENND4C	324	0	0.007414	0.02741	0.275	0	0
DIO2	481	0	0.007414	0.01574	0.639	0	0
DNAJB11	162	0	0.007414	0.03693	0.0122	0	0
DOT1L	577	0	0.007414	0.0052	0.823	0	0
DPP4	105	0	0.007414	0.00498	0.295	0	0
DRG1	654	0	0.007414	0.0187	0.46	0	0
DYRK1A	643	0	0.007414	0.01202	0.762	0	0
E2F2	8	0	0.007414	0.00414	0.05268	0	0
EEF1B2	126	0	0.007414	0.02974	0.966	0	0
EIF2AK3	87	0	0.007414	0.01605	0.36	0	0
EIF2B3	20	0	0.007414	0.02799	0.756	0	0
EIF3A	372	0	0.007414	0.03052	0.359	0	0
ELL2	202	0	0.007414	0.04186	0.109	0	0
EP400	453	0	0.007414	0.02021	0.589	0	0
EPC1	357	0	0.007414	0.00929	0.03571	0	0
ERP29	448	0	0.007414	0.00815	0.353	0	0
F12	221	0	0.007414	3.5e-05	0.5	0	0
FAM159A	23	0	0.007414	0.01441	0.877	0	0
FAM172A	201	0	0.007414	0.02014	0.09361	0	0
FBXW11	219	0	0.007414	0.01032	0.614	0	0
FCHSD2	401	0	0.007414	0.01558	0.252	0	0
FGD5	132	0	0.007414	0.00563	0.386	0	0
FGD6	439	0	0.007414	0.01143	0.866	0	0
FHL3	17	0	0.007414	0.0134	0.939	0	0
FKBP10	543	0	0.007414	0.03854	0.03417	0	0
FKBP6	278	0	0.007414	0.00725	0.223	0	0
FLCN	530	0	0.007414	0.03126	0.07266	0	0
FLII	532	0	0.007414	0.04949	0.04165	0	0
FMNL1	546	0	0.007414	0.02269	0.474	0	0
FOXJ3	19	0	0.007414	0.04211	0.276	0	0
FSHB	386	0	0.007414	0.00569	0.716	0	0
FUCA1	9	0	0.007414	0.04884	0.237	0	0
GATM	494	0	0.007414	0.02447	0.512	0	0
GC	174	0	0.007414	0.0162	0.286	0	0
GIMAP1	295	0	0.007414	0.03299	0.000605	0	0
GMDS	223	0	0.007414	0.00638	0.321	0	0
GNG12	27	0	0.007414	0.02386	0.00798	0	0
GPR110	240	0	0.007414	0.01106	0.79	0	0
GPR135	477	0	0.007414	0.0286	0.764	0	0
GRAP2	659	0	0.007414	0.03293	0.341	0	0
GTF3C4	345	0	0.007414	0.04506	0.896	0	0
GUCA1A	236	0	0.007414	0.02183	0.337	0	0
HADH	183	0	0.007414	0.02453	0.164	0	0
HAT1	110	0	0.007414	0.02175	0.719	0	0
HCFC2	442	0	0.007414	0.04495	0.523	0	0
HDAC7	432	0	0.007414	0.00729	0.704	0	0
HMGCS2	37	0	0.007414	0.00318	0.001571	0	0
HMGN4	228	0	0.007414	0.01688	0.799	0	0
HNRNPM	585	0	0.007414	0.00297	0.137	0	0
HPD	450	0	0.007414	0.0039	0.499	0	0
HRH1	130	0	0.007414	0.01233	0.316	0	0
HSPB1	281	0	0.007414	0.03515	0.161	0	0
HSPB6	599	0	0.007414	0.04699	0.475	0	0
HVCN1	446	0	0.007414	0.00986	0.05184	0	0
IL12RB1	592	0	0.007414	0.00104	0.212	0	0
IL1RN	95	0	0.007414	0.00736	0.983	0	0
IL6	268	0	0.007414	0.000115	0.151	0	0
IMPG2	146	0	0.007414	0.03721	0.564	0	0
INHBB	97	0	0.007414	0.0488	0.646	0	0
IQGAP1	503	0	0.007414	0.0126	0.03747	0	0
IRS2	463	0	0.007414	0.02121	0.922	0	0
ISG20	502	0	0.007414	0.01759	0.02026	0	0
ITPKB	58	0	0.007414	6.5e-05	0.361	0	0
IWS1	99	0	0.007414	0.02183	0.03301	0	0
KCTD20	234	0	0.007414	0.000499	0.607	0	0
KIAA0408	253	0	0.007414	0.04086	0.356	0	0
KIR2DL3	615	0	0.007414	0.02841	0.462	0	0
LBH	75	0	0.007414	0.000999	0.734	0	0
LGALS8	61	0	0.007414	0.0198	0.405	0	0
LIMK2	653	0	0.007414	0.02298	0.552	0	0
LIPG	569	0	0.007414	0.003106	0.137	0	0
LPO	552	0	0.007414	0.02008	0.104	0	0
LSG1	165	0	0.007414	0.0199	0.268	0	0
LY75	104	0	0.007414	0.02562	0.753	0	0
MARCO	96	0	0.007414	0.00793	0.133	0	0
MBNL1	158	0	0.007414	0.02189	0.802	0	0
MEF2A	504	0	0.007414	0.00584	0.568	0	0
MIB1	566	0	0.007414	0.04153	0.431	0	0
MLXIPL	279	0	0.007414	0.01942	0.367	0	0
MYL6	435	0	0.007414	0.02418	0.355	0	0
N4BP1	515	0	0.007414	0.02677	0.419	0	0
NAT8	85	0	0.007414	0.03407	0.543	0	0
NBEAL2	138	0	0.007414	0.01609	0.127	0	0
NCALD	312	0	0.007414	0.01875	0.7	0	0
NCDN	15	0	0.007414	0.04394	0.647	0	0
NDUFS5	18	0	0.007414	0.00325	0.693	0	0
NECAB3	622	0	0.007414	0.04014	0.487	0	0
NFX1	327	0	0.007414	0.02627	0.291	0	0
NPAS2	90	0	0.007414	0.03979	0.01306	0	0
NPPA	4	0	0.007414	0.01271	0.00654	0	0
NR0B2	12	0	0.007414	0.01865	0.41	0	0
NR2F6	591	0	0.007414	0.0215	0.505	0	0
NSMCE2	315	0	0.007414	0.02175	0.909	0	0
NUDT18	302	0	0.007414	0.015	0.347	0	0
PARP2	467	0	0.007414	0.00353	0.854	0	0
PDE11A	113	0	0.007414	0.04288	0.954	0	0
PDGFB	657	0	0.007414	0.00488	0.471	0	0
PDIA6	69	0	0.007414	0.03094	0.314	0	0
PDK2	550	0	0.007414	0.02994	0.342	0	0
PECAM1	555	0	0.007414	0.01198	0.993	0	0
PHF15	208	0	0.007414	0.01443	0.0055	0	0
PHF5A	662	0	0.007414	0.04915	0.56	0	0
PIGW	538	0	0.007414	0.00274	0.00291	0	0
PIK3C2B	53	0	0.007414	0.01233	0.265	0	0
PLA1A	151	0	0.007414	0.04962	0.662	0	0
PLCG1	626	0	0.007414	0.02965	0.000822	0	0
POT1	290	0	0.007414	0.04698	0.552	0	0
PPA2	182	0	0.007414	0.03586	0.000374	0	0
PPHLN1	429	0	0.007414	0.000885	0.856	0	0
PPP1R12B	51	0	0.007414	0.04008	0.356	0	0
PREX1	633	0	0.007414	0.000706	0.000135	0	0
PRPSAP1	561	0	0.007414	0.03263	0.631	0	0
PRSS36	513	0	0.007414	0.03473	0.172	0	0
PSPC1	454	0	0.007414	0.04355	0.339	0	0
PTPRC	49	0	0.007414	0.01076	0.305	0	0
PVR	604	0	0.007414	0.00125	0.503	0	0
RAB18	356	0	0.007414	0.00412	0.737	0	0
RAB23	242	0	0.007414	0.01721	0.852	0	0
RABGAP1	343	0	0.007414	0.01264	0.389	0	0
RAD1	196	0	0.007414	0.03795	0.906	0	0
RAD54L2	142	0	0.007414	0.000563	0.77	0	0
RBM15	33	0	0.007414	0.01077	0.01148	0	0
RBM38	637	0	0.007414	0.03396	0.142	0	0
RFC2	280	0	0.007414	0.03892	0.735	0	0
RFXANK	594	0	0.007414	0.0237	0.171	0	0
RNF152	572	0	0.007414	0.01965	0.993	0	0
RNH1	375	0	0.007414	0.0488	0.047	0	0
ROCK2	70	0	0.007414	0.00902	0.507	0	0
RP1L1	301	0	0.007414	0.03143	0.371	0	0
RREB1	224	0	0.007414	0.00316	0.223	0	0
SAV1	473	0	0.007414	0.00561	0.412	0	0
SCAP	139	0	0.007414	0.04825	0.08642	0	0
SDHC	45	0	0.007414	0.00742	0.03823	0	0
SEC24D	184	0	0.007414	0.02723	0.755	0	0
SGSM3	660	0	0.007414	0.03147	0.67	0	0
SLC38A4	431	0	0.007414	0.02772	0.961	0	0
SLC6A20	136	0	0.007414	0.01173	0.171	0	0
SLC6A4	536	0	0.007414	0.03066	0.872	0	0
SND1	291	0	0.007414	0.02841	0.05587	0	0
SNX9	263	0	0.007414	0.03315	0.324	0	0
SPTBN1	79	0	0.007414	0.01885	0.641	0	0
SPTY2D1	383	0	0.007414	0.04819	0.553	0	0
STX11	261	0	0.007414	0.001818	0.681	0	0
TNIP3	186	0	0.007414	0.00781	0.000228	0	0
TNKS	300	0	0.007414	0.000909	0.218	0	0
TP53RK	631	0	0.007414	0.0361	0.366	0	0
TRA2A	269	0	0.007414	0.01197	0.0019	0	0
TRAF3IP3	55	0	0.007414	0.03149	0.964	0	0
TYROBP	602	0	0.007414	0.03408	0.952	0	0
UBAC2	461	0	0.007414	0.00182	0.0022	0	0
UBASH3B	413	0	0.007414	0.03262	0.784	0	0
UBE2R2	328	0	0.007414	0.03296	0.143	0	0
UCK2	47	0	0.007414	0.00654	0.27	0	0
USP12	455	0	0.007414	0.02363	0.476	0	0
VPS13D	5	0	0.007414	0.00477	0.117	0	0
WARS	486	0	0.007414	0.00962	0.01075	0	0
WIPF1	112	0	0.007414	0.03519	0.863	0	0
ZC3HAV1	293	0	0.007414	0.00342	0.03135	0	0
ZFPM1	523	0	0.007414	0.01897	0.05318	0	0
ZWINT	361	0	0.007414	0.03553	0.212	0	0
