INFO:Adding HGNC gene nodes.
INFO:Adding BTO tissue nodes.
INFO:Adding DOID disease nodes.
INFO:Adding GWAS catalog disease-gene associations.
INFO:excluding pmids: set(['21833088'])
INFO:fdr_cutoff: 0.05
INFO:mapped_term_cutoff: 1
WARNING:EFO:0000302 from EBI's gwas_catalog_to_EFO_mappings not found in EFO.
WARNING:EFO:0004221 from EBI's gwas_catalog_to_EFO_mappings not found in EFO.
INFO:Adding Instrinsic Semantic Similarity disease-disease edges.
INFO:lin_cutoff: 0.45
INFO:Adding BodyMap2 gene-tissue expression.
INFO:fpkm_cutoff: 75.0
INFO:Adding ppiTrim gene-gene interaction.
INFO:Adding CoPub disease-tissue cooccurrence.
INFO:r_scaled_cutoff: 30.0
INFO:MetaNode Counts
INFO:c3.tft: 615
INFO:c2.all: 4722
INFO:c5.cc: 233
INFO:c2.cp.reactome: 674
INFO:c5.bp: 825
INFO:tissue: 4825
INFO:c1.all: 326
INFO:c3.all: 836
INFO:c4.cm: 431
INFO:c2.cp.all: 1320
INFO:c7.all: 1910
INFO:c2.cgp: 3402
INFO:c2.cp.kegg: 186
INFO:c3.mir: 221
INFO:c6.all: 189
INFO:c5.all: 1454
INFO:c5.mf: 396
INFO:c2.cp.biocarta: 217
INFO:disease: 6338
INFO:gene: 37652
INFO:c4.all: 858
INFO:c4.cgn: 427
INFO:MetaEdge Counts
INFO:gene - membership - c5.bp: 75496
INFO:gene - membership - c3.all: 197088
INFO:gene - membership - c4.cgn: 42345
INFO:gene - membership - c3.mir: 34022
INFO:disease - similarity - disease: 250
INFO:gene - membership - c2.cgp: 371155
INFO:gene - membership - c1.all: 25342
INFO:gene - membership - c5.mf: 23644
INFO:gene - membership - c2.cp.reactome: 36693
INFO:gene - membership - c6.all: 30832
INFO:gene - membership - c2.cp.all: 63456
INFO:gene - membership - c2.cp.kegg: 12781
INFO:gene - membership - c2.cp.biocarta: 4488
INFO:gene - membership - c4.all: 91008
INFO:gene - membership - c4.cm: 48663
INFO:gene - membership - c7.all: 376783
INFO:tissue - expression - gene: 15475
INFO:disease - cooccurrence - tissue: 382
INFO:gene - membership - c3.tft: 163066
INFO:gene - membership - c2.all: 434611
INFO:gene - interaction - gene: 98176
INFO:disease - association - gene: 2193
INFO:gene - membership - c5.all: 134221
INFO:gene - membership - c5.cc: 35081
