gene	status	prior	wtccc2_pval	meta2.5_pval	PPA	nature.linked
FCRL3	1	0.008835	1e-06	0.01205	0.995804584808187	0
NCF4	2	0.008834	2e-06	0.03575	0.992059220504712	0
BCL10	2	0.009306	2.1e-05	0.00081	0.938565756725546	0
CD48	0	0.012533	5.8e-05	0.000487	0.891919805978548	0
REL	0	0.043278	0.000307	0.000905	0.870155115412473	0
TXK	2	0.012523	0.000205	0.000169	0.728243858662556	0
PUS10	2	0.01602	0.000389	0.00103	0.662264967477106	0
TEC	2	0.012523	0.000301	0.000354	0.656540108103692	0
CHST12	1	0.012864	0.000381	0.03454	0.615131316864298	0
NDFIP1	1	0.017978	0.000961	0.01168	0.502171021355254	0
JAK2	0	0.028009	0.00165	0.04872	0.500692827891198	0
MMP9	2	0.012533	0.000789	0.04223	0.453036174392637	0
MAPK3	2	0.009301	0.000711	4.3e-05	0.401242209073695	0
ZPBP	2	0.018289	0.00206	0.01999	0.349762606134087	0
PEX13	2	0.012523	0.001359	0.0126	0.342133234411057	0
TBKBP1	1	0.009048	0.001034	1.3e-05	0.320909629176753	0
ZPBP2	2	0.027438	0.00407	0.00167	0.316611480180766	0
SLAMF7	2	0.012533	0.00166	0.00322	0.305278890922702	0
TRAF3	2	0.010259	0.001411	0.00529	0.291657264853708	0
IKZF3	2	0.027438	0.00474	0.00811	0.290345955688545	0
TNFAIP3	0	0.019954	0.00533	0.01002	0.211648222361637	0
IRF1	2	0.018289	0.006	0.02252	0.182518992142513	0
CKB	2	0.009312	0.00332	0.000148	0.154316790805926	0
CSF2	0	0.014355	0.00878	0.03006	0.114157541540842	0
ITGAM	2	0.008625	0.00469	0.03587	0.112895274367872	0
RUNX3	2	0.01228	0.007322	0.01565	0.11272256618181	0
ETS1	2	0.012629	0.00812	0.02482	0.107452207998621	0
PAPOLG	0	0.012523	0.00825	0.02673	0.105443962886237	0
ORMDL3	0	0.03225	0.03063	0.00178	0.102995933193234	0
GNG2	2	0.012864	0.00899	0.03835	0.101673285568652	0
ATXN2	0	0.011443	0.00784	0.02231	0.100740436833438	0
ALDH1L1	2	0.012954	0.00928	0.00828	0.100047789633691	0
FOSL1	2	0.012533	0.00917	0.04714	0.0978998913645289	0
SYPL1	2	0.012954	0.00971	0.03561	0.0968904674444367	0
IZUMO1	2	0.012523	0.01021	0.001213	0.0906391998815897	0
SH2B3	2	0.014687	0.01352	0.01167	0.0861276939223599	0
FUT2	2	0.012523	0.01155	0.00179	0.0830275443528963	0
IKZF1	2	0.01863	0.02065	0.00815	0.0801742497098534	0
IL1R2	2	0.017551	0.01943	0.03743	0.0790431697794112	0
HSD17B4	0	0.012523	0.01287	0.04775	0.0768765394085702	0
CTSH	2	0.009484	0.00946	0.00521	0.0739801445050658	0
RASIP1	2	0.012523	0.01556	0.0014	0.0671833702339535	0
IQGAP1	2	0.009312	0.0126	0.03747	0.0590376037962509	0
MPZ	2	0.012864	0.02032	0.02199	0.0570968701400869	0
P4HA2	2	0.012523	0.01981	0.000921	0.0566519168544109	0
DLL1	2	0.009484	0.0159	0.01815	0.0507757443880575	0
MORF4L1	0	0.008626	0.01508	0.00156	0.0481689930207023	0
GRB2	2	0.010217	0.01974	0.01236	0.046720798078913	0
TREH	2	0.009711	0.02095	0.02794	0.0426459024464273	0
PHLDB1	2	0.009711	0.02387	0.04926	0.0388886401156671	0
ANKRD55	0	0.009707	0.02478	0.03822	0.0378641405206333	0
TOP1	2	0.009314	0.02756	0.001146	0.0337634957008044	0
ATG16L1	2	0.012523	0.04364	0.00218	0.0330090610605083	0
ADO	2	0.013105	0.04813	0.04979	0.0323720419479877	0
PLCG1	2	0.009309	0.02965	0.000822	0.0320741887793752	0
IFNGR2	2	0.012523	0.04624	0.0367	0.0317798643433873	0
ZFP90	2	0.010912	0.04059	0.02806	0.0302612239628076	0
SAG	2	0.012523	0.05084	0.001608	0.0298830208836927	0
GPR18	2	0.012533	0.05363	0.00323	0.0288983461588131	0
SPI1	2	0.009304	0.03646	0.00682	0.0278186151295905	0
SETDB1	2	0.009312	0.04003	0.03742	0.0261408135618294	0
SPRED2	0	0.014339	0.08388	0.000262	0.025097686114131	0
PDLIM4	2	0.018289	0.131	0.00432	0.0250934613046021	0
NFIL3	2	0.01385	0.07951	0.01536	0.0250232092917706	0
LRRK2	0	0.018698	0.14	0.04178	0.024833631127781	0
SLC9A3	2	0.010912	0.05752	0.04138	0.0241131921660904	0
DNMT3A	0	0.015491	0.124	0.03025	0.0218734667801005	0
EGFR	2	0.012288	0.08798	0.03255	0.0209533821657242	0
IL15RA	2	0.012533	0.09248	0.000851	0.0207663576722946	0
IL6ST	0	0.015815	0.163	0.002459	0.0196008451634607	0
FOS	2	0.016687	0.189	0.03264	0.019441358954712	0
EGR2	2	0.008834	0.06256	0.04926	0.0185587599585023	0
CDIPT	2	0.009313	0.07055	0.00942	0.0181520270902288	0
FGFR4	2	0.00931	0.07061	0.000833	0.0181368015211839	0
KAT2A	2	0.009313	0.07438	0.01404	0.0175778800831907	0
ATP2A2	2	0.009313	0.07478	0.02446	0.0175210302989191	0
IL31RA	2	0.012523	0.151	0.01827	0.0160804614454103	0
TNFRSF18	2	0.012533	0.16	0.00257	0.0156744905740008	0
FER	2	0.00931	0.09168	0.04179	0.0155361869473209	0
TMEM50B	2	0.012523	0.183	0.03874	0.0147896625737638	0
ZDHHC22	2	0.012842	0.201	0.0456	0.0146228377556953	0
NECAP1	2	0.012864	0.21	0.02008	0.0144169567981491	0
CD226	0	0.012533	0.216	0.00875	0.0139093592373847	0
POU2AF1	0	0.010185	0.135	0.03684	0.0138092904161366	0
ADAMTS7	0	0.008626	0.09973	0.04749	0.0137316085060968	0
DGKD	2	0.012523	0.229	0.0217	0.0136327287377046	0
SKAP2	2	0.012954	0.272	0.03093	0.0134501391060567	0
PRKCD	2	0.013284	0.346	0.01211	0.0133076980393015	0
SYT1	2	0.012864	0.283	0.00344	0.0132422927547791	0
TSPAN14	2	0.012533	0.263	0.03081	0.0131180895413298	0
HSPA8	2	0.011239	0.192	0.01294	0.0130254944598233	0
CUX2	2	0.009484	0.137	0.00668	0.0127692849066052	0
CEBPB	2	0.012533	0.324	0.0476	0.012625437662953	0
TNFRSF4	2	0.012533	0.328	0.003014	0.0126089543268421	0
DUSP6	2	0.009313	0.143	0.02077	0.0122816324235886	0
HDAC1	2	0.011252	0.236	0.000233	0.0121364150501027	0
CANX	2	0.009302	0.163	0.01388	0.0115470347475136	0
HBS1L	2	0.008626	0.148	0.04175	0.0111936101710366	0
CHRNA9	2	0.009048	0.167	0.03221	0.0111132333110824	0
CASP10	2	0.010291	0.271	0.0047	0.0106953272533708	0
BATF3	2	0.009308	0.22	0.00304	0.0102696333194237	0
MAEA	2	0.008834	0.198	0.02361	0.0101217431100214	0
LCK	2	0.00931	0.247	0.02301	0.00991000762685542	0
KHDRBS1	2	0.009308	0.252	0.03979	0.00985304223739505	0
KLF11	2	0.009312	0.253	0.04425	0.00984671028286158	0
RPS6KA1	2	0.009309	0.316	0.000586	0.0094063553403954	0
CASP8	2	0.0093	0.36	0.00327	0.00930212910638828	0
VAMP3	2	0.019217	0.637	0.00871	NA	0
CCL2	2	0.018289	0.431	0.01683	NA	0
CREM	2	0.018289	0.374	0.01247	NA	0
RIPK2	2	0.015237	0.411	0.00298	NA	0
PPIB	2	0.012954	0.487	0.03561	NA	0
CNIH	2	0.01292	0.628	0.02776	NA	0
DNAJB3	2	0.012875	0.968	0.04038	NA	0
GFOD2	2	0.012864	0.548	0.02442	NA	0
LPAR1	2	0.012842	0.506	0.01288	NA	0
PCDH8	2	0.012842	0.705	0.01384	NA	0
PDYN	2	0.012842	0.398	0.01438	NA	0
SNTG1	2	0.012842	0.987	0.03974	NA	0
SCUBE1	2	0.012788	0.679	0.0384	NA	0
PHACTR2	2	0.012533	0.403	0.03683	NA	0
CCL7	2	0.012523	0.532	0.026	NA	0
PSMB10	2	0.012523	0.431	0.02811	NA	0
PXDN	2	0.012523	0.862	0.01742	NA	0
ITGA4	2	0.011185	0.615	0.04353	NA	0
UBASH3A	0	0.010906	0.386	0.02029	NA	0
RIPK3	2	0.010285	0.712	0.01748	NA	0
QARS	2	0.009314	0.656	0.0449	NA	0
RPS10	2	0.009314	0.515	0.01688	NA	0
XRCC4	2	0.009314	0.846	0.04364	NA	0
ATAD3A	2	0.009313	0.924	0.03065	NA	0
RALBP1	2	0.009313	0.602	0.00133	NA	0
MYO6	2	0.009312	0.917	0.01791	NA	0
NCF2	2	0.009312	0.385	0.02169	NA	0
HMGA1	2	0.009309	0.524	0.03624	NA	0
