source	target	target_name	status	PC_GfGaD	PCs_GfGaD	PCt_GfGaD	NPC_GfGaD	GPC_GfGaD	DPC_0.0_GfGaD	DPC_0.1_GfGaD	DPC_0.2_GfGaD	DPC_0.3_GfGaD	DPC_0.4_GfGaD	DPC_0.5_GfGaD	DPC_0.6_GfGaD	DPC_0.7_GfGaD	DPC_0.8_GfGaD	DPC_0.9_GfGaD	DPC_1.0_GfGaD	DPC_log1p_GfGaD	PC_GfGfGaD	PCs_GfGfGaD	PCt_GfGfGaD	NPC_GfGfGaD	GPC_GfGfGaD	DPC_0.0_GfGfGaD	DPC_0.1_GfGfGaD	DPC_0.2_GfGfGaD	DPC_0.3_GfGfGaD	DPC_0.4_GfGfGaD	DPC_0.5_GfGfGaD	DPC_0.6_GfGfGaD	DPC_0.7_GfGfGaD	DPC_0.8_GfGfGaD	DPC_0.9_GfGfGaD	DPC_1.0_GfGfGaD	DPC_log1p_GfGfGaD
AAMP	EFO_0000537	hypertension	0	0	4	2789	0.0	0.0	0	0	0	0	0	0	0	0	0	0	0	0	25	4009	1214475	4.10345970895e-05	0.0226480123547	25.0	1.96062671741	0.159203667357	0.0134599010502	0.00118990599076	0.000110198405635	1.0679314146e-05	1.07877049884e-06	1.12937968411e-07	1.21753427503e-08	1.34329315636e-09	0.0117236111421
AAMP	EFO_0000729	ulcerative colitis	1	0	4	18740	0.0	0.0	0	0	0	0	0	0	0	0	0	0	0	0	215	4010	7600540	5.6545094713e-05	0.0779653620632	215.0	12.770942424	0.779806095503	0.0490568772339	0.00318567332957	0.000213862761855	1.48560191686e-05	1.06814319345e-06	7.94620680061e-08	6.1103642166e-09	4.84936246249e-10	0.0443154849379
