gene	disease	status	prediction	P.phs000018.pha002864	block.phs000018.pha002864	PPA.phs000018.pha002864	P.phs000180.pha002862	block.phs000180.pha002862	PPA.phs000180.pha002862	NPC_GiGaD	NPC_GsTpD	NPC_GaDaGaD	ld.with.positive
IL18RAP	EFO_0001359	0	0.0246611513888768	0.02361	2263	0.0951614068797443	0.407			0	0.00224466891134	0.00688610384245	0
TAGAP	EFO_0001359	0	0.0217058328249079	0.01335	6180	0.124077103608384	0.106		0.0331720120939524	0	0.00223713646532	0.00589225589226	0
SP140	EFO_0001359	0	0.0176486687044483	0.04485	2768	0.0453174097032808	0.275		0.0182762179271292	0	0.00223713646532	0.00427715996578	0
LPP	EFO_0001359	0	0.0158627874099052	0.01078	3797	0.10827703268979	0.326		0.0159687203555022	0	0	0.00526161940953	0
IL7R	EFO_0001359	0	0.0152774419877899	0.02561	4611	0.057325450031064	0.02177	4484	0.0641098860511825	0	0.00224719101124	0.00314645308924	0
IL12A	EFO_0001359	0	0.0130458997402843	0.01511	3676	0.0712910800583749	0.302		0.0132696934401254	0	0	0.00374370050396	0
UTS2	EFO_0001359	0	0.0129664381322976	0.03955	75	0.0364497180021937	0.05635		0.0289550741957512	0	0	0.00369633210122	0
RBM17	EFO_0001359	0	0.012753949386327	0.01824	8274	0.0610959090259976	2.3e-05	7863	0.950853934092132	0	0	0.0035682426405	1
TYR	EFO_0001359	0	0.012753949386327	0.02068	9761	0.0559372916996358	0.699			0	0	0.0035682426405	0
NFKB1	EFO_0001359	0	0.0120782474133928	0.02314	4266	0.0490757492970879	0.864			0	0	0.00314645308924	0
ITGAL	EFO_0001359	0	0.0118282303473231	0.01773	12619	0.0580167282251439	0.311		0.0119776162356788	0	0.00222965440357	0.00117577895356	0
MUC1	EFO_0001359	0	0.0117021863300706	0.00625	1117	0.120744864402957	0.702			0	0	0.00290149426955	0
NKD1	EFO_0001359	0	0.0117021863300706	0.02502	12675	0.045078033745442	0.06327		0.0243346187217638	0	0	0.00290149426955	0
PXDN	EFO_0001359	0	0.0117021863300706	0.0045	1790	0.151921363474759	0.758			0	0	0.00290149426955	0
SPHK2	EFO_0001359	0	0.0117021863300706	0.04746	15141	0.0292331580270918	0.175		0.014079869800296	0	0	0.00290149426955	0
DNMT3A	EFO_0001359	1	0.0113847253294425	0.00334	1863	0.181974432303773	0.08905		0.0192908205018774	0	0	0.00268857356236	1
CCDC116	EFO_0001359	0	0.011283878518982	0.02137	16202	0.0486033717019105	0.01512	15527	0.0621283614132143	0	0	0.00261970601077	0
CD226	EFO_0001359	0	0.011283878518982	0.01343	14223	0.0676243808922893	5e-06	13584	0.985671983833725	0	0	0.00261970601077	0
FLRT1	EFO_0001359	0	0.011283878518982	0.02058	9503	0.049910874523712	0.568			0	0	0.00261970601077	0
LOH12CR1	EFO_0001359	0	0.011283878518982	0.03471	10188	0.0347414588194929	0.0049	9739	0.138750458076014	0	0	0.00261970601077	0
RASSF5	EFO_0001359	0	0.011283878518982	0.02479	1528	0.0438003820509883	0.209		0.0126700165235413	0	0	0.00261970601077	0
UBQLN4	EFO_0001359	0	0.011283878518982	0.01419	1135	0.0650120876928373	0.852			0	0	0.00261970601077	0
BRF1	EFO_0001359	0	0.0102013103455044	0.02451	11787	0.0400410347408651	0.403			0.00675675675676	0	0	0
SNAPC2	EFO_0001359	0	0.0102013103455044	0.0058	14440	0.112638905068594	0.367		0.010201339220569	0.00675675675676	0	0	0
GAB1	EFO_0001359	0	0.0101931410172763	0.04045	4382	0.028369615367729	0.289		0.0104499986470614	0.00673400673401	0	0	0
TAF10	EFO_0001359	0	0.0101931410172763	0.00915	9068	0.0810564564216403	0.05909		0.0221630557760565	0.00673400673401	0	0	0
EPHA2	EFO_0001359	0	0.0101850329265023	0.01644	166	0.0530753778320896	0.94			0.00671140939597	0	0	0
PDGFRA	EFO_0001359	0	0.0101850329265023	0.03334	4064	0.0323057770546514	0.08565		0.0176666577110747	0.00671140939597	0	0	0
PECAM1	EFO_0001359	0	0.0101850329265023	0.03268	13805	0.0327505299413269	0.805			0.00671140939597	0	0	0
CTSL2	EFO_0001359	0	0.0101793942880717	0.01582	7898	0.0545296595707272	0.224		0.0111630871299133	0	0.00224719101124	0	0
ZFP36L2	EFO_0001359	0	0.0101793942880717	0.04941	1973	0.0248266156257945	0.435			0	0.00224719101124	0	0
ADCYAP1	EFO_0001359	0	0.0101767008150391	0.0327	14017	0.0327106462198213	0.671			0	0.00224466891134	0	0
CPB1	EFO_0001359	0	0.0101767008150391	0.00834	3619	0.0865447247198735	0.262		0.010663112106161	0	0.00224466891134	0	0
CYP4F3	EFO_0001359	0	0.0101767008150391	0.00387	14627	0.149626516652069	0.788			0	0.00224466891134	0	0
ERCC1	EFO_0001359	0	0.0101767008150391	0.01703	15063	0.051711808390861	0.941			0	0.00224466891134	0	0
FGD3	EFO_0001359	0	0.0101767008150391	0.03522	7875	0.0310958239301311	0.07416		0.0192275735330288	0	0.00224466891134	0	0
KCNQ5	EFO_0001359	0	0.0101767008150391	0.01584	5857	0.0544664843359081	0.664			0	0.00224466891134	0	0
NTSR1	EFO_0001359	0	0.0101767008150391	0.02087	15891	0.0447409459751165	0.501			0	0.00224466891134	0	0
RNASE3	EFO_0001359	0	0.0101767008150391	0.03039	11278	0.0343988227662108	0.473			0	0.00224466891134	0	0
SCG2	EFO_0001359	0	0.0101767008150391	0.02261	2744	0.0422792223222149	0.773			0	0.00224466891134	0	0
TNFRSF10C	EFO_0001359	0	0.0101767008150391	0.02007	7117	0.0459984511449779	0.783			0	0.00224466891134	0	0
TSPAN32	EFO_0001359	0	0.0101767008150391	0.03545	8976	0.0309586700929934	0.000379	8545	0.558845520131391	0	0.00224466891134	0	1
C2orf40	EFO_0001359	0	0.0101713340703019	0.03406	2272	0.0317962684887679	0.02399	2231	0.040532271176685	0	0.00223964165733	0	0
FAM124A	EFO_0001359	0	0.0101713340703019	0.002394	11117	0.207393353868663	0.618			0	0.00223964165733	0	0
FOLR3	EFO_0001359	0	0.0101713340703019	0.01327	9675	0.061833333348685	0.232		0.0110296858115793	0	0.00223964165733	0	0
GPR110	EFO_0001359	0	0.0101713340703019	0.02324	5789	0.0414474882915308	0.806			0	0.00223964165733	0	0
HSD17B14	EFO_0001359	0	0.0101713340703019	0.02861	15148	0.0358455194171943	0.101		0.0160632836999528	0	0.00223964165733	0	0
IL6R	EFO_0001359	0	0.0101713340703019	0.02373	1101	0.0408437454469446	0.01925	1081	0.0473585299345977	0	0.00223964165733	0	0
MUC20	EFO_0001359	0	0.0101713340703019	0.04635	3825	0.0258664510638821	0.09253		0.0168745520991422	0	0.00223964165733	0	0
PANK1	EFO_0001359	0	0.0101713340703019	0.02288	8613	0.0419056057241619	0.659			0	0.00223964165733	0	0
RBKS	EFO_0001359	0	0.0101713340703019	0.03096	1910	0.0339439644996478	0.165		0.0125557627028995	0	0.00223964165733	0	0
SALL1	EFO_0001359	0	0.0101713340703019	0.02384	12678	0.0407112338986242	0.921			0	0.00223964165733	0	0
UNC5CL	EFO_0001359	0	0.0101713340703019	0.03527	5718	0.0310498348736517	0.574			0	0.00223964165733	0	0
ATP2A3	EFO_0001359	0	0.0101686607483566	0.0113	13057	0.0694251462655508	0.00935	12470	0.0796205750336429	0	0.00223713646532	0	0
STX11	EFO_0001359	0	0.0101686607483566	0.02471	6115	0.039689976190341	0.842			0	0.00223713646532	0	0
G6PC	EFO_0001359	0	0.0101606806852962	0.0278	13565	0.0365295599589553	0.124		0.0143790712708257	0	0.00222965440357	0	0
SLC2A2	EFO_0001359	0	0.0101606806852962	0.01783	3710	0.049966975523643	0.422			0	0.00222965440357	0	0
HEMGN	EFO_0001359	0	0.0101580338828772	0.00773	7905	0.0912707529413102	0.953			0	0.0022271714922	0	0
CALML3	EFO_0001359	0	0.0101527599590909	0.03639	8267	0.0303441602600912	0.969			0	0.00222222222222	0	0
APOM	EFO_0001359	0	0.0097459235602906	0.04023	5566	0.0272461319331632	0	5221		0	0	0.0014865467519	1
PDE2A	EFO_0001359	0	0.0097459235602906	0.01728	9676	0.049095426940126	0.579			0	0	0.0014865467519	0
B3GNT2	EFO_0001359	0	0.00973870797296886	0.04108	2045	0.0268480396383138	0.63			0	0	0.00148082333778	0
ZNF746	EFO_0001359	0	0.00973650001495652	0.01364	6957	0.0581547316095481	0.66			0	0	0.00147907114332	0
NFKBIA	EFO_0001359	0	0.00868698861986824	0.01037	11395	0.0637075557282921	0.686			0	0	0.000598175564528	0
BMS1	EFO_0001359	0	0.00835854729282551	0.01873	8388	0.0399585401378952	0.621			0	0	0.000300706660653	0
MOBP	EFO_0001359	0	0.00835849832834574	0.02085	3041	0.0370034120987072	0.509			0	0	0.000300661455201	0
LAMC2	EFO_0001359	0	0.00835602088374715	0.02031	1398	0.037693148333142	0.813			0	0	0.00029837386245	0
ACTC1	EFO_0001359	0	0.00803904833199385	0.02643	11835	0.0301122997041495	0.124		0.0113867376082141	0	0	0	0
ACTG1	EFO_0001359	0	0.00803904833199385	0.01739	13968	0.0405941933531819	0.971			0	0	0	0
ACTL8	EFO_0001359	0	0.00803904833199385	0.04903	184	0.0197673754661088	0.957			0	0	0	0
ADAM32	EFO_0001359	0	0.00803904833199385	0.04153	7196	0.022067470909396	0.501			0	0	0	0
ADAMTS13	EFO_0001359	0	0.00803904833199385	0.03481	8172	0.0248720619671091	0.819			0	0	0	0
ADAMTS2	EFO_0001359	0	0.00803904833199385	0.04224	5267	0.0218183303201413	0.789			0	0	0	0
ADNP2	EFO_0001359	0	0.00803904833199385	0.02277	14249	0.0334591931120115	0.682			0	0	0	0
AGBL5	EFO_0001359	0	0.00803904833199385	0.04519	1879	0.0208590325032657	0.02002	1840	0.0366801897370045	0	0	0	0
AIPL1	EFO_0001359	0	0.00803904833199385	0.03314	13098	0.0257258829907171	0.194		0.00928423917994415	0	0	0	0
ALDH1L1	EFO_0001359	0	0.00803904833199385	0.02404	3494	0.0321950310471698	0.335		0.00807202657563177	0	0	0	0
ALOX12B	EFO_0001359	0	0.00803904833199385	0.0413	13166	0.02214982978332	0.195		0.00926584940570097	0	0	0	0
ANKRD24	EFO_0001359	0	0.00803904833199385	0.02042	14369	0.0361638761405946	0.608			0	0	0	0
AOX1	EFO_0001359	0	0.00803904833199385	0.03224	2604	0.0262187772817889	0.229		0.0087549534521095	0	0	0	0
APBB2	EFO_0001359	0	0.00803904833199385	0.00887	4018	0.066410779766879	0.178		0.00961098097686735	0	0	0	0
AQP4	EFO_0001359	0	0.00803904833199385	0.04692	14090	0.0203472662521579	0.29		0.0082366210427082	0	0	0	0
ARHGAP21	EFO_0001359	0	0.00803904833199385	0.01807	8346	0.0394855183093754	0.03281	7932	0.0259037974082331	0	0	0	0
ARHGEF5	EFO_0001359	0	0.00803904833199385	0.04756	6944	0.0201664705243635	0.404			0	0	0	0
ARHGEF7	EFO_0001359	0	0.00803904833199385	0.01487	11225	0.0454751217637889	0.852			0	0	0	0
ARID3B	EFO_0001359	0	0.00803904833199385	0.03846	12114	0.0232394126907063	0.969			0	0	0	0
ARNTL	EFO_0001359	0	0.00803904833199385	0.04164	9126	0.022028371360567	0.142		0.0106418450589435	0	0	0	0
ARPC1A	EFO_0001359	0	0.00803904833199385	0.02371	6637	0.032511897272911	0.529			0	0	0	0
ASGR2	EFO_0001359	0	0.00803904833199385	0.04916	13111	0.0197331198603285	0.876			0	0	0	0
ATG3	EFO_0001359	0	0.00803904833199385	0.04163	3408	0.0220319181817996	0.02585	3285	0.0305860970414937	0	0	0	0
ATP6V1G1	EFO_0001359	0	0.00803904833199385	0.01112	8005	0.0562412332609518	0.567			0	0	0	0
ATP8B3	EFO_0001359	0	0.00803904833199385	0.04114	14305	0.022207611326643	0.05748		0.0178351440741463	0	0	0	0
BAHD1	EFO_0001359	0	0.00803904833199385	0.02634	11858	0.0301845983722732	0.302		0.00817766449600491	0	0	0	0
BICD1	EFO_0001359	0	0.00803904833199385	0.03333	10281	0.0256248804545497	0.758			0	0	0	0
BMPR1B	EFO_0001359	0	0.00803904833199385	0.0424	4240	0.0217632236120231	0.08662		0.0138750018883251	0	0	0	0
BPTF	EFO_0001359	0	0.00803904833199385	0.01414	13823	0.0471734995565676	0.00111	13204	0.283046546408919	0	0	0	0
BTN1A1	EFO_0001359	0	0.00803904833199385	0.04229	5443	0.0218010691574785	0	5221		0	0	0	1
C19orf43	EFO_0001359	0	0.00803904833199385	0.02078	14563	0.0357143341235626	0.155		0.0102118239409061	0	0	0	0
C1orf65	EFO_0001359	0	0.00803904833199385	0.00547	1613	0.0947316040710026	0.227		0.00877962218968581	0	0	0	0
C20orf111	EFO_0001359	0	0.00803904833199385	0.02354	15734	0.0326782185751846	0.08773		0.0137725616107529	0	0	0	0
C4orf26	EFO_0001359	0	0.00803904833199385	0.01318	4154	0.0496577600257534	0.557			0	0	0	0
CARS	EFO_0001359	0	0.00803904833199385	4.3e-05	8981	0.873352980992772	0.001068	8545	0.289774222892803	0	0	0	1
CASC1	EFO_0001359	0	0.00803904833199385	0.01503	10249	0.0451223985861029	0.922			0	0	0	0
CASQ2	EFO_0001359	0	0.00803904833199385	0.03725	907	0.0237487827277458	0.497			0	0	0	0
CBR3	EFO_0001359	0	0.00803904833199385	0.04677	16038	0.0203902856555449	0.788			0	0	0	0
CCDC11	EFO_0001359	0	0.00803904833199385	0.01058	14161	0.0583351602042712	0.935			0	0	0	0
CCDC127	EFO_0001359	0	0.00803904833199385	0.04117	4532	0.0221967465142273	0.214		0.00895515105900053	0	0	0	0
CCDC17	EFO_0001359	0	0.00803904833199385	0.02446	528	0.0318027899709124	0.25		0.0085290392791362	0	0	0	0
CCDC68	EFO_0001359	0	0.00803904833199385	0.0186	14177	0.0386714480502154	0.101		0.0127116910377382	0	0	0	0
CCDC87	EFO_0001359	0	0.00803904833199385	0.03973	9604	0.0227348636195345	0.504			0	0	0	0
CCL14	EFO_0001359	0	0.00803904833199385	0.04736	13397	0.0202224954358483	0.154		0.0102422597259319	0	0	0	0
CCL28	EFO_0001359	0	0.00803904833199385	0.01346	4646	0.0489009453038464	0.346		0.0080534659897648	0	0	0	0
CCNC	EFO_0001359	0	0.00803904833199385	0.01718	5939	0.0409522667272947	0.968			0	0	0	0
CD2	EFO_0001359	0	0.00803904833199385	0.02271	912	0.0335220268538375	0.454			0	0	0	0
CD274	EFO_0001359	0	0.00803904833199385	0.0288	7635	0.0283545789048213	0.361		0.00804045167712142	0	0	0	0
CD300LF	EFO_0001359	0	0.00803904833199385	0.04932	13857	0.019691183116299	0.00199	13238	0.194119533101173	0	0	0	0
CD9	EFO_0001359	0	0.00803904833199385	0.02113	10077	0.0352903643972424	0.579			0	0	0	0
CDC27	EFO_0001359	0	0.00803904833199385	0.0418	13634	0.0219718299533435	0.165		0.00992862698159916	0	0	0	0
CDK9	EFO_0001359	0	0.00803904833199385	0.01211	8082	0.0528315689131965	0.117		0.0117370044469008	0	0	0	0
CENPJ	EFO_0001359	0	0.00803904833199385	0.03567	10995	0.0244604269322545	0.457			0	0	0	0
CENPO	EFO_0001359	1	0.00803904833199385	0.03589	1860	0.0243579710943027	0.202		0.00914311684383	0	0	0	1
CEP164	EFO_0001359	0	0.00803904833199385	0.03043	9894	0.0272886955168319	0.911			0	0	0	0
CHAC1	EFO_0001359	0	0.00803904833199385	0.01033	11861	0.0593692339266325	0.126		0.0112936160646434	0	0	0	0
CHD8	EFO_0001359	0	0.00803904833199385	0.01641	11290	0.0423343989210321	0.233		0.0087073581120493	0	0	0	0
CHPF	EFO_0001359	0	0.00803904833199385	0.02044	2733	0.0361385324084202	0.808			0	0	0	0
CHRNA10	EFO_0001359	0	0.00803904833199385	0.04406	8985	0.0212128116815037	0.116		0.0117903768816031	0	0	0	0
CISH	EFO_0001359	0	0.00803904833199385	0.04873	3208	0.0198470566106533	0.09006		0.0135651804551855	0	0	0	0
CLNS1A	EFO_0001359	0	0.00803904833199385	0.00452	9727	0.108864882483363	0.562			0	0	0	0
CLOCK	EFO_0001359	0	0.00803904833199385	0.00377	4066	0.124117479693775	0.00796	3942	0.0719187912058137	0	0	0	0
COMMD4	EFO_0001359	0	0.00803904833199385	0.02301	12126	0.0332107794865912	0.36		0.00804089110394965	0	0	0	0
COX5B	EFO_0001359	0	0.00803904833199385	0.00941	2231	0.0635845276439269	0.604			0	0	0	0
COX6A2	EFO_0001359	0	0.00803904833199385	0.03999	12649	0.0226351275803539	0.198		0.00921198736322359	0	0	0	0
CPLX1	EFO_0001359	0	0.00803904833199385	0.04339	3863	0.0214304000842031	0.996			0	0	0	0
CPS1	EFO_0001359	0	0.00803904833199385	0.0404	2670	0.0224801987221224	0.116		0.0117903768816031	0	0	0	0
CPXM2	EFO_0001359	0	0.00803904833199385	0.01247	8849	0.0517103012117005	0.457			0	0	0	0
CREB3	EFO_0001359	0	0.00803904833199385	0.00514	7760	0.0991384314756462	0.02444	7310	0.0318211953887889	0	0	0	0
CRMP1	EFO_0001359	0	0.00803904833199385	0.03485	3913	0.02485251240739	0.863			0	0	0	0
CSK	EFO_0001359	0	0.00803904833199385	0.0371	12116	0.0238140036140926	0.407			0	0	0	0
CUL7	EFO_0001359	0	0.00803904833199385	0.03207	5744	0.0263146582976841	0.6			0	0	0	0
CYP2C18	EFO_0001359	0	0.00803904833199385	0.03399	8637	0.0252819047819753	0.343		0.0080577537661949	0	0	0	0
DACT1	EFO_0001359	0	0.00803904833199385	0.04374	11491	0.0213159854446674	0.05315		0.0187557748879689	0	0	0	0
DACT2	EFO_0001359	0	0.00803904833199385	0.04967	6219	0.019600297923944	0.228		0.00876721392928545	0	0	0	0
DAPK3	EFO_0001359	0	0.00803904833199385	0.03174	14364	0.0265034035662737	0.381			0	0	0	0
DBC1	EFO_0001359	0	0.00803904833199385	0.01063	8013	0.0581334617958538	0.586			0	0	0	0
DDI1	EFO_0001359	0	0.00803904833199385	0.04292	9814	0.0215866835151707	0.567			0	0	0	0
DDIT4	EFO_0001359	0	0.00803904833199385	0.01596	8519	0.0431966020517404	0.892			0	0	0	0
DDX56	EFO_0001359	0	0.00803904833199385	0.04814	6447	0.020006376554527	0.327		0.00809054271172935	0	0	0	0
DECR1	EFO_0001359	0	0.00803904833199385	0.03612	7366	0.0242520563096629	0.477			0	0	0	0
DLK1	EFO_0001359	1	0.00803904833199385	0.00372	11744	0.125314077676844	0.495			0	0	0	1
DNAJB1	EFO_0001359	0	0.00803904833199385	0.03378	14602	0.0253897300927296	0.132		0.0110308598333716	0	0	0	0
DNAJB9	EFO_0001359	0	0.00803904833199385	0.02115	6755	0.0352665148159588	0.06237		0.0169359734328441	0	0	0	0
DNAJC17	EFO_0001359	0	0.00803904833199385	0.00159	11860	0.225393999151886	0.00723	11345	0.0771939747424003	0	0	0	0
DRD3	EFO_0001359	0	0.00803904833199385	0.04762	3422	0.0201497458900989	0.263		0.00841613067756585	0	0	0	0
DSG3	EFO_0001359	0	0.00803904833199385	0.03767	14097	0.0235686476118663	0.00909	13466	0.0652240476681591	0	0	0	0
DSP	EFO_0001359	0	0.00803904833199385	0.0412	5328	0.0221858959366849	0.578			0	0	0	0
EBF2	EFO_0001359	0	0.00803904833199385	0.00786	7130	0.0725911487990031	0.879			0	0	0	0
EBNA1BP2	EFO_0001359	0	0.00803904833199385	0.02523	485	0.0311140146935391	0.169		0.00982525884416965	0	0	0	0
EFCAB2	EFO_0001359	0	0.00803904833199385	0.0246	1732	0.0316746996386433	0.227		0.00877962218968581	0	0	0	0
ELMOD2	EFO_0001359	0	0.00803904833199385	0.00203	4376	0.191520945313736	0.06822		0.0160156633185626	0	0	0	0
ENOX1	EFO_0001359	0	0.00803904833199385	0.0397	11075	0.0227464471754914	0.513			0	0	0	0
ENTHD1	EFO_0001359	0	0.00803904833199385	0.04591	16420	0.0206418183467364	0.437			0	0	0	0
EPB49	EFO_0001359	0	0.00803904833199385	0.01128	7102	0.0556546679004007	0.127		0.0112481306654134	0	0	0	0
EXOC6	EFO_0001359	0	0.00803904833199385	0.02584	8625	0.0305944323134685	0.253		0.0085012908888487	0	0	0	0
FAM105A	EFO_0001359	0	0.00803904833199385	0.02099	4577	0.0354584429251184	0.804			0	0	0	0
FAM110C	EFO_0001359	0	0.00803904833199385	0.00903	1784	0.0655427062576834	0.746			0	0	0	0
FAM118B	EFO_0001359	0	0.00803904833199385	0.01551	9999	0.0441029327077607	0.25		0.0085290392791362	0	0	0	0
FAM151B	EFO_0001359	0	0.00803904833199385	0.00022	4769	0.616726434015398	0.718			0	0	0	0
FBN2	EFO_0001359	0	0.00803904833199385	0.00636	4886	0.084822027417831	0.03346	4755	0.0255563659893495	0	0	0	0
FCRL1	EFO_0001359	0	0.00803904833199385	0.04693	1175	0.0203444071146345	0.233		0.0087073581120493	0	0	0	0
FEZ1	EFO_0001359	0	0.00803904833199385	0.04811	9988	0.0200145717899789	0.211		0.00899965882820111	0	0	0	0
FFAR1	EFO_0001359	0	0.00803904833199385	0.04828	14805	0.0199682537264621	0.245		0.00857767054614368	0	0	0	0
FMNL3	EFO_0001359	0	0.00803904833199385	0.01172	10360	0.054114340262342	0.393			0	0	0	0
FNBP1	EFO_0001359	0	0.00803904833199385	0.001784	8129	0.208894532314002	0.989			0	0	0	0
FTSJ2	EFO_0001359	0	0.00803904833199385	0.0378	6250	0.0235136204696781	0.841			0	0	0	0
FZD8	EFO_0001359	0	0.00803904833199385	0.01959	8382	0.0372560778084161	0.695			0	0	0	0
GATA3	EFO_0001359	0	0.00803904833199385	0.00573	8282	0.0915657610449792	0.443			0	0	0	0
GATA4	EFO_0001359	0	0.00803904833199385	0.04493	7064	0.0209390119006617	0.259		0.00844887678211416	0	0	0	0
GATA6	EFO_0001359	0	0.00803904833199385	0.000321	14073	0.53587855283993	0.243		0.00859798422735756	0	0	0	0
GHITM	EFO_0001359	0	0.00803904833199385	0.0329	8574	0.0258549582117365	0.273		0.0083415264107617	0	0	0	0
GINS2	EFO_0001359	0	0.00803904833199385	0.02849	12933	0.0285696029963851	0.244		0.00858776468349306	0	0	0	0
GJA3	EFO_0001359	0	0.00803904833199385	0.02024	10976	0.0363939721357546	0.446			0	0	0	0
GLT6D1	EFO_0001359	0	0.00803904833199385	0.02116	8189	0.0352546050666692	0.777			0	0	0	0
GRIA4	EFO_0001359	0	0.00803904833199385	0.00738	9820	0.076036582344623	0.606			0	0	0	0
GRM8	EFO_0001359	0	0.00803904833199385	0.03973	6805	0.0227348636195345	0.156		0.0101817928390181	0	0	0	0
GZF1	EFO_0001359	0	0.00803904833199385	0.02156	15592	0.0347862865186155	0.133		0.0109893390503948	0	0	0	0
HINT3	EFO_0001359	0	0.00803904833199385	0.01244	6038	0.0518015580651912	0.106		0.0123770416277046	0	0	0	0
HKDC1	EFO_0001359	0	0.00803904833199385	0.02978	8489	0.0277012248638764	0.741			0	0	0	0
HOXB13	EFO_0001359	0	0.00803904833199385	0.00773	13664	0.0734876890331117	0.294		0.00821564783942498	0	0	0	0
HSD17B3	EFO_0001359	0	0.00803904833199385	0.02684	7891	0.0297884241239035	0.784			0	0	0	0
HUS1	EFO_0001359	0	0.00803904833199385	0.02915	6464	0.0281167299805894	0.578			0	0	0	0
IFI44L	EFO_0001359	0	0.00803904833199385	0.04144	702	0.0220996003342799	0.839			0	0	0	0
IFIT3	EFO_0001359	0	0.00803904833199385	0.0483	8609	0.0199628238986835	0.907			0	0	0	0
IGFBP4	EFO_0001359	0	0.00803904833199385	0.00757	13466	0.0746276070395513	0.833			0	0	0	0
IL20RA	EFO_0001359	0	0.00803904833199385	0.03853	6090	0.0232108253710347	0.475			0	0	0	0
IL9	EFO_0001359	0	0.00803904833199385	0.02473	4943	0.0315569173867521	0.428			0	0	0	0
INPP5A	EFO_0001359	0	0.00803904833199385	0.04309	8885	0.0215298011111412	0.00293	8470	0.14853860701662	0	0	0	0
IRX5	EFO_0001359	0	0.00803904833199385	0.04689	12685	0.0203558502660636	0.163		0.00998234141196211	0	0	0	0
KCNJ2	EFO_0001359	0	0.00803904833199385	0.04133	13836	0.022139040558631	0.483			0	0	0	0
KHSRP	EFO_0001359	0	0.00803904833199385	0.03453	14413	0.0250100454637505	0.121		0.0115320401492519	0	0	0	0
KIAA0922	EFO_0001359	0	0.00803904833199385	0.03873	4416	0.0231296591025323	0.01172	4290	0.054114340262342	0	0	0	0
KIDINS220	EFO_0001359	0	0.00803904833199385	0.01327	1801	0.0494114297549509	0.15		0.0103681952552558	0	0	0	0
KLF5	EFO_0001359	0	0.00803904833199385	0.01771	11150	0.0400630598097174	0.684			0	0	0	0
KLHL22	EFO_0001359	0	0.00803904833199385	0.01781	16187	0.0399005551280203	0.219		0.00888440783238398	0	0	0	0
KLHL26	EFO_0001359	0	0.00803904833199385	0.03452	14702	0.0250150105576943	0.371			0	0	0	0
KRT8	EFO_0001359	0	0.00803904833199385	0.04898	10422	0.0197805944271015	0.64			0	0	0	0
LIN54	EFO_0001359	0	0.00803904833199385	0.03211	4194	0.0262920162663327	0.06171		0.0170497550085084	0	0	0	0
LMO7	EFO_0001359	1	0.00803904833199385	0.03805	11154	0.0234087487297584	0.06046		0.017271435752987	0	0	0	1
LPAR5	EFO_0001359	0	0.00803904833199385	0.00833	10089	0.0695533015075254	0.887			0	0	0	0
LPGAT1	EFO_0001359	0	0.00803904833199385	0.03131	1567	0.0267546826437864	0.866			0	0	0	0
LRRC8B	EFO_0001359	0	0.00803904833199385	0.00698	744	0.0792179225005744	0.104		0.0125072457379768	0	0	0	0
LRRC8D	EFO_0001359	0	0.00803904833199385	0.00558	745	0.0933615645693101	0.51			0	0	0	0
LRRK1	EFO_0001359	0	0.00803904833199385	0.04575	12270	0.0206895552892452	0.55			0	0	0	0
LTC4S	EFO_0001359	0	0.00803904833199385	0.00634	5270	0.0850184028927438	0.10396		0.0125098982331897	0	0	0	0
LYZL2	EFO_0001359	0	0.00803904833199385	0.04817	8370	0.0199981905354806	0.504			0	0	0	0
MAGOHB	EFO_0001359	0	0.00803904833199385	0.00305	10166	0.144384285497334	0.902			0	0	0	0
MAP2K3	EFO_0001359	0	0.00803904833199385	0.02961	13277	0.0278117869205438	0.295		0.00821061414878619	0	0	0	0
MAP3K1	EFO_0001359	0	0.00803904833199385	0.04835	4676	0.0199492670752689	0.597			0	0	0	0
MDFI	EFO_0001359	0	0.00803904833199385	0.01427	5725	0.0468598344896607	0.262		0.00842415675386981	0	0	0	0
MDM1	EFO_0001359	0	0.00803904833199385	0.04262	10607	0.0216880603001059	0.218		0.00889822213539832	0	0	0	0
MED30	EFO_0001359	0	0.00803904833199385	0.01679	7458	0.0416382726620278	0.57			0	0	0	0
MEF2C	EFO_0001359	0	0.00803904833199385	0.0497	4787	0.0195925615942863	0.214		0.00895515105900053	0	0	0	0
MKKS	EFO_0001359	0	0.00803904833199385	0.03387	15549	0.0253433724932037	0.278		0.00830791688276145	0	0	0	0
MLC1	EFO_0001359	0	0.00803904833199385	0.04193	16515	0.0219261760745257	0.973			0	0	0	0
MMP1	EFO_0001359	0	0.00803904833199385	0.01891	9810	0.0382141093951765	0.997			0	0	0	0
MOCS2	EFO_0001359	0	0.00803904833199385	0.04061	4657	0.022401935079726	0.458			0	0	0	0
MPP3	EFO_0001359	0	0.00803904833199385	0.01285	13578	0.0505869156999576	0.384			0	0	0	0
MRC2	EFO_0001359	0	0.00803904833199385	0.00381	13781	0.12317896216585	0.336		0.00807001350162441	0	0	0	0
MRGPRX2	EFO_0001359	0	0.00803904833199385	0.04973	9165	0.0195848336991055	0.05936		0.0174735258291442	0	0	0	0
MRPL9	EFO_0001359	0	0.00803904833199385	0.0041	1017	0.116833379589375	0.286		0.00825896373477156	0	0	0	0
MX1	EFO_0001359	0	0.00803904833199385	0.02153	16068	0.0348208729972649	0.3		0.00818667571709894	0	0	0	0
MYD88	EFO_0001359	0	0.00803904833199385	0.01882	3024	0.0383455068913048	0.648			0	0	0	0
MYOC	EFO_0001359	0	0.00803904833199385	0.02258	1334	0.033659186389563	0.765			0	0	0	0
N4BP2	EFO_0001359	0	0.00803904833199385	0.04565	4014	0.0207195440620521	0.932			0	0	0	0
NDUFB7	EFO_0001359	0	0.00803904833199385	0.02739	14603	0.0293675831376745	0.47			0	0	0	0
NDUFS5	EFO_0001359	0	0.00803904833199385	0.04733	437	0.0202309360209615	0.98			0	0	0	0
NEDD4L	EFO_0001359	0	0.00803904833199385	0.03593	14185	0.0243394637419574	0.307		0.00815651163104022	0	0	0	0
NEFL	EFO_0001359	0	0.00803904833199385	0.02945	7126	0.0279168876205777	0.633			0	0	0	0
NEUROD2	EFO_0001359	0	0.00803904833199385	0.02973	13441	0.0277336257047083	0.248		0.00854812856879617	0	0	0	0
NGF	EFO_0001359	0	0.00803904833199385	0.00286	906	0.151091527455999	0.404			0	0	0	0
NMUR2	EFO_0001359	0	0.00803904833199385	0.002477	5133	0.167069094982532	0.935			0	0	0	0
NPPC	EFO_0001359	0	0.00803904833199385	0.02802	2783	0.0289037062245016	0.34		0.00806261819468903	0	0	0	0
NRXN2	EFO_0001359	0	0.00803904833199385	0.03247	9523	0.026090488153292	0.496			0	0	0	0
NT5C3	EFO_0001359	0	0.00803904833199385	0.02105	6397	0.0353861657544713	0.292		0.00822596561345672	0	0	0	0
NT5E	EFO_0001359	0	0.00803904833199385	0.004222	5898	0.114382366806448	0.579			0	0	0	0
NTF3	EFO_0001359	0	0.00803904833199385	0.01331	10075	0.0493028923092804	0.906			0	0	0	0
NTN1	EFO_0001359	0	0.00803904833199385	0.002341	13180	0.173727045594596	0.663			0	0	0	0
NUBP1	EFO_0001359	0	0.00803904833199385	0.01645	12460	0.0422597821564148	0.48			0	0	0	0
NUDT21	EFO_0001359	0	0.00803904833199385	0.04324	12694	0.0214799453367362	0.909			0	0	0	0
OBSCN	EFO_0001359	0	0.00803904833199385	0.03818	1652	0.0233547031515712	0.966			0	0	0	0
OTP	EFO_0001359	0	0.00803904833199385	0.04957	4754	0.0196261467873137	0.03128	4631	0.0267724444262743	0	0	0	0
PAFAH1B2	EFO_0001359	0	0.00803904833199385	0.04952	9889	0.0196391065864684	0.00759	9445	0.0744828456190671	0	0	0	0
PAIP1	EFO_0001359	0	0.00803904833199385	0.02621	4647	0.0302898119801173	0.575			0	0	0	0
PARP12	EFO_0001359	0	0.00803904833199385	0.01834	6890	0.0390655860927279	0.491			0	0	0	0
PBRM1	EFO_0001359	0	0.00803904833199385	0.04655	3243	0.0204538330293416	0.05062		0.019359342765823	0	0	0	0
PDC	EFO_0001359	0	0.00803904833199385	0.02354	1417	0.0326782185751846	0.621			0	0	0	0
PDE3B	EFO_0001359	0	0.00803904833199385	0.039	9130	0.0230212719113086	0.347		0.00805216369448838	0	0	0	0
PEBP4	EFO_0001359	0	0.00803904833199385	0.01187	7115	0.0536122046184624	0.00932	6684	0.0640357171470868	0	0	0	0
PIK3R2	EFO_0001359	0	0.00803904833199385	0.0274	14686	0.0293600712740849	0.632			0	0	0	0
PIK3R3	EFO_0001359	0	0.00803904833199385	0.04447	529	0.0210825769361917	0.704			0	0	0	0
PKP1	EFO_0001359	0	0.00803904833199385	0.0382	1458	0.0233464177790048	0.792			0	0	0	0
PLK2	EFO_0001359	0	0.00803904833199385	0.00377	4680	0.124117479693775	0.69			0	0	0	0
PLRG1	EFO_0001359	0	0.00803904833199385	0.01143	4420	0.0551178681617619	0.648			0	0	0	0
PLXNA4	EFO_0001359	0	0.00803904833199385	0.04661	6849	0.0204364482622834	0.179		0.00958862736173307	0	0	0	0
POLR3A	EFO_0001359	0	0.00803904833199385	0.04166	8558	0.0220212823146999	0.563			0	0	0	0
POU2F3	EFO_0001359	0	0.00803904833199385	0.03505	9947	0.0247553651259175	0.0624		0.0169308536249205	0	0	0	0
PPP2R5B	EFO_0001359	0	0.00803904833199385	0.04987	9531	0.019548881296255	0.05055		0.0193768178445388	0	0	0	0
PRSS35	EFO_0001359	0	0.00803904833199385	0.03425	5892	0.0251500501933659	0.746			0	0	0	0
PSEN2	EFO_0001359	0	0.00803904833199385	0.03687	1638	0.0239149337985235	0.0694		0.0158472610259552	0	0	0	0
PSMC4	EFO_0001359	0	0.00803904833199385	0.01407	14930	0.0473445133873414	0.511			0	0	0	0
PTK6	EFO_0001359	0	0.00803904833199385	0.03987	15908	0.0226810142821668	0.511			0	0	0	0
PTP4A2	EFO_0001359	0	0.00803904833199385	0.04279	353	0.0216304563195229	0.406			0	0	0	0
PTPN12	EFO_0001359	0	0.00803904833199385	0.00767	6556	0.0739103359058604	0.126		0.0112936160646434	0	0	0	0
PTPN4	EFO_0001359	0	0.00803904833199385	0.04578	2329	0.0206805816954207	0.04673	2286	0.0204017995704514	0	0	0	0
RAB12	EFO_0001359	0	0.00803904833199385	0.02293	14035	0.0332930692728389	0.315		0.00812663217128831	0	0	0	0
RABGEF1	EFO_0001359	0	0.00803904833199385	0.03036	6502	0.0273323619612338	0.342		0.00805931082501665	0	0	0	0
RASA3	EFO_0001359	0	0.00803904833199385	0.02685	11246	0.0297806351231725	0.49			0	0	0	0
RBM4	EFO_0001359	0	0.00803904833199385	0.0288	9605	0.0283545789048213	0.641			0	0	0	0
RFC3	EFO_0001359	0	0.00803904833199385	0.02921	11037	0.0280764679048936	0.445			0	0	0	0
RHOT2	EFO_0001359	0	0.00803904833199385	0.03336	12306	0.0256090269540965	0.589			0	0	0	0
RIOK3	EFO_0001359	0	0.00803904833199385	0.03657	14077	0.0240482932683626	0.604			0	0	0	0
ROCK2	EFO_0001359	0	0.00803904833199385	0.0387	1821	0.0231417859849232	0.321		0.00810731077667384	0	0	0	0
RPL21	EFO_0001359	0	0.00803904833199385	0.03586	11006	0.0243718759177714	0.898			0	0	0	0
RPL26	EFO_0001359	0	0.00803904833199385	0.02748	13173	0.0293001522278905	0.773			0	0	0	0
RPS6KA1	EFO_0001359	0	0.00803904833199385	0.000878	289	0.325455089321088	0.42			0	0	0	0
RSPO4	EFO_0001359	0	0.00803904833199385	0.00689	15471	0.079977439646244	0.248		0.00854812856879617	0	0	0	0
SAP18	EFO_0001359	0	0.00803904833199385	0.01419	10982	0.0470522588914408	0.2		0.00917714039750212	0	0	0	0
SCNN1B	EFO_0001359	0	0.00803904833199385	0.04114	12539	0.022207611326643	0.812			0	0	0	0
SDHD	EFO_0001359	0	0.00803904833199385	0.02547	9860	0.0309069393937296	0.719			0	0	0	0
SENP2	EFO_0001359	0	0.00803904833199385	0.03943	3774	0.0228514118360691	0.18		0.00956654897630674	0	0	0	0
SH2D1B	EFO_0001359	0	0.00803904833199385	0.02086	1275	0.0356163114777085	0.709			0	0	0	0
SH3TC2	EFO_0001359	0	0.00803904833199385	0.02339	5095	0.0328267606520854	0.279		0.00830147809498603	0	0	0	0
SIN3B	EFO_0001359	0	0.00803904833199385	0.0344	14650	0.0250747935227066	0.888			0	0	0	0
SLC18A1	EFO_0001359	0	0.00803904833199385	0.00808	7096	0.0711310339697984	0.686			0	0	0	0
SLCO1B3	EFO_0001359	0	0.00803904833199385	0.03145	10228	0.0266721955646299	0.272		0.00834853662399369	0	0	0	0
SMC6	EFO_0001359	0	0.00803904833199385	0.02937	1832	0.0279698218748074	0.167		0.00987628061720471	0	0	0	0
SNCB	EFO_0001359	0	0.00803904833199385	0.01112	5232	0.0562412332609518	0.863			0	0	0	0
SOCS7	EFO_0001359	0	0.00803904833199385	0.01371	13425	0.0482482957287384	0.203		0.00912640729196542	0	0	0	0
SOD3	EFO_0001359	0	0.00803904833199385	0.04191	3981	0.0219331831573034	0.338		0.00806618501824845	0	0	0	0
SORBS1	EFO_0001359	0	0.00803904833199385	0.01076	8642	0.0576167378109669	0.738			0	0	0	0
SSR1	EFO_0001359	0	0.00803904833199385	0.03414	5326	0.0252056150912711	0.652			0	0	0	0
STAG1	EFO_0001359	0	0.00803904833199385	0.04776	3568	0.020110869274968	0.545			0	0	0	0
STMN1	EFO_0001359	0	0.00803904833199385	0.04118	272	0.0221931280748169	0.882			0	0	0	0
STRN4	EFO_0001359	0	0.00803904833199385	0.04509	15100	0.0208896954169574	0.000202	14470	0.634356416650502	0	0	0	0
SUCLG1	EFO_0001359	0	0.00803904833199385	0.00651	2159	0.0833822784935582	0.895			0	0	0	0
SYNPO2	EFO_0001359	0	0.00803904833199385	0.03579	4323	0.0244044018299122	0.305		0.00816473944962463	0	0	0	0
TACC1	EFO_0001359	0	0.00803904833199385	0.01822	7193	0.0392508592750445	0.343		0.0080577537661949	0	0	0	0
TDP1	EFO_0001359	0	0.00803904833199385	0.04512	11665	0.0208804836791568	0.07047		0.0156990245200742	0	0	0	0
TFF2	EFO_0001359	0	0.00803904833199385	0.02174	16074	0.0345805527472301	0.38			0	0	0	0
THBS4	EFO_0001359	0	0.00803904833199385	0.01571	4766	0.0436944490639115	0.981			0	0	0	0
TJP1	EFO_0001359	0	0.00803904833199385	0.0441	11814	0.0212000098311727	0.248		0.00854812856879617	0	0	0	0
TMEM18	EFO_0001359	0	0.00803904833199385	0.00693	1787	0.0796377792494421	0.245		0.00857767054614368	0	0	0	0
TMEM71	EFO_0001359	0	0.00803904833199385	0.00575	7505	0.0913323633778075	0.187		0.00941937861147564	0	0	0	0
TMEM87A	EFO_0001359	0	0.00803904833199385	0.04332	11880	0.0214534827494173	0.939			0	0	0	0
TRAPPC5	EFO_0001359	0	0.00803904833199385	0.03446	14437	0.0250448553747184	0.279		0.00830147809498603	0	0	0	0
TRHDE	EFO_0001359	0	0.00803904833199385	0.00443	10633	0.110465575213901	0.831			0	0	0	0
TRIM65	EFO_0001359	0	0.00803904833199385	0.03619	13895	0.0242200612406707	0.226		0.00879217984414422	0	0	0	0
TSPAN12	EFO_0001359	0	0.00803904833199385	0.01912	6782	0.037911790816064	0.09178		0.0134183956759494	0	0	0	0
TTYH1	EFO_0001359	0	0.00803904833199385	0.03502	15324	0.0247698737673593	0.01006	14690	0.0605363730774114	0	0	0	0
TXLNB	EFO_0001359	0	0.00803904833199385	0.01613	6103	0.0428658773118695	0.762			0	0	0	0
TYRP1	EFO_0001359	0	0.00803904833199385	0.00797	7647	0.0718523599472427	0.149		0.0104007652484382	0	0	0	0
UBASH3B	EFO_0001359	0	0.00803904833199385	0.03314	9954	0.0257258829907171	0.116		0.0117903768816031	0	0	0	0
UBE2E1	EFO_0001359	0	0.00803904833199385	0.00899	2977	0.0657572017813211	0.585			0	0	0	0
UBE2K	EFO_0001359	0	0.00803904833199385	0.04645	4013	0.0204828976537695	0.787			0	0	0	0
UGT2B4	EFO_0001359	0	0.00803904833199385	0.02781	4101	0.0290562447731456	0.742			0	0	0	0
WDR69	EFO_0001359	0	0.00803904833199385	0.00812	2762	0.0708729386830708	0.137		0.0108292701533247	0	0	0	0
WDR88	EFO_0001359	0	0.00803904833199385	0.04217	14776	0.0218425578330071	0.2		0.00917714039750212	0	0	0	0
WDTC1	EFO_0001359	0	0.00803904833199385	0.04277	301	0.0216372118584644	0.161		0.0100374694400104	0	0	0	0
WHSC1	EFO_0001359	0	0.00803904833199385	0.0032	3882	0.139550350928705	0.271		0.00835564472370771	0	0	0	0
WTIP	EFO_0001359	0	0.00803904833199385	0.00766	14787	0.0739813337422026	0.402			0	0	0	0
XPNPEP1	EFO_0001359	0	0.00803904833199385	0.0296	8767	0.0278183259372411	0.179		0.00958862736173307	0	0	0	0
ZBTB43	EFO_0001359	0	0.00803904833199385	0.0344	8071	0.0250747935227066	0.332		0.00807846464971098	0	0	0	0
ZEB1	EFO_0001359	0	0.00803904833199385	0.04729	8371	0.0202422051665121	0.04518	7959	0.0208620932884073	0	0	0	0
ZNF100	EFO_0001359	0	0.00803904833199385	0.01419	14745	0.0470522588914408	0.145		0.0105356326743155	0	0	0	0
ZNF202	EFO_0001359	0	0.00803904833199385	0.000126	9961	0.724908492933001	0.746			0	0	0	0
ZNF300	EFO_0001359	0	0.00803904833199385	0.01252	5120	0.05155906180043	0.583			0	0	0	0
ZNF552	EFO_0001359	0	0.00803904833199385	0.03367	15423	0.0254466909483614	0.335		0.00807202657563177	0	0	0	0
ZSCAN4	EFO_0001359	0	0.00803904833199385	0.04495	15421	0.0209328300362569	0.158		0.0101229169770059	0	0	0	0
