gene	disease	status	prediction	P.phs000171.pha002861	block.phs000171.pha002861	PPA.phs000171.pha002861	P.phs000139.pha002854	block.phs000139.pha002854	PPA.phs000139.pha002854	NPC_GiGaD	NPC_GsTpD	NPC_GaDaGaD	ld.with.positive
HLA-DQB1	EFO_0003885	1	0.0362847937875811	0.01088	5574	0.219726068144289	0	5455		0	0.00406504065041	0.00845627923714	1
TNFSF15	EFO_0003885	0	0.0260631360257186	0.404			0.02545	7850	0.0953270474958535	0	0	0.00914108313211	0
IL2RA	EFO_0003885	1	0.0259559116509256	0.24		0.0278251146728377	0.04861	8122	0.062521275510395	0.00283687943262	0	0.00833635375136	1
STAT3	EFO_0003885	1	0.0232022758527516	0.00174	13681	0.441463861905394	0.03802	13379	0.0656773895295941	0.00873362445415	0	0.00585116108978	1
SLC2A4RG	EFO_0003885	0	0.0219929058665941	0.582			0.03522	15767	0.0655917447416262	0	0	0.00780978826796	1
TNFAIP3	EFO_0003885	0	0.0189863454227639	0.51			0.03142	5929	0.0614614350997347	0	0	0.00666140766062	0
MOG	EFO_0003885	0	0.018169053647956	0.01409	5563	0.101815243773651	0.000354	5441	0.707612935978669	0	0.00402414486922	0.00305398365221	1
SLC10A4	EFO_0003885	0	0.018169053647956	0.149		0.0234364580681244	0.01637	3990	0.0918395425248288	0	0.00402414486922	0.00305398365221	0
ZPBP	EFO_0003885	0	0.0174066070654137	0.256		0.0183402604539667	0.01136	6304	0.113569416640202	0	0	0.00598433512277	0
HLA-C	EFO_0003885	0	0.0162709167215244	0.01065	5563	0.111730412587973	0	5449		0	0	0.00545918816589	1
FYN	EFO_0003885	0	0.0159554987613606	0.448			0.03701	5821	0.0466111914218014	0.00825309491059	0	0.00306003060031	0
FOS	EFO_0003885	0	0.0159178060041087	0.711			0.000108	11478	0.857804397078441	0.00818553888131	0	0.00306003060031	0
CALM3	EFO_0003885	0	0.0153220904633144	0.291		0.0156856669630804	0.00271	14954	0.26327905863379	0.0110192837466	0	0.00199203187251	0
SLC11A1	EFO_0003885	0	0.0152731740762798	0.216		0.0169452920476309	0.01005	2667	0.109859242594305	0	0	0.00496718112471	0
PUS10	EFO_0003885	0	0.0152541723494587	0.04634	2086	0.0384929016427338	0.04017	2011	0.0422650955781683	0	0	0.00495750708215	0
IRF5	EFO_0003885	0	0.0149267704261495	0.443			0.02956	6643	0.0508316885269911	0	0	0.00478893224548	0
NFKB1	EFO_0003885	1	0.0148578156354551	0.164		0.0183693630132371	0.0138	4205	0.0858143678524963	0.00607902735562	0	0.0030979498861	1
STON2	EFO_0003885	0	0.0136774258737648	0.156		0.0172968296858433	0.02585	11514	0.0512218014668785	0.00286123032904	0.0041067761807	0	0
IL12A	EFO_0003885	1	0.0135772586140212	0.245		0.0144815279087672	0.03977	3617	0.0379839138812747	0.00284090909091	0	0.00327988338192	1
CD40	EFO_0003885	1	0.0132182143567528	0.02336	15955	0.0531676466881733	0.00485	15648	0.160138453867604	0	0	0.00384544955136	1
ANXA2	EFO_0003885	0	0.0123700265152262	0.143		0.0162970932257438	0.01344	11876	0.0736902387761287	0	0.0041067761807	0	0
FAM103A1	EFO_0003885	0	0.0123700265152262	0.475			0.0464	12067	0.0313283584467725	0	0.0041067761807	0	0
MAL2	EFO_0003885	0	0.0123700265152262	0.363		0.0123711060349855	0.0458	7300	0.0315960692972931	0	0.0041067761807	0	0
PIK3R3	EFO_0003885	0	0.0123700265152262	0.872			0.00366	513	0.1832708458043	0	0.0041067761807	0	0
COL20A1	EFO_0003885	0	0.0122634688986809	0.996			9e-04	15755	0.419833373987597	0	0.00402414486922	0	0
GABRA4	EFO_0003885	0	0.0122634688986809	0.457			0.01896	3980	0.0572712357749071	0	0.00402414486922	0	0
GRM1	EFO_0003885	0	0.0122634688986809	0.815			0.03157	5954	0.0401858692044645	0	0.00402414486922	0	0
INSM2	EFO_0003885	0	0.0122634688986809	0.352		0.0122749301024051	0.01075	11264	0.0857010585738327	0	0.00402414486922	0	0
LY6H	EFO_0003885	0	0.0122634688986809	0.947			0.02406	7372	0.0484645150914751	0	0.00402414486922	0	0
PTPRZ1	EFO_0003885	0	0.0122634688986809	0.892			0.01221	6606	0.0782658897391991	0	0.00402414486922	0	0
SLC6A1	EFO_0003885	0	0.0122634688986809	0.242		0.0131279426112158	0.00953	2891	0.0933788737872562	0	0.00402414486922	0	0
STX1B	EFO_0003885	0	0.0122634688986809	0.292		0.0125473664775755	0.00431	12506	0.162872970232896	0	0.00402414486922	0	0
TRIM29	EFO_0003885	0	0.0122634688986809	0.271		0.0127442953630516	0.02773	9786	0.0439240111995145	0	0.00402414486922	0	0
BRE	EFO_0003885	0	0.0119442278511623	0.931			0.00822	1892	0.101272159081835	0	0	0.00306003060031	0
CXCL6	EFO_0003885	0	0.0119442278511623	0.25		0.0126692047705797	0.02028	4077	0.0532586690291462	0	0	0.00306003060031	0
NLRP2	EFO_0003885	0	0.0119442278511623	0.435			0.04588	15208	0.0304940553689851	0	0	0.00306003060031	0
PFKFB4	EFO_0003885	0	0.0119442278511623	0.904			0.03467	3092	0.0367522575715993	0	0	0.00306003060031	0
PIGR	EFO_0003885	0	0.0119442278511623	0.261		0.0125260835878809	0.03387	1512	0.0373381738716015	0	0	0.00306003060031	0
SLAMF7	EFO_0003885	0	0.0119442278511623	0.04543	1277	0.030691668077729	0.01487	1210	0.0663494793091923	0	0	0.00306003060031	0
SPRY4	EFO_0003885	0	0.0119442278511623	0.01433	5138	0.0681203917200757	0.01152	5007	0.0796001789585957	0	0	0.00306003060031	1
TSPAN14	EFO_0003885	0	0.0119442278511623	0.749			0.000662	8422	0.478540739405894	0	0	0.00306003060031	0
HSD17B4	EFO_0003885	0	0.0119349057371508	0.889			0.01233	4811	0.0757746174154087	0	0	0.00305398365221	0
HSPA1L	EFO_0003885	0	0.0108191042467697	0.102		0.0169869607068211	0.02645	5452	0.0401950785432739	0.00842696629213	0	0	0
HDAC3	EFO_0003885	0	0.0108146050679148	0.299		0.011018840720668	0.02174	4999	0.0460939976377875	0.00841514726508	0	0	0
RPS8	EFO_0003885	0	0.00982790494060844	0.146		0.0128308631661608	0.04608	508	0.0251027644701361	0.00569800569801	0	0	0
RPS3	EFO_0003885	0	0.00981396330359697	0.538			0.03657	9544	0.0292535980598892	0.00565770862801	0	0	0
GSK3B	EFO_0003885	0	0.0098057018304023	0.557			0.03121	3385	0.0325711512225388	0.0056338028169	0	0	0
IKBKE	EFO_0003885	0	0.00979210179055036	0.449			0.03657	1503	0.0291897095054595	0.00559440559441	0	0	0
TICAM1	EFO_0003885	0	0.00926345080156928	0.528			0.02173	14233	0.0396986383528334	0	0	0.00109429144629	0
HSP90B1	EFO_0003885	0	0.00909580350528216	0.716			0.01974	10605	0.041762758738435	0.002828854314	0	0.000183083119736	0
CCL17	EFO_0003885	0	0.00889282429612258	0.811			0.02471	12582	0.0348405479864444	0.00286123032904	0	0	0
HERPUD1	EFO_0003885	0	0.00889282429612258	0.284		0.00914880797486404	0.00986	12575	0.0675753315093302	0.00286123032904	0	0	0
RANBP2	EFO_0003885	0	0.00889282429612258	0.848			0.01243	2257	0.0570692366511159	0.00286123032904	0	0	0
RPL24	EFO_0003885	0	0.00889282429612258	0.655			0.00781	3322	0.0801219794490111	0.00286123032904	0	0	1
RPL5	EFO_0003885	0	0.00889282429612258	0.862			2e-05	726	0.938475686895335	0.00286123032904	0	0	1
HADHA	EFO_0003885	0	0.00889154268008991	0.541			0.04248	1848	0.0240056169515862	0.00285714285714	0	0	0
KAT2A	EFO_0003885	0	0.00889154268008991	0.365		0.00889181333939927	0.02746	13376	0.0323502188588233	0.00285714285714	0	0	0
RPS3A	EFO_0003885	0	0.00889154268008991	0.46			0.0493	4337	0.0217579866333564	0.00285714285714	0	0	0
CKB	EFO_0003885	0	0.00889026490286095	0.502			0.0207	11619	0.0394880319587051	0.00285306704708	0	0	0
COPS2	EFO_0003885	0	0.00889026490286095	0.162		0.0110672799494628	0.03994	11818	0.025013940580519	0.00285306704708	0	0	0
FANCD2	EFO_0003885	0	0.00889026490286095	0.293		0.00909104613089529	0.01735	2885	0.0448112458167549	0.00285306704708	0	0	0
RPS27	EFO_0003885	0	0.00889026490286095	0.716			0.03802	1053	0.0258587757135691	0.00285306704708	0	0	0
YY1	EFO_0003885	0	0.00889026490286095	0.08815		0.0151794708732086	0.02794	11598	0.0319568073924193	0.00285306704708	0	0	0
ITCH	EFO_0003885	0	0.00888899094722017	0.698			0.03217	15524	0.0289780656742818	0.002849002849	0	0	0
ITGB1	EFO_0003885	0	0.00888899094722017	0.295		0.00907852985276242	0.04078	8228	0.0246633612156006	0.002849002849	0	0	0
KLF5	EFO_0003885	0	0.00888899094722017	0.204		0.0100719061343679	0.00591	11010	0.0981257338309932	0.002849002849	0	0	0
DLG4	EFO_0003885	0	0.00888772079606926	0.452			0.01763	12969	0.0442859458214226	0.00284495021337	0	0	0
MAPK7	EFO_0003885	0	0.00888645443240183	0.78			0.04478	13123	0.023165775154733	0.00284090909091	0	0	0
CD74	EFO_0003885	0	0.00888519183931277	0.432			0.01956	5054	0.0410951907138403	0.00283687943262	0	0	0
JUND	EFO_0003885	0	0.00888519183931277	0.861			0.00455	14540	0.118485681407012	0.00283687943262	0	0	0
MYOD1	EFO_0003885	0	0.00888519183931277	0.533			0.01677	8997	0.0458967966889543	0.00283687943262	0	0	0
TGFBR1	EFO_0003885	0	0.00888393300000434	0.366		0.00888404810461059	0.02051	7752	0.0397210797285682	0.0028328611898	0	0	0
EGR1	EFO_0003885	0	0.0088814265160087	0.48			0.02	4910	0.0404303711428219	0.00282485875706	0	0	0
KIAA1377	EFO_0003885	0	0.00887645786502072	0.857			0.01203	9636	0.0583428668328881	0.00280898876404	0	0	0
NCOR2	EFO_0003885	0	0.00887276964259048	0.135		0.0120357862377804	0.02707	10784	0.0326079199392085	0.0027972027972	0	0	0
C11orf71	EFO_0003885	0	0.0086310919340483	0.13		0.0119317021178668	0.02542	9718	0.0331726947681462	0	0	0.000548345823433	0
NCF4	EFO_0003885	0	0.00843029931109738	0.809			0.03969	16192	0.0238403351123898	0	0	0.000366669722248	0
GCC1	EFO_0003885	0	0.00842985920741345	0.05624		0.0189555253215759	0.02253	6624	0.0353067853203588	0	0	0.000366266825382	0
KCNJ11	EFO_0003885	0	0.00842985920741345	0.58			0.00331	8996	0.141965177236987	0	0	0.000366266825382	0
RND3	EFO_0003885	0	0.00842985920741345	0.194		0.00973498978138127	0.03413	2379	0.0264140475996411	0	0	0.000366266825382	0
TMEM163	EFO_0003885	0	0.00842985920741345	0.714			0.03023	2352	0.028719369976562	0	0	0.000366266825382	0
SOD1	EFO_0003885	0	0.00823289051143064	0.743			0.04542	15848	0.0212836492082348	0	0	0.000183823529412	0
HBE1	EFO_0003885	0	0.00823287248540574	0.479			0.04907	8871	0.020227400382153	0	0	0.00018380663542	0
CYP24A1	EFO_0003885	1	0.00823281842743871	0.623			0.03318	15687	0.0263128103974562	0	0	0.000183755972069	1
C10orf32	EFO_0003885	0	0.00823269240936663	0.507			0.03088	8598	0.0276501467022835	0	0	0.000183637866128	0
PM20D1	EFO_0003885	0	0.00823269240936663	0.411			0.0308	1502	0.0276998853899333	0	0	0.000183637866128	0
SFXN2	EFO_0003885	0	0.00823269240936663	0.652			0.04347	8596	0.0219125708866632	0	0	0.000183637866128	0
AFF1	EFO_0003885	0	0.00823176138163232	0.524			0.03839	4148	0.0238171137981952	0	0	0.000182765238052	0
ITGAM	EFO_0003885	0	0.00823176138163232	0.235		0.0088924522189879	0.00324	12510	0.141194543251436	0	0	0.000182765238052	0
AACS	EFO_0003885	0	0.00803904833199385	0.607			0.02211	10787	0.0341670332867546	0	0	0	0
ABCA2	EFO_0003885	0	0.00803904833199385	0.06456		0.0165736415239499	0.04348	8081	0.0214008207442599	0	0	0	0
ACP5	EFO_0003885	0	0.00803904833199385	0.64			0.04606	14386	0.0205973366660264	0	0	0	0
ACTR10	EFO_0003885	0	0.00803904833199385	0.141		0.0106782628328506	0.04543	11357	0.0207859381954591	0	0	0	0
ADCYAP1	EFO_0003885	0	0.00803904833199385	0.636			0.002574	13862	0.162664613090009	0	0	0	0
ADM	EFO_0003885	0	0.00803904833199385	0.489			0.01761	8965	0.0402272000655158	0	0	0	0
ADRA1B	EFO_0003885	0	0.00803904833199385	0.248		0.00854812856879617	0.01077	5106	0.0575774426425237	0	0	0	0
ALDOA	EFO_0003885	0	0.00803904833199385	0.212		0.00898464630939552	0.000751	12476	0.355596125675118	0	0	0	0
ALDOC	EFO_0003885	0	0.00803904833199385	0.407			0.03275	13157	0.0259364904453152	0	0	0	0
AMBRA1	EFO_0003885	0	0.00803904833199385	0.81			0.02169	9111	0.0346373961413851	0	0	0	0
AMDHD1	EFO_0003885	0	0.00803904833199385	0.613			0.0121	10567	0.0528635516167435	0	0	0	0
ANKRD30A	EFO_0003885	0	0.00803904833199385	0.685			0.03819	8234	0.0233505594908814	0	0	0	0
ANXA4	EFO_0003885	0	0.00803904833199385	0.347		0.00805216369448838	0.01899	2054	0.0380982404114747	0	0	0	0
AP1M2	EFO_0003885	0	0.00803904833199385	0.01302	14643	0.0501030790184451	0.04704	14358	0.0203130290019785	0	0	0	0
AP2B1	EFO_0003885	0	0.00803904833199385	0.445			0.00472	13233	0.105492446933749	0	0	0	0
APOBEC3A	EFO_0003885	0	0.00803904833199385	0.921			0.00524	16239	0.0977533559708402	0	0	0	0
ARMC10	EFO_0003885	0	0.00803904833199385	0.372			0.01293	6545	0.050357832311976	0	0	0	0
ARPC4	EFO_0003885	0	0.00803904833199385	0.621			0.03744	2876	0.0236668435315457	0	0	0	0
ARVCF	EFO_0003885	0	0.00803904833199385	0.572			0.04507	16019	0.0208958427161692	0	0	0	0
ASB13	EFO_0003885	0	0.00803904833199385	0.305		0.00816473944962463	0.04151	8117	0.0220745999480962	0	0	0	0
ASPSCR1	EFO_0003885	0	0.00803904833199385	0.766			0.02359	13831	0.0326290787942148	0	0	0	0
ATAD5	EFO_0003885	0	0.00803904833199385	0.663			0.03761	13194	0.0235941599509244	0	0	0	0
ATG4C	EFO_0003885	0	0.00803904833199385	0.28		0.00829513200229406	0.02404	609	0.0321950310471698	0	0	0	0
ATP13A2	EFO_0003885	0	0.00803904833199385	0.48			0.00937	170	0.0637841232094406	0	0	0	0
AVPR1A	EFO_0003885	0	0.00803904833199385	0.378			0.01533	10451	0.0444786160380462	0	0	0	0
AXL	EFO_0003885	0	0.00803904833199385	0.01697	15094	0.0413181831731107	0.01831	14820	0.0391117023476525	0	0	0	0
BAIAP2	EFO_0003885	0	0.00803904833199385	0.442			0.01975	13811	0.037039191323676	0	0	0	0
BAZ1B	EFO_0003885	0	0.00803904833199385	0.662			0.03835	6344	0.0232845249983477	0	0	0	0
BBX	EFO_0003885	0	0.00803904833199385	0.758			0.01248	3326	0.0516799680447244	0	0	0	0
C18orf25	EFO_0003885	0	0.00803904833199385	0.977			0.0082	13984	0.0703633065886739	0	0	0	0
C19orf53	EFO_0003885	0	0.00803904833199385	0.859			0.04599	14443	0.0206180622207137	0	0	0	0
C2	EFO_0003885	0	0.00803904833199385	0.00418	5574	0.115212671036364	0	5454		0	0	0	1
C21orf7	EFO_0003885	0	0.00803904833199385	0.499			0.04448	15814	0.0210794275125886	0	0	0	0
C3	EFO_0003885	0	0.00803904833199385	0.04863	14545	0.0198738142337534	0.00282	14260	0.152596116700578	0	0	0	1
C6orf223	EFO_0003885	0	0.00803904833199385	0.21		0.00901485078575763	0.00296	5603	0.147474469608241	0	0	0	0
C6orf25	EFO_0003885	0	0.00803904833199385	0.05783		0.0177662051092032	0.03698	5450	0.0238665222206054	0	0	0	0
C7orf25	EFO_0003885	0	0.00803904833199385	0.409			0.03582	6261	0.0243904481867984	0	0	0	0
CABP1	EFO_0003885	0	0.00803904833199385	0.05628		0.0180774048770796	0.00872	10732	0.0672497193048726	0	0	0	0
CACNB1	EFO_0003885	0	0.00803904833199385	0.552			0.02595	13280	0.0305030597652942	0	0	0	0
CALR3	EFO_0003885	0	0.00803904833199385	0.016	14784	0.0431182250307391	0.000112	14501	0.745298526837757	0	0	0	1
CAP2	EFO_0003885	0	0.00803904833199385	0.359		0.00804139082666296	0.03346	5308	0.0255563659893495	0	0	0	0
CAPN2	EFO_0003885	0	0.00803904833199385	0.416			0.02458	1587	0.0316929185792705	0	0	0	0
CAPN5	EFO_0003885	0	0.00803904833199385	0.169		0.00982525884416965	0.01338	9557	0.0491143286134422	0	0	0	0
CAPS	EFO_0003885	0	0.00803904833199385	0.52			0.00496	14248	0.101750180653507	0	0	0	0
CARS	EFO_0003885	0	0.00803904833199385	0.914			0.04409	8829	0.0212032083318339	0	0	0	0
CASC1	EFO_0003885	0	0.00803904833199385	0.654			0.02627	10110	0.030241136339268	0	0	0	0
CAV1	EFO_0003885	0	0.00803904833199385	0.931			0.00521	6591	0.0981641447173683	0	0	0	0
CCBL2	EFO_0003885	0	0.00803904833199385	0.478			0.04475	706	0.0209948727252093	0	0	0	0
CCDC11	EFO_0003885	0	0.00803904833199385	0.536			0.01541	14007	0.0443106876041497	0	0	0	0
CCDC18	EFO_0003885	0	0.00803904833199385	0.634			0.04633	727	0.0205179245554729	0	0	0	0
CCDC34	EFO_0003885	0	0.00803904833199385	0.115		0.0118446426002782	0.03625	9039	0.0241927251694611	0	0	0	0
CCDC85A	EFO_0003885	0	0.00803904833199385	0.10357		0.0125358617055342	0.0304	2006	0.0273073876739492	0	0	0	0
CCDC86	EFO_0003885	0	0.00803904833199385	0.876			0.03443	9239	0.0250598127541224	0	0	0	0
CCNC	EFO_0003885	0	0.00803904833199385	0.681			0.00466	5773	0.106478585115813	0	0	0	0
CDH13	EFO_0003885	0	0.00803904833199385	0.56			0.04666	12760	0.0204219917692018	0	0	0	0
CDK5R1	EFO_0003885	0	0.00803904833199385	0.252		0.00851042373760076	0.04638	13210	0.0205033101453479	0	0	0	0
CDK5RAP1	EFO_0003885	0	0.00803904833199385	0.647			0.001871	15514	0.202350983713832	0	0	0	0
CDK5RAP2	EFO_0003885	0	0.00803904833199385	0.296		0.00820566317990054	0.01855	7857	0.0387464820442915	0	0	0	0
CEACAM3	EFO_0003885	0	0.00803904833199385	0.06738		0.0161388249356157	0.028	14829	0.0289181455960585	0	0	0	0
CHGB	EFO_0003885	0	0.00803904833199385	0.915			0.04497	15392	0.0209266531280584	0	0	0	0
CHIC2	EFO_0003885	0	0.00803904833199385	0.679			0.01381	4003	0.0479930776400018	0	0	0	0
CHID1	EFO_0003885	0	0.00803904833199385	0.7			0.01278	8804	0.0507894336410988	0	0	0	0
CHRNE	EFO_0003885	0	0.00803904833199385	0.13		0.0111157940714627	0.04896	12926	0.0197858888393777	0	0	0	0
CLCA1	EFO_0003885	0	0.00803904833199385	0.465			0.03257	698	0.0260352167126406	0	0	0	0
CLDN14	EFO_0003885	0	0.00803904833199385	0.165		0.00992862698159916	0.0398	15884	0.0227078963795675	0	0	0	0
CLEC2B	EFO_0003885	0	0.00803904833199385	0.695			0.03017	10006	0.0274517985968809	0	0	0	0
CNTFR	EFO_0003885	0	0.00803904833199385	0.583			0.03913	7552	0.0229695650840936	0	0	0	0
COL11A1	EFO_0003885	0	0.00803904833199385	0.164		0.00995531039241986	0.01363	763	0.0484548462927445	0	0	0	0
COL12A1	EFO_0003885	0	0.00803904833199385	0.131		0.0110730071146329	0.04972	5703	0.019587408727875	0	0	0	0
COL8A1	EFO_0003885	0	0.00803904833199385	0.362		0.00804007235957959	0.01354	3310	0.0486897862033951	0	0	0	0
COMP	EFO_0003885	0	0.00803904833199385	0.06561		0.0164077566412583	0.01994	14554	0.036785659656935	0	0	0	0
COPS3	EFO_0003885	0	0.00803904833199385	0.169		0.00982525884416965	0.01529	13097	0.0445631626624444	0	0	0	0
COQ5	EFO_0003885	0	0.00803904833199385	0.338		0.00806618501824845	0.01302	10731	0.0501030790184451	0	0	0	0
CORO2B	EFO_0003885	0	0.00803904833199385	0.843			0.02155	11940	0.0347978058231705	0	0	0	0
CPSF6	EFO_0003885	0	0.00803904833199385	0.755			0.03145	10481	0.0266721955646299	0	0	0	0
CR1L	EFO_0003885	0	0.00803904833199385	0.363		0.00803975296841325	0.004587	1519	0.10770759132506	0	0	0	0
CRHBP	EFO_0003885	0	0.00803904833199385	0.723			0.02961	4696	0.0278117869205438	0	0	0	0
CRISP2	EFO_0003885	0	0.00803904833199385	0.123		0.0114344057009247	0.04159	5634	0.0220461208126087	0	0	0	0
CSTB	EFO_0003885	0	0.00803904833199385	0.348		0.00805092447358186	0.01442	15932	0.046504123962716	0	0	0	0
CTDP1	EFO_0003885	0	0.00803904833199385	0.569			0.03375	14087	0.025405231865058	0	0	0	0
CYB5B	EFO_0003885	0	0.00803904833199385	0.697			0.0069	12675	0.0798922067138318	0	0	0	0
DCUN1D5	EFO_0003885	0	0.00803904833199385	0.741			0.03543	9649	0.0245734979711294	0	0	0	0
DDX27	EFO_0003885	0	0.00803904833199385	0.641			0.03195	15662	0.0263828889287285	0	0	0	0
DFNB31	EFO_0003885	0	0.00803904833199385	0.215		0.00894066415931353	0.04777	7848	0.0201081002451604	0	0	0	0
DHCR7	EFO_0003885	0	0.00803904833199385	0.437			0.00598	9494	0.088744423196888	0	0	0	0
DHX16	EFO_0003885	0	0.00803904833199385	3.9e-05	5563	0.882768272381729	0.000236	5448	0.602009035669065	0	0	0	1
DHX35	EFO_0003885	0	0.00803904833199385	0.672			0.02261	15578	0.033627409523662	0	0	0	0
DIAPH3	EFO_0003885	0	0.00803904833199385	0.669			0.02867	11003	0.0284442441780019	0	0	0	0
DICER1	EFO_0003885	0	0.00803904833199385	0.574			0.01456	11577	0.0461779726428926	0	0	0	0
DIO1	EFO_0003885	0	0.00803904833199385	0.527			0.02148	567	0.0348787081330338	0	0	0	0
DKK2	EFO_0003885	0	0.00803904833199385	0.268		0.00837756428736431	0.0451	4217	0.0208866236103119	0	0	0	0
DNAI1	EFO_0003885	0	0.00803904833199385	0.73			0.03936	7551	0.0228788361164724	0	0	0	0
DNAI2	EFO_0003885	0	0.00803904833199385	0.07962		0.0145817414726877	0.01871	13695	0.0385076269390251	0	0	0	0
DPP4	EFO_0003885	0	0.00803904833199385	0.215		0.00894066415931353	0.03002	2414	0.0275470455920942	0	0	0	0
DRD3	EFO_0003885	0	0.00803904833199385	0.58			0.04797	3367	0.0200529385541568	0	0	0	0
DSN1	EFO_0003885	0	0.00803904833199385	0.519			0.00146	15554	0.238239303124579	0	0	0	0
EEF1B2	EFO_0003885	0	0.00803904833199385	0.613			0.01525	2612	0.0446481012862964	0	0	0	0
EHD2	EFO_0003885	0	0.00803904833199385	0.0507		0.0193394246720959	0.00998	14976	0.0608927765415177	0	0	0	0
EHMT1	EFO_0003885	0	0.00803904833199385	0.359		0.00804139082666296	0.0256	8093	0.0307962211430579	0	0	0	0
EIF2B3	EFO_0003885	0	0.00803904833199385	0.162		0.0100097257968722	0.03342	509	0.0255773964838897	0	0	0	0
ELAC2	EFO_0003885	0	0.00803904833199385	0.549			0.01325	13067	0.0494659149695709	0	0	0	0
ELMOD2	EFO_0003885	0	0.00803904833199385	0.841			0.02625	4308	0.0302573394805431	0	0	0	0
ERCC4	EFO_0003885	0	0.00803904833199385	0.286		0.00825896373477156	0.04125	12361	0.022167843195691	0	0	0	0
ERMP1	EFO_0003885	0	0.00803904833199385	0.547			0.00496	7460	0.101750180653507	0	0	0	0
FABP3	EFO_0003885	0	0.00803904833199385	0.849			0.04552	339	0.0207587070260038	0	0	0	0
FAM136A	EFO_0003885	0	0.00803904833199385	0.293		0.00822076480656711	0.01097	2056	0.0568047416638629	0	0	0	0
FAM3D	EFO_0003885	0	0.00803904833199385	0.301		0.0081821303242241	0.000679	3238	0.375742792459684	0	0	0	0
FAM92A1	EFO_0003885	0	0.00803904833199385	0.102		0.0126422800814565	0.04249	7214	0.0217323903000221	0	0	0	0
FLRT2	EFO_0003885	0	0.00803904833199385	0.121		0.0115320401492519	0.01217	11515	0.0526406433943148	0	0	0	0
FMNL3	EFO_0003885	0	0.00803904833199385	0.03439	10449	0.0250797923196198	0.04191	10228	0.0219331831573034	0	0	0	0
FYTTD1	EFO_0003885	0	0.00803904833199385	0.0404	3913	0.0224801987221224	0.00884	3790	0.0665765852032687	0	0	0	0
FZD2	EFO_0003885	0	0.00803904833199385	0.467			0.01789	13439	0.0397717120633104	0	0	0	0
GAB1	EFO_0003885	0	0.00803904833199385	0.647			0.04959	4313	0.019620969479449	0	0	0	0
GALNTL2	EFO_0003885	0	0.00803904833199385	0.623			0.00485	2923	0.103426585677846	0	0	0	0
GALR1	EFO_0003885	0	0.00803904833199385	0.213		0.00896981108735367	0.01218	14084	0.0526089832907124	0	0	0	0
GKAP1	EFO_0003885	0	0.00803904833199385	0.343		0.0080577537661949	0.02763	7662	0.0291886399268381	0	0	0	0
GPRC5A	EFO_0003885	0	0.00803904833199385	0.739			0.01853	10056	0.0387765962560119	0	0	0	0
GRIN2B	EFO_0003885	0	0.00803904833199385	0.579			0.02991	10061	0.0276174363339754	0	0	0	0
GTPBP2	EFO_0003885	0	0.00803904833199385	0.483			0.04597	5602	0.0206239942617809	0	0	0	0
GTSF1L	EFO_0003885	0	0.00803904833199385	0.19		0.00936005646962184	0.02121	15589	0.0351952062112708	0	0	0	0
HAS2	EFO_0003885	0	0.00803904833199385	0.662			0.01485	7309	0.04551968414424	0	0	0	0
HEATR2	EFO_0003885	0	0.00803904833199385	0.335		0.00807202657563177	0.04853	6067	0.0199006714189162	0	0	0	0
HNRNPC	EFO_0003885	0	0.00803904833199385	0.537			0.02732	11151	0.0294203037045225	0	0	0	0
HNRPDL	EFO_0003885	0	0.00803904833199385	0.0871		0.0138304056676506	0.03904	4130	0.0230053291595468	0	0	0	0
HSPBAP1	EFO_0003885	0	0.00803904833199385	0.818			0.03384	3412	0.025358800467392	0	0	0	0
IDH2	EFO_0003885	0	0.00803904833199385	0.748			0.02461	12104	0.0316656000720994	0	0	0	0
IDH3B	EFO_0003885	0	0.00803904833199385	0.937			0.01483	15350	0.0455643527034894	0	0	0	0
IFNB1	EFO_0003885	0	0.00803904833199385	0.596			0.04228	7496	0.0218045184502024	0	0	0	0
IGSF3	EFO_0003885	0	0.00803904833199385	0.255		0.00848336972012967	0.03765	869	0.0235771436111022	0	0	0	0
IL15	EFO_0003885	0	0.00803904833199385	0.872			0.04968	4311	0.0195977182093533	0	0	0	0
IL17B	EFO_0003885	0	0.00803904833199385	0.623			0.04086	5042	0.0223097079681354	0	0	0	0
IL20RB	EFO_0003885	0	0.00803904833199385	0.383			0.03805	3509	0.0234087487297584	0	0	0	0
IMPACT	EFO_0003885	0	0.00803904833199385	0.284		0.00827066079739816	0.01974	13930	0.0370526551837595	0	0	0	0
ISOC2	EFO_0003885	0	0.00803904833199385	0.561			0.000439	15225	0.46764488751788	0	0	0	0
ITSN2	EFO_0003885	0	0.00803904833199385	0.999			0.04059	1837	0.0224093573783555	0	0	0	0
IYD	EFO_0003885	0	0.00803904833199385	0.337		0.00806806641166883	0.03886	5977	0.0230773037378897	0	0	0	0
KCNJ15	EFO_0003885	0	0.00803904833199385	0.568			0.03646	15891	0.024097685060196	0	0	0	0
KCTD19	EFO_0003885	0	0.00803904833199385	0.06087		0.0171978118661227	0.02045	12634	0.0361258770713174	0	0	0	0
KLF13	EFO_0003885	0	0.00803904833199385	0.134		0.0109484319619002	0.01268	11675	0.0510821565544163	0	0	0	0
KLHL9	EFO_0003885	0	0.00803904833199385	0.325		0.00809585321114235	0.04708	7502	0.0203016515846861	0	0	0	0
KRT24	EFO_0003885	0	0.00803904833199385	0.328		0.00808799082450475	0.03852	13313	0.0232149035586103	0	0	0	0
KRT3	EFO_0003885	0	0.00803904833199385	0.449			0.02686	10288	0.0297728513020126	0	0	0	0
LCMT2	EFO_0003885	0	0.00803904833199385	0.224		0.00881774991988883	0.04813	11772	0.0200091072748439	0	0	0	0
LHFP	EFO_0003885	0	0.00803904833199385	0.165		0.00992862698159916	0.0446	10916	0.0210417337131471	0	0	0	0
LILRB1	EFO_0003885	0	0.00803904833199385	0.279		0.00830147809498603	0.01268	15196	0.0510821565544163	0	0	0	0
LIN54	EFO_0003885	0	0.00803904833199385	0.624			0.02416	4133	0.0320817217739882	0	0	0	0
LIPC	EFO_0003885	0	0.00803904833199385	0.525			0.03553	11864	0.024526218505112	0	0	0	0
LMAN2	EFO_0003885	0	0.00803904833199385	0.438			3.7e-05	5181	0.887592465399839	0	0	0	1
LMO2	EFO_0003885	0	0.00803904833199385	0.03026	9271	0.0273950560699005	0.04174	9066	0.0219929872695747	0	0	0	0
LPAR3	EFO_0003885	0	0.00803904833199385	0.421			0.03898	686	0.0230292543125925	0	0	0	0
LY6D	EFO_0003885	0	0.00803904833199385	0.366		0.00803915257865006	0.00604	7368	0.0880970751428343	0	0	0	0
MAP4K3	EFO_0003885	0	0.00803904833199385	0.08915		0.0136449736671723	0.02432	1940	0.0319321945433749	0	0	0	0
MAPK11	EFO_0003885	0	0.00803904833199385	0.324		0.00809861250555321	0.00721	16353	0.0773514303869634	0	0	0	0
MBD2	EFO_0003885	0	0.00803904833199385	0.154		0.0102422597259319	0.03542	14015	0.0245782390879429	0	0	0	0
MCCC2	EFO_0003885	0	0.00803904833199385	0.03615	4790	0.0242383305219045	0.04875	4666	0.019841716983512	0	0	0	0
MCF2L	EFO_0003885	0	0.00803904833199385	0.286		0.00825896373477156	0.02606	11090	0.0304123760284198	0	0	0	0
MED10	EFO_0003885	0	0.00803904833199385	0.407			0.03653	4496	0.0240662230287093	0	0	0	0
MED22	EFO_0003885	0	0.00803904833199385	0.367		0.00803907113643058	0.04818	8018	0.0199954639077978	0	0	0	0
MEP1A	EFO_0003885	0	0.00803904833199385	0.19		0.00936005646962184	0.01946	5624	0.0374346293393526	0	0	0	0
MFNG	EFO_0003885	0	0.00803904833199385	0.52			0.02357	16202	0.0326487124100694	0	0	0	0
MMRN2	EFO_0003885	0	0.00803904833199385	0.896			0.0493	8436	0.0196964117605789	0	0	0	0
MRAP	EFO_0003885	0	0.00803904833199385	0.746			0.00461	15850	0.107316839147391	0	0	0	0
MRPL42	EFO_0003885	0	0.00803904833199385	0.781			0.02936	10553	0.0279764567936953	0	0	0	0
MTMR12	EFO_0003885	0	0.00803904833199385	0.582			0.02001	4533	0.0366933324833253	0	0	0	0
MTMR7	EFO_0003885	0	0.00803904833199385	0.304		0.00816896954617252	0.03567	6904	0.0244604269322545	0	0	0	0
MYL6	EFO_0003885	0	0.00803904833199385	0.741			0.04079	10381	0.0223354290577597	0	0	0	0
MYO5C	EFO_0003885	0	0.00803904833199385	0.344		0.00805626077686218	0.02809	11840	0.0288533131543273	0	0	0	0
MYO9B	EFO_0003885	0	0.00803904833199385	0.502			0.0243	14507	0.0319507894171849	0	0	0	0
NAE1	EFO_0003885	0	0.00803904833199385	0.473			0.03187	12611	0.0264286315640145	0	0	0	0
NAF1	EFO_0003885	0	0.00803904833199385	0.563			0.03216	4379	0.0262637846718226	0	0	0	0
NCBP1	EFO_0003885	0	0.00803904833199385	0.579			0.01165	7740	0.0543525528625588	0	0	0	0
NEK1	EFO_0003885	0	0.00803904833199385	0.729			0.02305	4401	0.033169825464511	0	0	0	0
NGFR	EFO_0003885	0	0.00803904833199385	0.614			0.04224	13519	0.0218183303201413	0	0	0	0
NLRP11	EFO_0003885	0	0.00803904833199385	0.1051		0.0124350519809243	0.0174	15235	0.0405773334324418	0	0	0	0
NOS1	EFO_0003885	0	0.00803904833199385	0.736			0.02337	10712	0.0328466946096292	0	0	0	0
NPEPL1	EFO_0003885	0	0.00803904833199385	0.315		0.00812663217128831	0.03604	15714	0.0242887586407337	0	0	0	0
NR2C2	EFO_0003885	0	0.00803904833199385	0.486			0.03518	2913	0.0246927508786603	0	0	0	0
OSMR	EFO_0003885	0	0.00803904833199385	0.241		0.0086188044760611	0.00905	4567	0.0654360778937745	0	0	0	0
PAPOLB	EFO_0003885	0	0.00803904833199385	0.116		0.0117903768816031	0.01252	6100	0.05155906180043	0	0	0	0
PCSK9	EFO_0003885	0	0.00803904833199385	0.343		0.0080577537661949	0.04553	586	0.0207556873322897	0	0	0	0
PDCD2	EFO_0003885	0	0.00803904833199385	0.384			0.02712	6066	0.0295722726370004	0	0	0	0
PEX11A	EFO_0003885	0	0.00803904833199385	0.927			0.03233	12100	0.02616838249194	0	0	0	0
PGR	EFO_0003885	0	0.00803904833199385	0.816			0.01462	9635	0.0460398832944949	0	0	0	0
PIK3R2	EFO_0003885	0	0.00803904833199385	0.504			0.0301	14538	0.0274961415041111	0	0	0	0
PLS1	EFO_0003885	0	0.00803904833199385	0.89			0.04876	3543	0.0198390486534518	0	0	0	0
POU2F3	EFO_0003885	0	0.00803904833199385	0.382			0.00122	9787	0.266998584618206	0	0	0	0
PPA2	EFO_0003885	0	0.00803904833199385	0.129		0.0111592342684638	0.00972	4211	0.0620863965798616	0	0	0	0
PPARGC1A	EFO_0003885	0	0.00803904833199385	0.46			0.02274	3921	0.033490573066607	0	0	0	0
PPP1CB	EFO_0003885	0	0.00803904833199385	0.425			0.04743	1894	0.0202028382146191	0	0	0	0
PRSS1	EFO_0003885	0	0.00803904833199385	0.853			0.03582	6728	0.0243904481867984	0	0	0	0
PRSS33	EFO_0003885	0	0.00803904833199385	0.191		0.00934075725403949	0.04193	12265	0.0219261760745257	0	0	0	0
PTGER3	EFO_0003885	0	0.00803904833199385	0.839			0.04663	646	0.020430662308998	0	0	0	0
QPRT	EFO_0003885	0	0.00803904833199385	0.917			0.03083	12468	0.0270425803182712	0	0	0	0
RAD52	EFO_0003885	0	0.00803904833199385	0.04526	10130	0.0208376411489998	0.00485	9895	0.103426585677846	0	0	0	0
RASSF8	EFO_0003885	0	0.00803904833199385	0.144		0.0105705395652049	0.04087	10113	0.022306039996447	0	0	0	0
RBM15	EFO_0003885	0	0.00803904833199385	0.461			0.0303	811	0.0273699339957806	0	0	0	0
REG1A	EFO_0003885	0	0.00803904833199385	0.368			0.02196	2123	0.0343331811246202	0	0	0	0
RHCG	EFO_0003885	0	0.00803904833199385	0.995			0.02108	12098	0.0353501644459654	0	0	0	0
RHOJ	EFO_0003885	0	0.00803904833199385	0.422			0.003281	11379	0.13709078595883	0	0	0	0
RHOU	EFO_0003885	0	0.00803904833199385	0.235		0.00868440723352699	0.01925	1630	0.0377275792579607	0	0	0	0
RNF2	EFO_0003885	0	0.00803904833199385	0.571			0.000581	1386	0.407833402408292	0	0	0	0
RNF39	EFO_0003885	0	0.00803904833199385	0.000177	5563	0.66097881471735	0.03876	5442	0.0231175490885322	0	0	0	1
RPLP0	EFO_0003885	0	0.00803904833199385	0.498			0.04962	10727	0.0196132105884897	0	0	0	0
RREB1	EFO_0003885	1	0.00803904833199385	0.06015		0.017327708238304	0.00309	5269	0.143057939920909	0	0	0	1
RTN4	EFO_0003885	0	0.00803904833199385	0.676			0.04887	1998	0.0198097621239452	0	0	0	0
RUFY1	EFO_0003885	0	0.00803904833199385	0.298		0.00819600723009445	0.0357	5208	0.0244463889789421	0	0	0	0
SAFB2	EFO_0003885	0	0.00803904833199385	0.973			0.04219	14239	0.0218356283030209	0	0	0	0
SCGN	EFO_0003885	0	0.00803904833199385	0.03777	5479	0.0235262888449956	0.04344	5336	0.0214139534896916	0	0	0	0
SCT	EFO_0003885	0	0.00803904833199385	0.323		0.00810144162705366	0.0405	8789	0.0224428392925502	0	0	0	0
SDSL	EFO_0003885	0	0.00803904833199385	0.636			0.0093	10700	0.0641370148643243	0	0	0	0
SEC61A1	EFO_0003885	0	0.00803904833199385	0.239		0.00864014138169257	0.03724	3450	0.0237531161089995	0	0	0	0
SENP5	EFO_0003885	0	0.00803904833199385	0.641			0.0435	3785	0.021394262529113	0	0	0	0
SEPP1	EFO_0003885	0	0.00803904833199385	0.428			0.03815	4583	0.0233671458407101	0	0	0	0
SFTPB	EFO_0003885	0	0.00803904833199385	0.689			0.03277	2144	0.0259255808495852	0	0	0	0
SGTA	EFO_0003885	0	0.00803904833199385	0.941			0.00332	14180	0.135941652186647	0	0	0	0
SH2B2	EFO_0003885	0	0.00803904833199385	0.04301	6690	0.0215565188653556	0.00921	6539	0.0645975958632339	0	0	0	0
SHQ1	EFO_0003885	0	0.00803904833199385	0.435			0.00472	3270	0.105492446933749	0	0	0	0
SIX1	EFO_0003885	0	0.00803904833199385	0.469			0.02374	11369	0.0324827669133096	0	0	0	0
SLC10A1	EFO_0003885	0	0.00803904833199385	0.583			0.01985	11423	0.0369052159626262	0	0	0	0
SLC22A7	EFO_0003885	0	0.00803904833199385	0.603			0.04315	5592	0.0215098213467753	0	0	0	0
SLC38A2	EFO_0003885	0	0.00803904833199385	0.4			0.00594	10177	0.0891821911331531	0	0	0	0
SMC5	EFO_0003885	0	0.00803904833199385	0.158		0.0101229169770059	0.03824	7626	0.023329870391317	0	0	0	0
SNAP91	EFO_0003885	0	0.00803904833199385	0.585			0.03376	5727	0.0254000618638601	0	0	0	0
SNRPD3	EFO_0003885	0	0.00803904833199385	0.615			0.03396	16080	0.0252972352017249	0	0	0	0
SOX30	EFO_0003885	0	0.00803904833199385	0.576			0.00695	5099	0.0794692122269091	0	0	0	0
SP3	EFO_0003885	0	0.00803904833199385	0.559			0.0048	2470	0.104209978732035	0	0	0	0
SPATA19	EFO_0003885	0	0.00803904833199385	0.482			0.03077	9879	0.0270791324223428	0	0	0	0
SPATA22	EFO_0003885	0	0.00803904833199385	0.856			0.04973	12891	0.0195848336991055	0	0	0	0
TACC2	EFO_0003885	0	0.00803904833199385	0.471			0.0432	8685	0.0214932097240691	0	0	0	0
TAF1A	EFO_0003885	0	0.00803904833199385	0.108		0.012251420146483	0.01261	1579	0.0512894920820377	0	0	0	0
TANK	EFO_0003885	0	0.00803904833199385	0.959			0.01726	2412	0.0408149472784121	0	0	0	0
TBC1D9	EFO_0003885	0	0.00803904833199385	0.484			0.02866	4309	0.0284511716214182	0	0	0	0
TBPL1	EFO_0003885	0	0.00803904833199385	0.223		0.00883076570595791	0.04717	5912	0.0202761160648411	0	0	0	0
TM9SF2	EFO_0003885	0	0.00803904833199385	0.381			0.04341	11053	0.0214238173519283	0	0	0	0
TMEM38A	EFO_0003885	0	0.00803904833199385	0.211		0.00899965882820111	0.03959	14502	0.0227890551997098	0	0	0	0
TMPRSS6	EFO_0003885	0	0.00803904833199385	0.586			0.0437	16197	0.021328977839362	0	0	0	0
TNIP3	EFO_0003885	0	0.00803904833199385	0.914			0.00551	4265	0.0942280249070629	0	0	0	0
TNS3	EFO_0003885	0	0.00803904833199385	0.232		0.00871904302171562	0.02354	6295	0.0326782185751846	0	0	0	0
TOR1A	EFO_0003885	0	0.00803904833199385	0.306		0.00816058696764785	0.04678	7979	0.0203874099525204	0	0	0	0
TPRG1	EFO_0003885	0	0.00803904833199385	0.723			0.04179	3741	0.0219753523760918	0	0	0	0
TTC7A	EFO_0003885	0	0.00803904833199385	0.775			0.04737	1973	0.0202196840515547	0	0	0	0
UBE2G2	EFO_0003885	0	0.00803904833199385	0.487			0.02483	15960	0.0314670645183037	0	0	0	0
UBTD2	EFO_0003885	0	0.00803904833199385	0.223		0.00883076570595791	0.01358	5144	0.048585029512784	0	0	0	0
UQCRC2	EFO_0003885	0	0.00803904833199385	0.256		0.00847457932459475	0.01696	12415	0.0413358079452328	0	0	0	0
USP8	EFO_0003885	0	0.00803904833199385	0.927			0.04951	11826	0.0196417013841694	0	0	0	0
VDAC1	EFO_0003885	0	0.00803904833199385	0.408			0.03257	4870	0.0260352167126406	0	0	0	0
VLDLR	EFO_0003885	0	0.00803904833199385	0.742			0.02666	7442	0.0299295179771187	0	0	0	0
WDR1	EFO_0003885	0	0.00803904833199385	0.292		0.00822596561345672	0.04501	3891	0.0209143141557933	0	0	0	0
WDR43	EFO_0003885	0	0.00803904833199385	0.312		0.00813727619929071	0.03871	1896	0.0231377418142855	0	0	0	0
WNT7A	EFO_0003885	0	0.00803904833199385	0.364		0.00803949332436455	0.01896	2908	0.0381415895356004	0	0	0	0
WNT7B	EFO_0003885	0	0.00803904833199385				0.0105	16333	0.0586613729359547	0	0	0	0
YWHAB	EFO_0003885	0	0.00803904833199385	0.27		0.00836285149829916	0.03542	15603	0.0245782390879429	0	0	0	0
ZBBX	EFO_0003885	0	0.00803904833199385	0.51			0.002143	3630	0.184590214453244	0	0	0	0
ZIC2	EFO_0003885	0	0.00803904833199385	0.881			0.01341	11055	0.0490340469172034	0	0	0	0
ZNF207	EFO_0003885	0	0.00803904833199385	0.171		0.00977552012991003	0.02927	13209	0.0280363534654341	0	0	0	0
ZNF217	EFO_0003885	0	0.00803904833199385	0.232		0.00871904302171562	0.0081	15686	0.0710017100284766	0	0	0	0
ZNF595	EFO_0003885	0	0.00803904833199385	0.448			0.01012	3793	0.0602723054603161	0	0	0	0
ZNF92	EFO_0003885	0	0.00803904833199385	0.874			0.03181	6329	0.0264630737171	0	0	0	0
