doid	positives	GaDaGaD	GfGaD	GiGaD	GeTcD	GaDsD
DOID:0050589	227	0.737141611738442	0.76003593160037	0.657344242402822	0.536061307556828	0.682659998704106
DOID:10286	46	0.553497056369503	0.557256968148109	0.482565772199758	0.541528820739029	0.510982746649396
DOID:1040	15	0.644593579055908	0.618378510634579	0.490510145231479	0.505800520806026	0.499423268494731
DOID:10608	64	0.835242243350505	0.736604092199327	0.548626077586207	0.531540751156434	0.645159157511564
DOID:10652	18	0.553053079298491	0.54388947153761	0.49349764027268	0.564416185981472	0.521697838373245
DOID:10763	25	0.498688558988617	0.460919057860777	0.493836227246498	0.537360331532288	0.517819860462676
DOID:10871	23	0.560900352341532	0.709989851651671	0.669411281770602	0.5	0.49965906110674
DOID:10941	10	0.599748996861005	0.626634286679362	0.495780701294617	0.471277320614288	0.610196784131477
DOID:1107	15	0.597364511788043	0.579559237316276	0.49407539453678	0.599952812876842	0.499737849315787
DOID:11830	26	0.496066089693155	0.49666472821811	0.530216992211998	0.5	0.499816417519014
DOID:12236	26	0.910706359006642	0.61109295174451	0.528536435760232	0.524797623947766	0.688164330161497
DOID:12306	49	0.788393951330532	0.596344866071429	0.548337928921569	0.487404258578431	0.652663799894958
DOID:12361	11	0.763191753992194	0.482596844367563	0.497824605545945	0.598319251645246	0.72291240761126
DOID:13241	10	0.861956236897275	0.862657232704402	0.624377620545073	0.476912997903564	0.682520964360587
DOID:13378	10	0.687530139427613	0.684348464199602	0.597819477932697	0.514362092462522	0.498689590103784
DOID:14221	27	0.664337223473201	0.722283762297927	0.609456591042993	0.52935158954989	0.554323745187768
DOID:14330	44	0.506759324542586	0.544522534415425	0.559061270207968	0.55462901846657	0.507717530990134
DOID:1459	19	0.82458623883675	0.608401055593422	0.494311330152572	0.449588423425785	0.566406263653682
DOID:1826	16	0.499921354794736	0.487600272636712	0.496539610968385	0.515049196945071	0.494337545220993
DOID:1909	18	0.687088504340733	0.663923847812154	0.542110936316495	0.557460816873507	0.5
DOID:216	14	0.499187375484953	0.5487799397834	0.497902904477299	0.5	0.499973786305966
DOID:2377	108	0.706892627176093	0.654492687213109	0.602584523968089	0.513730485484759	0.5071090188719
DOID:2468	26	0.591680588847728	0.51095615118278	0.493232609379918	0.481350330500472	0.632085179535604
DOID:2841	30	0.760307828141651	0.686796535621691	0.616853111300481	0.520663601773802	0.499632719450129
DOID:2914	13	0.91635850388144	0.669648150015122	0.570765198104648	0.570843835064019	0.802101018247807
DOID:3083	10	0.649596393751966	0.691812558968445	0.499161337666422	0.454450152007548	0.499135129468498
DOID:3310	25	0.716189545740663	0.52058635823192	0.495488879563575	0.492768875017485	0.5
DOID:332	15	0.49724741781576	0.480391128820846	0.49724741781576	0.503301350949859	0.528469564305563
DOID:3393	37	0.698970540822218	0.548498549159862	0.485907731065974	0.528734882395723	0.613063559544429
DOID:3459	36	0.606303362726573	0.703691067721091	0.583006012783726	0.487916112627429	0.5
DOID:3905	15	0.760403012985197	0.577573882801167	0.66219262832276	0.52589349691536	0.699872420000349
DOID:4007	16	0.595162446040651	0.591347279749733	0.486341949352488	0.517539628445097	0.499816494521051
DOID:4905	10	0.499082713072649	0.484720620610127	0.496514309676067	0.45361148967397	0.499895167208303
DOID:5419	33	0.599144840520882	0.594120016859439	0.494542687726295	0.497797778142652	0.579007459793794
DOID:557	19	0.762847404299948	0.936657344287129	0.776326982462273	0.577753015207132	0.58275214123405
DOID:5844	14	0.74677384322713	0.718191554696745	0.567552689525008	0.483328090594527	0.783446801180365
DOID:635	10	0.767417346588163	0.568449313090018	0.49690759473767	0.482126945856701	0.499921379527229
DOID:6364	10	0.597688436943076	0.579232623964776	0.495754271936262	0.481365971275815	0.499502044239438
DOID:678	10	0.640984379914037	0.673204738442185	0.496619142467764	0.532846734458539	0.499423419645665
DOID:7147	14	0.735099387348522	0.587327176860049	0.497745622313096	0.513363366737069	0.534478497281265
DOID:7148	43	0.775834467937016	0.688900828515083	0.55662293100185	0.488637071318236	0.511152899802793
DOID:8577	112	0.771869171168323	0.635485250756369	0.570221562659777	0.522970670517701	0.710683439934639
DOID:8778	198	0.752740334965237	0.666430856166307	0.597204383023588	0.514127970159057	0.671296051238619
DOID:8893	22	0.75852540934362	0.786223453458321	0.738765103039204	0.522991903721999	0.5
DOID:9074	42	0.724907867168709	0.6379792282344	0.509632068725842	0.514665621577834	0.639171829605516
DOID:9352	69	0.594644411086882	0.56399721596005	0.541169343859536	0.47243149166632	0.542237291540301
DOID:9744	57	0.721746440393002	0.635698284797218	0.544412336468239	0.482578105969058	0.506105663369363
DOID:986	10	0.888636125380019	0.68213649229479	0.597955760561904	0.510294580144669	0.893563266589789
DOID:9970	26	0.571392540939283	0.556534143644625	0.493652292519148	0.509644641372687	0.573239752064115
