gene	disease	status	prediction	P.phs000101.pha002846	block.phs000101.pha002846	PPA.phs000101.pha002846	P.phs000127.pha002851	block.phs000127.pha002851	PPA.phs000127.pha002851	NPC_GiGaD	NPC_GsTpD	NPC_GaDaGaD	ld.with.positive
MAST2	EFO_0000253	0	0.101559803446289	0.301		0.103194242194234	0.0265	533	0.301787028938549	0.0740740740741	0	0	0
HSPA4	EFO_0000253	0	0.0406751795579923	0.7			0.02521	4926	0.143914647719288	0.046511627907	0	0	0
ALPK2	EFO_0000253	0	0.0246256421346111	0.137		0.0329813881606573	0.00482	14361	0.265351434169632	0	0	0.00869565217391	0
CBLB	EFO_0000253	0	0.0246256421346111	0.354		0.024642968163858	0.04369	3391	0.0635878530529324	0	0	0.00869565217391	0
MAP3K14	EFO_0000253	0	0.0246256421346111	0.25		0.0261000082595929	0.0336	13788	0.0753280871834044	0	0	0.00869565217391	0
ZNF438	EFO_0000253	0	0.0246256421346111	0.699			0.02815	8430	0.0845982853492564	0	0	0.00869565217391	0
GAP43	EFO_0000253	0	0.0123809748523695	0.864			0.01377	3440	0.0724899992484022	0	0.00411522633745	0	0
PLN	EFO_0000253	0	0.0123482925568237	0.571			0.01474	6029	0.0688948333685812	0	0.0040899795501	0	0
CLK1	EFO_0000253	0	0.0100150180249135	0.242		0.0107227150624361	0.03156	2624	0.0329961385953347	0	0.00209205020921	0	0
TMEM123	EFO_0000253	0	0.0100150180249135	0.766			0.01492	9893	0.0559966343998681	0	0.00209205020921	0	0
ADRA1B	EFO_0000253	0	0.0100104287169013	0.51			0.04325	5166	0.0266547071873324	0	0.00208768267223	0	0
CHRD	EFO_0000253	0	0.0100104287169013	0.01418	3746	0.0580604805510215	0.02418	3764	0.0396898677165672	0	0.00208768267223	0	0
GP6	EFO_0000253	0	0.0100104287169013	0.121		0.0143476021815488	0.01841	15583	0.048144122942769	0	0.00208768267223	0	0
HINT2	EFO_0000253	0	0.0100104287169013	0.127		0.013995357274055	0.01225	7786	0.0645281961606856	0	0.00208768267223	0	0
ITGA10	EFO_0000253	0	0.0100104287169013	0.624			0.01783	941	0.0492573768838949	0	0.00208768267223	0	0
MUC7	EFO_0000253	0	0.0100104287169013	0.795			0.04763	4115	0.0250126441910832	0	0.00208768267223	0	0
PDK4	EFO_0000253	0	0.0100104287169013	0.45			0.01591	6641	0.0534462969617507	0	0.00208768267223	0	0
SH3BGR	EFO_0000253	0	0.0100104287169013	0.191		0.0116276082235392	0.004	16294	0.144149031402584	0	0.00208768267223	0	0
ARHGAP26	EFO_0000253	0	0.0100081420186388	0.389			0.01073	5069	0.0710053636166272	0	0.00208550573514	0	0
CXCL14	EFO_0000253	0	0.0100081420186388	0.53			0.04364	4948	0.0264905742195602	0	0.00208550573514	0	0
FAAH	EFO_0000253	0	0.0100081420186388	0.156		0.0126690296338826	0.03231	539	0.0324466702952877	0	0.00208550573514	0	0
OCIAD1	EFO_0000253	0	0.0100081420186388	0.503			0.01109	4051	0.0693289104309473	0	0.00208550573514	0	0
RPS27	EFO_0000253	0	0.0100081420186388	0.146		0.0130654457665449	0.01806	1089	0.0487976732675789	0	0.00208550573514	0	0
FOXF2	EFO_0000253	0	0.0100058605997851	0.612			0.003704	5308	0.152044288728963	0	0.00208333333333	0	0
GTPBP2	EFO_0000253	0	0.0100058605997851	0.724			0.02023	5771	0.0449992249330457	0	0.00208333333333	0	0
AKAP7	EFO_0000253	0	0.0100035844421468	0.204		0.0113331296776041	0.01884	6063	0.0473266989994848	0	0.00208116545265	0	0
HMCN1	EFO_0000253	0	0.0100035844421468	0.17		0.0121898666324537	0.00137	1417	0.291561275405576	0	0.00208116545265	0	0
IL1RN	EFO_0000253	0	0.0100035844421468	0.851			0.01082	2332	0.0705470247850408	0	0.00208116545265	0	0
METAP2	EFO_0000253	0	0.0100035844421468	0.987			0.0073	10834	0.093794383961489	0	0.00208116545265	0	0
MKI67	EFO_0000253	0	0.0100035844421468	0.744			0.04152	8945	0.0273700124818682	0	0.00208116545265	0	0
SPRR2A	EFO_0000253	0	0.0100035844421468	0.277		0.0103455841139836	0.01215	1064	0.0648698326550408	0	0.00208116545265	0	0
TMEM97	EFO_0000253	0	0.0100035844421468	0.809			0.02352	13472	0.0404427737329229	0	0.00208116545265	0	0
ADCYAP1R1	EFO_0000253	0	0.00999904783812285	0.455			0.0464	6397	0.0254171289769696	0	0.00207684319834	0	0
CEND1	EFO_0000253	0	0.00999904783812285	0.518			0.01054	9013	0.0718687308224575	0	0.00207684319834	0	0
CNDP1	EFO_0000253	0	0.00999904783812285	0.503			0.00665	14406	0.100277976406419	0	0.00207684319834	0	0
FAM19A1	EFO_0000253	0	0.00999904783812285	0.451			0.01464	3314	0.0566791376848762	0	0.00207684319834	0	0
FAM5C	EFO_0000253	0	0.00999904783812285	0.232		0.0108430197330911	0.04714	1424	0.0251544990044781	0	0.00207684319834	0	0
FEZF2	EFO_0000253	0	0.00999904783812285	0.205		0.0113077538665488	0.04509	3301	0.0259010013269215	0	0.00207684319834	0	0
GRIN2A	EFO_0000253	0	0.00999904783812285	0.841			0.00728	12614	0.0939413470621544	0	0.00207684319834	0	0
HCRTR1	EFO_0000253	0	0.00999904783812285	0.05686		0.0222834411134238	0.0239	350	0.0399718838520126	0	0.00207684319834	0	0
HS6ST1	EFO_0000253	0	0.00999904783812285	0.265		0.010447565219398	0.03281	2378	0.032078545733099	0	0.00207684319834	0	0
INSM2	EFO_0000253	0	0.00999904783812285	0.245		0.0106675792414497	0.0157	11532	0.0539000936977393	0	0.00207684319834	0	0
MOBP	EFO_0000253	0	0.00999904783812285	0.10943		0.0151147289972263	0.04701	3049	0.0252000983568755	0	0.00207684319834	0	0
PDCD10	EFO_0000253	0	0.00999904783812285	0.155		0.0126947881428508	0.02877	3703	0.0351178318342963	0	0.00207684319834	0	0
PRKCG	EFO_0000253	0	0.00999904783812285	0.667			0.02273	15540	0.0414097860669748	0	0.00207684319834	0	0
SLC1A2	EFO_0000253	0	0.00999904783812285	0.892			0.03987	9292	0.0281097090717637	0	0.00207684319834	0	0
SYN2	EFO_0000253	0	0.00999904783812285	0.32		0.0100875586756084	0.02009	2935	0.0451920434275189	0	0.00207684319834	0	0
ZSCAN16	EFO_0000253	0	0.00999904783812285	0.948			0.02432	5478	0.0394856959290452	0	0.00207684319834	0	0
ABCC6	EFO_0000253	0	0.00803904833199385	0.238		0.00865100682632343	0.0108	12652	0.0574599397335821	0	0	0	0
ABCG8	EFO_0000253	0	0.00803904833199385	0.959			0.04693	1993	0.0203444071146345	0	0	0	0
ABI2	EFO_0000253	0	0.00803904833199385	0.138		0.010790696822504	0.01228	2647	0.0522948774969819	0	0	0	0
ABLIM1	EFO_0000253	0	0.00803904833199385	0.366		0.00803915257865006	0.03452	8868	0.0250150105576943	0	0	0	0
ACE	EFO_0000253	0	0.00803904833199385	0.518			0.0201	13959	0.0365754663267239	0	0	0	0
ACTB	EFO_0000253	0	0.00803904833199385	0.578			0.04047	6281	0.0224540296875897	0	0	0	0
ADAM18	EFO_0000253	0	0.00803904833199385	0.236		0.00867313838181296	0.0332	7234	0.0256938755481811	0	0	0	0
ADAM9	EFO_0000253	0	0.00803904833199385	0.985			0.02619	7233	0.0303060814317772	0	0	0	0
ADAMTS17	EFO_0000253	0	0.00803904833199385	0.901			0.04551	12420	0.0207617279161222	0	0	0	0
AFAP1	EFO_0000253	0	0.00803904833199385	0.99			0.04641	3932	0.020494555133752	0	0	0	0
AFF4	EFO_0000253	0	0.00803904833199385	0.927			0.04717	4925	0.0202761160648411	0	0	0	0
AIPL1	EFO_0000253	0	0.00803904833199385	0.726			0.000301	13280	0.549865348042545	0	0	0	0
AKAP13	EFO_0000253	0	0.00803904833199385	0.945			0.01494	12366	0.0453199839557783	0	0	0	0
AKR1A1	EFO_0000253	0	0.00803904833199385	0.248		0.00854812856879617	0.01341	532	0.0490340469172034	0	0	0	0
ALDH1A2	EFO_0000253	0	0.00803904833199385	0.567			0.04816	12145	0.0200009181854362	0	0	0	0
ALOX12	EFO_0000253	0	0.00803904833199385	0.639			0.03137	13288	0.0267192503309674	0	0	0	0
ALOX15B	EFO_0000253	0	0.00803904833199385	0.609			0.04911	13348	0.0197462757063299	0	0	0	0
ANAPC13	EFO_0000253	0	0.00803904833199385	0.808			0.02502	3572	0.0312981102792947	0	0	0	0
ANG	EFO_0000253	0	0.00803904833199385	0.605			0.02278	11415	0.0334487494879246	0	0	0	0
ANGPTL7	EFO_0000253	0	0.00803904833199385	0.458			0.03277	109	0.0259255808495852	0	0	0	0
ANK3	EFO_0000253	0	0.00803904833199385	0.333		0.00807625185000401	0.00773	8517	0.0734876890331117	0	0	0	0
ANKRD24	EFO_0000253	0	0.00803904833199385	0.145		0.0105356326743155	0.04529	14549	0.0208284916747899	0	0	0	0
ANKRD36B	EFO_0000253	0	0.00803904833199385	0.818			0.0283	2243	0.0287034715228063	0	0	0	0
ANKZF1	EFO_0000253	0	0.00803904833199385	0.824			0.02006	2730	0.0366277352317728	0	0	0	0
AOAH	EFO_0000253	0	0.00803904833199385	0.881			0.02049	6416	0.036075365569632	0	0	0	0
AOC2	EFO_0000253	0	0.00803904833199385	0.667			0.02726	13740	0.0294656852183541	0	0	0	0
AP1M1	EFO_0000253	0	0.00803904833199385	0.821			0.00683	14842	0.0804933449129708	0	0	0	0
APOA2	EFO_0000253	0	0.00803904833199385	0.436			0.02378	1260	0.0324440283566642	0	0	0	0
ARFGEF2	EFO_0000253	0	0.00803904833199385	0.211		0.00899965882820111	0.01934	16050	0.0376013373909426	0	0	0	0
ARHGAP18	EFO_0000253	0	0.00803904833199385	0.235		0.00868440723352699	0.01494	6058	0.0453199839557783	0	0	0	0
ARL6	EFO_0000253	0	0.00803904833199385	0.972			0.01145	3352	0.0550472279852964	0	0	0	0
ARMC6	EFO_0000253	0	0.00803904833199385	0.152		0.0103043740927493	0.01119	14918	0.0559828007913293	0	0	0	0
ASB15	EFO_0000253	0	0.00803904833199385	0.571			0.04974	6819	0.019582259605929	0	0	0	0
ATP5O	EFO_0000253	0	0.00803904833199385	0.166		0.0099022855551446	0.02933	16263	0.0279963858246088	0	0	0	0
BAG3	EFO_0000253	0	0.00803904833199385	0.731			0.002641	8898	0.159773867918095	0	0	0	0
BAIAP3	EFO_0000253	0	0.00803904833199385	0.138		0.010790696822504	0.04575	12486	0.0206895552892452	0	0	0	0
BATF3	EFO_0000253	0	0.00803904833199385	0.602			0.01188	1575	0.0535791251911804	0	0	0	0
BRD8	EFO_0000253	0	0.00803904833199385	0.06462		0.0165640299854023	0.01335	4962	0.0491949282278677	0	0	0	0
BTG1	EFO_0000253	0	0.00803904833199385	0.155		0.0102118239409061	0.01842	10817	0.0389432613447424	0	0	0	0
C1orf198	EFO_0000253	0	0.00803904833199385	0.706			0.01491	1673	0.0453863139752934	0	0	0	0
C20orf72	EFO_0000253	0	0.00803904833199385	0.05522		0.0182993312138542	0.02463	15804	0.0316474207094506	0	0	0	0
C21orf7	EFO_0000253	0	0.00803904833199385	0.209		0.00903022436384785	0.02642	16205	0.0301203111704275	0	0	0	0
CA9	EFO_0000253	0	0.00803904833199385	0.43			0.04851	7784	0.0199060548535985	0	0	0	0
CABP1	EFO_0000253	0	0.00803904833199385	0.546			0.01206	11014	0.0529919485061467	0	0	0	0
CAMK2N1	EFO_0000253	0	0.00803904833199385	0.386			0.02181	208	0.0345013618270749	0	0	0	0
CANX	EFO_0000253	0	0.00803904833199385	0.506			0.02274	5278	0.033490573066607	0	0	0	0
CAP1	EFO_0000253	0	0.00803904833199385	0.658			0.02141	457	0.0349600810202648	0	0	0	0
CARD10	EFO_0000253	0	0.00803904833199385	0.02235	16535	0.0339053308849077	0.03507	16591	0.0247457050673762	0	0	0	0
CAT	EFO_0000253	0	0.00803904833199385	0.729			0.01256	9291	0.0514388333785291	0	0	0	0
CBLN1	EFO_0000253	0	0.00803904833199385	0.352		0.00804659363585422	0.00275	12841	0.155313617416555	0	0	0	0
CCNG2	EFO_0000253	0	0.00803904833199385	0.597			0.01492	4168	0.0453641777805863	0	0	0	0
CD320	EFO_0000253	0	0.00803904833199385	0.476			0.03851	14645	0.0232189836489737	0	0	0	0
CD34	EFO_0000253	0	0.00803904833199385	0.908			0.01239	1550	0.0519545163364644	0	0	0	0
CD53	EFO_0000253	0	0.00803904833199385	0.563			0.000818	861	0.338936547735287	0	0	0	0
CD81	EFO_0000253	0	0.00803904833199385	0.284		0.00827066079739816	0.02367	9042	0.0325508401119251	0	0	0	0
CDH10	EFO_0000253	0	0.00803904833199385	0.592			0.02561	4588	0.030787745909368	0	0	0	0
CDK5R1	EFO_0000253	0	0.00803904833199385	0.492			0.00468	13538	0.106147507669499	0	0	0	0
CDKN3	EFO_0000253	0	0.00803904833199385	0.877			0.00791	11601	0.0722531291551827	0	0	0	0
CENPC1	EFO_0000253	0	0.00803904833199385	0.01815	4067	0.039359938590775	0.04754	4085	0.0201720538689682	0	0	0	0
CENPF	EFO_0000253	0	0.00803904833199385	0.03188	1596	0.0264229024927621	0.01699	1585	0.0412829887832848	0	0	0	0
CEP57	EFO_0000253	0	0.00803904833199385	0.969			0.01208	9880	0.0529276566357242	0	0	0	0
CHRAC1	EFO_0000253	0	0.00803904833199385	0.954			0.00751	7544	0.0750658875951966	0	0	0	0
CHRNB2	EFO_0000253	0	0.00803904833199385	0.65			0.03967	1095	0.0227580464795325	0	0	0	0
CHST3	EFO_0000253	0	0.00803904833199385	0.681			0.0132	8575	0.0496027642394889	0	0	0	0
CIDEB	EFO_0000253	0	0.00803904833199385	0.519			0.02304	11499	0.033180052093099	0	0	0	0
CLDN5	EFO_0000253	0	0.00803904833199385	0.491			0.04686	16400	0.0203644441956774	0	0	0	0
CLOCK	EFO_0000253	0	0.00803904833199385	0.574			0.02703	4068	0.0296413136703775	0	0	0	0
CMBL	EFO_0000253	0	0.00803904833199385	0.686			0.03137	4571	0.0267192503309674	0	0	0	0
COL11A2	EFO_0000253	0	0.00803904833199385	0.23		0.00874283917489062	0.04305	5636	0.0215431488116224	0	0	0	0
CORIN	EFO_0000253	0	0.00803904833199385	0.293		0.00822076480656711	0.004098	4042	0.116874572782759	0	0	0	0
CRK	EFO_0000253	0	0.00803904833199385	0.892			0.0112	13182	0.0559461132151629	0	0	0	0
CRYBA4	EFO_0000253	0	0.00803904833199385	0.09106		0.0134792109689949	0.03196	16487	0.0263771855196478	0	0	0	0
CSGALNACT2	EFO_0000253	0	0.00803904833199385	0.249		0.00853852414987393	0.03638	8451	0.0241337746985255	0	0	0	0
CSN3	EFO_0000253	0	0.00803904833199385	0.345		0.00805483160169513	0.0243	4112	0.0319507894171849	0	0	0	0
CYB5A	EFO_0000253	0	0.00803904833199385	0.934			0.04566	14404	0.0207165398553609	0	0	0	0
CYB5B	EFO_0000253	0	0.00803904833199385	0.453			0.02669	13005	0.0299058843380532	0	0	0	0
CYB5R1	EFO_0000253	0	0.00803904833199385	0.153		0.0102731073362599	0.03554	1485	0.0245215036875579	0	0	0	0
CYP7A1	EFO_0000253	0	0.00803904833199385	0.0777		0.0147960837864664	0.01505	7291	0.0450787744300211	0	0	0	0
DCAKD	EFO_0000253	0	0.00803904833199385	0.17		0.00980023162760503	0.03052	13784	0.0272328163841774	0	0	0	0
DCUN1D1	EFO_0000253	0	0.00803904833199385	0.551			0.04595	3749	0.0206299309593816	0	0	0	0
DDO	EFO_0000253	0	0.00803904833199385	0.66			0.0352	5993	0.0246831547422557	0	0	0	0
DDX21	EFO_0000253	0	0.00803904833199385	0.267		0.00838507194093447	0.01908	8545	0.0379689195992806	0	0	0	0
DEF6	EFO_0000253	0	0.00803904833199385	0.12258		0.0114546520511679	0.00455	5669	0.108343152354724	0	0	0	0
DMC1	EFO_0000253	0	0.00803904833199385	0.322		0.00810434093056791	0.04557	16617	0.0207436205068812	0	0	0	0
DNAJB8	EFO_0000253	0	0.00803904833199385	0.381			0.00984	3528	0.0615286491336226	0	0	0	0
DUSP19	EFO_0000253	0	0.00803904833199385	0.29		0.0082366210427082	0.01862	2568	0.0386415346197241	0	0	0	0
EFHA1	EFO_0000253	0	0.00803904833199385	0.276		0.00832107538607316	0.04429	11127	0.021139485632752	0	0	0	0
EPN2	EFO_0000253	0	0.00803904833199385	0.0637		0.0167132194254004	0.04768	13446	0.020133059251486	0	0	0	0
EXOSC10	EFO_0000253	0	0.00803904833199385	0.02166	111	0.034671614268669	0.04329	108	0.0214633958978081	0	0	0	0
EYA3	EFO_0000253	0	0.00803904833199385	0.619			0.04745	322	0.0201972314801487	0	0	0	0
FAM118B	EFO_0000253	0	0.00803904833199385	0.998			0.03109	10113	0.0268856479550865	0	0	0	0
FAM78A	EFO_0000253	0	0.00803904833199385	0.444			0.03855	8184	0.0232026746987618	0	0	0	0
FASN	EFO_0000253	0	0.00803904833199385	0.58			0.00767	14164	0.0739103359058604	0	0	0	0
FBXL12	EFO_0000253	0	0.00803904833199385	0.887			0.034	14673	0.0252768000315226	0	0	0	0
FBXO3	EFO_0000253	0	0.00803904833199385	0.563			0.02144	9288	0.0349251490317824	0	0	0	0
FERMT2	EFO_0000253	0	0.00803904833199385	0.832			0.02155	11599	0.0347978058231705	0	0	0	0
FGD3	EFO_0000253	0	0.00803904833199385	0.02409	7874	0.032147696548174	0.02473	7898	0.0315569173867521	0	0	0	0
FGF14	EFO_0000253	0	0.00803904833199385	0.128		0.0112033416720195	0.02753	11344	0.0292628608428675	0	0	0	0
FKBP10	EFO_0000253	0	0.00803904833199385	0.174		0.00970323143135078	0.0404	13706	0.0224801987221224	0	0	0	0
FMO3	EFO_0000253	0	0.00803904833199385	0.59			0.0436	1332	0.0213615527516893	0	0	0	0
FOLH1	EFO_0000253	0	0.00803904833199385	0.214		0.00895515105900053	0.01003	9363	0.0606694420110806	0	0	0	0
FOXP4	EFO_0000253	0	0.00803904833199385	0.928			0.03183	5728	0.0264515800805547	0	0	0	0
GAB2	EFO_0000253	0	0.00803904833199385	0.299		0.00819130118100773	0.01706	9828	0.0411603844251238	0	0	0	0
GAPDHS	EFO_0000253	0	0.00803904833199385	0.876			0.03503	15025	0.0247650350771138	0	0	0	0
GC	EFO_0000253	0	0.00803904833199385	0.167		0.00987628061720471	0.02807	4123	0.0288676882542498	0	0	0	0
GCNT1	EFO_0000253	0	0.00803904833199385	0.593			0.01621	7840	0.0427123682520092	0	0	0	0
GLDN	EFO_0000253	0	0.00803904833199385	0.838			0.04078	12113	0.0223391099820449	0	0	0	0
GLP2R	EFO_0000253	0	0.00803904833199385	0.74			0.04344	13374	0.0214139534896916	0	0	0	0
GLT6D1	EFO_0000253	0	0.00803904833199385	0.6			0.04969	8235	0.0195951394329757	0	0	0	0
GNAL	EFO_0000253	0	0.00803904833199385	0.541			0.0197	14223	0.0371066320574978	0	0	0	0
GNAT1	EFO_0000253	0	0.00803904833199385	0.02468	3183	0.0316020872854359	0.03055	3195	0.0272142554875233	0	0	0	0
GORASP2	EFO_0000253	0	0.00803904833199385	0.387			0.04942	2508	0.0196650972512425	0	0	0	0
GPATCH8	EFO_0000253	0	0.00803904833199385	0.344		0.00805626077686218	0.04837	13773	0.0199438514320763	0	0	0	0
GPR107	EFO_0000253	0	0.00803904833199385	0.591			0.02543	8176	0.0309412097037309	0	0	0	0
GPR39	EFO_0000253	0	0.00803904833199385	0.458			0.04699	2398	0.0203272753486034	0	0	0	0
GRTP1	EFO_0000253	0	0.00803904833199385	0.07121		0.0155988943816517	0.03019	11380	0.0274391629898935	0	0	0	0
GSR	EFO_0000253	0	0.00803904833199385	0.756			0.01978	7200	0.0369988723323805	0	0	0	0
GTF2H1	EFO_0000253	0	0.00803904833199385	0.628			0.02151	9231	0.0348439783395352	0	0	0	0
GYG1	EFO_0000253	0	0.00803904833199385	0.805			0.04916	3631	0.0197331198603285	0	0	0	0
HAS2	EFO_0000253	0	0.00803904833199385	0.159		0.0100940587780179	0.03862	7498	0.0231742070824391	0	0	0	0
HECW2	EFO_0000253	0	0.00803904833199385	0.747			0.04087	2602	0.022306039996447	0	0	0	0
HERC1	EFO_0000253	0	0.00803904833199385	0.971			0.0397	12172	0.0227464471754914	0	0	0	0
HIST1H2AL	EFO_0000253	0	0.00803904833199385	0.786			0.04381	5474	0.0212933001835817	0	0	0	0
HIST1H2BO	EFO_0000253	0	0.00803904833199385	0.73			0.03601	5476	0.0243025597365244	0	0	0	0
HTR2B	EFO_0000253	0	0.00803904833199385	0.353		0.00804566629979075	0.02896	2781	0.028245210173776	0	0	0	0
IDH3B	EFO_0000253	0	0.00803904833199385	0.245		0.00857767054614368	0.03299	15730	0.0258063578276072	0	0	0	0
IFNB1	EFO_0000253	0	0.00803904833199385	0.555			0.01084	7698	0.0573041559345984	0	0	0	0
IL15RA	EFO_0000253	0	0.00803904833199385	0.228		0.00876721392928545	0.03179	8332	0.0264745803025613	0	0	0	0
IL22	EFO_0000253	0	0.00803904833199385	0.979			0.04117	10747	0.0221967465142273	0	0	0	0
IL33	EFO_0000253	0	0.00803904833199385	0.458			0.04571	7669	0.0207015366010106	0	0	0	0
INTS7	EFO_0000253	0	0.00803904833199385	0.198		0.00921198736322359	0.0165	1569	0.0421669618332323	0	0	0	0
IPO11	EFO_0000253	0	0.00803904833199385	0.263		0.00841613067756585	0.04644	4699	0.0204858103255707	0	0	0	0
IVL	EFO_0000253	0	0.00803904833199385	0.219		0.00888440783238398	0.04663	1061	0.020430662308998	0	0	0	0
KCNK16	EFO_0000253	0	0.00803904833199385	0.309		0.0081485905526232	0.04819	5713	0.0199927383017981	0	0	0	0
KIAA0586	EFO_0000253	0	0.00803904833199385	0.382			0.00072	11624	0.363959858140649	0	0	0	0
KIF1A	EFO_0000253	0	0.00803904833199385	0.139		0.010752678325024	0.02973	2863	0.0277336257047083	0	0	0	0
KIF7	EFO_0000253	0	0.00803904833199385	0.251		0.00851967284096131	0.0227	12382	0.0335325279034608	0	0	0	0
KLHL11	EFO_0000253	0	0.00803904833199385	0.207		0.00906152531321281	0.04914	13708	0.0197383792967129	0	0	0	0
KLHL21	EFO_0000253	0	0.00803904833199385	0.462			0.02654	74	0.0300245294454449	0	0	0	0
KLHL8	EFO_0000253	0	0.00803904833199385	0.602			0.0443	4209	0.021136313107982	0	0	0	0
LAMB1	EFO_0000253	0	0.00803904833199385	0.664			0.03145	6773	0.0266721955646299	0	0	0	0
LARP1	EFO_0000253	0	0.00803904833199385	0.423			0.0038	5142	0.123412056400655	0	0	0	0
LDB2	EFO_0000253	0	0.00803904833199385	0.199		0.00919445961752214	0.01347	3968	0.0488744295216683	0	0	0	0
LMO7	EFO_0000253	0	0.00803904833199385	0.52			0.04086	11299	0.0223097079681354	0	0	0	0
LNX1	EFO_0000253	0	0.00803904833199385	0.725			0.01096	4060	0.0568427893579219	0	0	0	0
LOR	EFO_0000253	0	0.00803904833199385	0.05804		0.0177252041882556	0.01678	1065	0.0416562337107191	0	0	0	0
LRMP	EFO_0000253	0	0.00803904833199385	0.698			0.04819	10377	0.0199927383017981	0	0	0	0
LRRC16A	EFO_0000253	0	0.00803904833199385	0.419			0.04126	5407	0.0221642373711649	0	0	0	0
LTV1	EFO_0000253	0	0.00803904833199385	0.826			0.03122	6118	0.0268080596487793	0	0	0	0
LYPLA1	EFO_0000253	0	0.00803904833199385	0.377			0.03595	7275	0.0243302239245692	0	0	0	0
MAL	EFO_0000253	0	0.00803904833199385	0.984			0.03545	2215	0.0245640229362588	0	0	0	0
MATK	EFO_0000253	0	0.00803904833199385	0.397			0.04051	14541	0.0224391124732482	0	0	0	0
MCTP2	EFO_0000253	0	0.00803904833199385	0.09054		0.0135236941165232	0.03615	12410	0.0242383305219045	0	0	0	0
MDH1	EFO_0000253	0	0.00803904833199385	0.524			0.01487	2063	0.0454751217637889	0	0	0	0
MEF2C	EFO_0000253	0	0.00803904833199385	0.417			0.02598	4803	0.0304782598650406	0	0	0	0
MKKS	EFO_0000253	0	0.00803904833199385	0.223		0.00883076570595791	0.01567	15786	0.0437754077304731	0	0	0	0
MKL2	EFO_0000253	0	0.00803904833199385	0.594			0.02087	12639	0.0356041056498526	0	0	0	0
MLLT10	EFO_0000253	0	0.00803904833199385	0.816			0.03253	8396	0.0260572887605932	0	0	0	0
MMP2	EFO_0000253	0	0.00803904833199385	0.208		0.00904578178495831	0.04067	12862	0.0223797075799679	0	0	0	0
MPDZ	EFO_0000253	0	0.00803904833199385	0.908			0.04842	7677	0.0199303299988403	0	0	0	0
MT1G	EFO_0000253	0	0.00803904833199385	0.12		0.0115820415369579	0.04417	12878	0.0211776568645754	0	0	0	0
MTBP	EFO_0000253	0	0.00803904833199385	0.158		0.0101229169770059	0.0106	7497	0.0582542809150838	0	0	0	0
MTSS1	EFO_0000253	0	0.00803904833199385	0.266		0.00839268154801076	0.03873	7516	0.0231296591025323	0	0	0	0
MX1	EFO_0000253	0	0.00803904833199385	0.596			0.00622	16301	0.0862193405086097	0	0	0	0
MYLIP	EFO_0000253	0	0.00803904833199385	0.694			0.03517	5376	0.0246975526177046	0	0	0	0
NCOA6	EFO_0000253	0	0.00803904833199385	0.672			0.03341	15910	0.025582661158448	0	0	0	0
NDN	EFO_0000253	0	0.00803904833199385	0.559			0.00703	11931	0.0788032156015482	0	0	0	0
NFIC	EFO_0000253	0	0.00803904833199385	0.04744	14488	0.0202000343140823	0.01401	14529	0.0474922962751918	0	0	0	0
NFKBIE	EFO_0000253	0	0.00803904833199385	0.188		0.00939936384126167	0.02236	5778	0.0338945352174454	0	0	0	0
NKAPL	EFO_0000253	0	0.00803904833199385	0.622			0.03606	5479	0.0242795693586121	0	0	0	0
NMRAL1	EFO_0000253	0	0.00803904833199385	0.118		0.011684504435291	0.04369	12588	0.0213322292861192	0	0	0	0
NPBWR1	EFO_0000253	0	0.00803904833199385	0.624			0.000235	7273	0.602904292497156	0	0	0	0
NR6A1	EFO_0000253	0	0.00803904833199385	0.244		0.00858776468349306	0.02572	8093	0.0306949066249942	0	0	0	0
PANX1	EFO_0000253	0	0.00803904833199385	0.213		0.00896981108735367	0.02858	9868	0.0285067471457816	0	0	0	0
PARP11	EFO_0000253	0	0.00803904833199385	0.341		0.00806093221309444	0.04029	10176	0.02252148666014	0	0	0	0
PCMTD1	EFO_0000253	0	0.00803904833199385	0.391			0.03825	7271	0.0233257384022831	0	0	0	0
PDLIM1	EFO_0000253	0	0.00803904833199385	0.154		0.0102422597259319	0.02889	8717	0.0282929257200096	0	0	0	0
PEX3	EFO_0000253	0	0.00803904833199385	0.307		0.00815651163104022	0.04724	6117	0.0202563158139871	0	0	0	0
PIGQ	EFO_0000253	0	0.00803904833199385	0.376			0.0367	12454	0.0239902638908472	0	0	0	0
PIK3CA	EFO_0000253	0	0.00803904833199385	0.04802	3717	0.0200392129548089	0.0347	3734	0.0249260316104066	0	0	0	0
PIP4K2A	EFO_0000253	0	0.00803904833199385	0.278		0.00830791688276145	0.00576	8399	0.0912161830133135	0	0	0	0
PJA2	EFO_0000253	0	0.00803904833199385	0.352		0.00804659363585422	0.03485	4844	0.02485251240739	0	0	0	0
PKIB	EFO_0000253	0	0.00803904833199385	0.768			0.02439	6037	0.0318673266724652	0	0	0	0
PLCD4	EFO_0000253	0	0.00803904833199385	0.819			0.04631	2717	0.0205237782888812	0	0	0	1
PLK2	EFO_0000253	0	0.00803904833199385	0.732			0.02699	4689	0.0296721305480608	0	0	0	0
POLR3D	EFO_0000253	0	0.00803904833199385	0.01508	7101	0.0450135299865401	0.0338	7141	0.0253794092815964	0	0	0	0
POP4	EFO_0000253	0	0.00803904833199385	0.912			0.02775	14966	0.0291002059643349	0	0	0	0
PPM1K	EFO_0000253	0	0.00803904833199385	0.01574	4200	0.0436339689981044	0.01746	4219	0.0404765335368926	0	0	0	0
PPY	EFO_0000253	0	0.00803904833199385	0.164		0.00995531039241986	0.01167	13757	0.0542842360732314	0	0	0	0
PRDM16	EFO_0000253	0	0.00803904833199385	0.05926		0.0174922355707727	0.03813	49	0.0233754507369073	0	0	0	0
PRPSAP1	EFO_0000253	0	0.00803904833199385	0.251		0.00851967284096131	0.00799	14079	0.0717199298408387	0	0	0	0
PSMA7	EFO_0000253	0	0.00803904833199385	0.678			0.02338	16122	0.0328367238321207	0	0	0	0
PTP4A2	EFO_0000253	0	0.00803904833199385	0.246		0.00856770060508409	0.02378	352	0.0324440283566642	0	0	0	0
PUS7	EFO_0000253	0	0.00803904833199385	0.288		0.00824761880802515	0.01	6757	0.0608032085186679	0	0	0	0
RAB27B	EFO_0000253	0	0.00803904833199385	0.391			0.04297	14351	0.0215699113301644	0	0	0	0
RAB35	EFO_0000253	0	0.00803904833199385	0.369			0.03688	11000	0.023910522034121	0	0	0	0
RAD23B	EFO_0000253	0	0.00803904833199385	0.715			0.01736	7983	0.040644876409635	0	0	0	0
RAI1	EFO_0000253	0	0.00803904833199385	0.492			0.03009	13423	0.0275024912713207	0	0	0	0
RAP1B	EFO_0000253	0	0.00803904833199385	0.553			0.02937	10748	0.0279698218748074	0	0	0	0
RBM27	EFO_0000253	0	0.00803904833199385	0.405			0.002613	5076	0.160967531584237	0	0	0	0
RCN2	EFO_0000253	0	0.00803904833199385	0.978			0.00959	12302	0.0627043525444617	0	0	0	0
REPS1	EFO_0000253	0	0.00803904833199385	0.635			0.01774	6107	0.0400141378254674	0	0	0	0
RHOG	EFO_0000253	0	0.00803904833199385	0.859			0.01906	9057	0.0379975638281261	0	0	0	0
RNASE2	EFO_0000253	0	0.00803904833199385	0.756			0.02105	11420	0.0353861657544713	0	0	0	0
RNASEH2B	EFO_0000253	0	0.00803904833199385	0.799			0.00313	11259	0.141759230928643	0	0	0	0
RNF14	EFO_0000253	0	0.00803904833199385	0.847			0.00208	5066	0.188382108012688	0	0	0	0
RNF216	EFO_0000253	0	0.00803904833199385	0.579			0.01609	6282	0.0429431383306913	0	0	0	0
ROCK1	EFO_0000253	0	0.00803904833199385	0.558			0.0377	14243	0.0235559187927275	0	0	0	0
RPS27A	EFO_0000253	0	0.00803904833199385	0.04121	2042	0.0221822822358321	0.03504	2037	0.0247601988639539	0	0	0	0
RTN4R	EFO_0000253	0	0.00803904833199385	0.0248	16364	0.0314939525131714	0.0387	16412	0.0231417859849232	0	0	0	0
S1PR3	EFO_0000253	0	0.00803904833199385	0.239		0.00864014138169257	0.02145	7878	0.0349135243584634	0	0	0	0
SCRN3	EFO_0000253	0	0.00803904833199385	0.836			0.02552	2524	0.0308642363366653	0	0	0	0
SESN1	EFO_0000253	0	0.00803904833199385	0.412			0.03367	5980	0.0254466909483614	0	0	0	0
SHB	EFO_0000253	0	0.00803904833199385	0.8			0.00226	7806	0.17799030661077	0	0	0	0
SLC16A6	EFO_0000253	0	0.00803904833199385	0.246		0.00856770060508409	0.04818	13995	0.0199954639077978	0	0	0	0
SLC19A1	EFO_0000253	0	0.00803904833199385	0.454			0.03249	16361	0.0260794094852245	0	0	0	0
SLC19A3	EFO_0000253	0	0.00803904833199385	0.59			0.03731	2766	0.0237228262442341	0	0	0	0
SLC1A1	EFO_0000253	0	0.00803904833199385	0.407			0.04419	7651	0.0211712820224328	0	0	0	0
SLC7A13	EFO_0000253	0	0.00803904833199385	0.286		0.00825896373477156	0.04399	7382	0.0212352653816113	0	0	0	0
SOHLH2	EFO_0000253	0	0.00803904833199385	0.456			0.01897	11188	0.0381271263010324	0	0	0	0
SPARCL1	EFO_0000253	0	0.00803904833199385	0.572			0.03844	4212	0.0232475976750691	0	0	0	0
SPTB	EFO_0000253	0	0.00803904833199385	0.881			0.02084	11659	0.0356407543856204	0	0	0	0
STARD3NL	EFO_0000253	0	0.00803904833199385	0.935			0.04453	6421	0.0210636995154184	0	0	0	0
STXBP6	EFO_0000253	0	0.00803904833199385	0.52			0.01586	11507	0.0433940742543138	0	0	0	0
SURF2	EFO_0000253	0	0.00803904833199385	0.185		0.00946014737051895	0.03146	8211	0.0266663287847524	0	0	0	0
SUSD1	EFO_0000253	0	0.00803904833199385	0.82			0.04538	8011	0.0208011086938359	0	0	0	0
SYCP3	EFO_0000253	0	0.00803904833199385	0.346		0.0080534659897648	0.04242	10866	0.0217563615874838	0	0	0	0
TAF1L	EFO_0000253	0	0.00803904833199385	0.757			0.049	7733	0.019775303918684	0	0	0	0
TAL2	EFO_0000253	0	0.00803904833199385	0.554			0.03706	7982	0.0238314758883519	0	0	0	0
TBX1	EFO_0000253	0	0.00803904833199385	0.99			0.03211	16402	0.0262920162663327	0	0	0	0
TFAP2C	EFO_0000253	0	0.00803904833199385	0.806			0.03166	16091	0.0265496903049355	0	0	0	0
TFF1	EFO_0000253	0	0.00803904833199385	0.524			0.04744	16307	0.0202000343140823	0	0	0	0
THNSL2	EFO_0000253	0	0.00803904833199385	0.403			0.02382	2212	0.0324054057870844	0	0	0	0
THUMPD3	EFO_0000253	0	0.00803904833199385	0.606			0.00356	2902	0.129328760738605	0	0	0	0
TLR10	EFO_0000253	0	0.00803904833199385	0.352		0.00804659363585422	0.04804	4003	0.0200337299374747	0	0	0	0
TMCC1	EFO_0000253	0	0.00803904833199385	0.138		0.010790696822504	0.03891	3547	0.0230572507795131	0	0	0	0
TMEM192	EFO_0000253	0	0.00803904833199385	0.367		0.00803907113643058	0.03219	4456	0.0262468834217953	0	0	0	0
TMEM196	EFO_0000253	0	0.00803904833199385	0.128		0.0112033416720195	0.03998	6331	0.0226389420125265	0	0	0	0
TMEM51	EFO_0000253	0	0.00803904833199385	0.32		0.00811035153167653	0.03908	141	0.0229894157391836	0	0	0	0
TNFAIP1	EFO_0000253	0	0.00803904833199385	0.671			0.04782	13473	0.0200942707776517	0	0	0	0
TNFRSF9	EFO_0000253	0	0.00803904833199385	0.03205	83	0.0263259982919921	0.04709	78	0.0202988099555463	0	0	0	0
TNFSF11	EFO_0000253	0	0.00803904833199385	0.755			0.00993	11217	0.0611180752696044	0	0	0	0
TRIM10	EFO_0000253	0	0.00803904833199385	0.06738		0.0161388249356157	0.04825	5517	0.0199764060881776	0	0	0	0
TRIM38	EFO_0000253	0	0.00803904833199385	0.16		0.0100655783745155	0.02469	5413	0.0315930402530046	0	0	0	0
TRPC1	EFO_0000253	0	0.00803904833199385	0.509			0.01329	3616	0.0493570890663726	0	0	0	0
TRPM1	EFO_0000253	0	0.00803904833199385	0.02049	11900	0.036075365569632	0.03216	11948	0.0262637846718226	0	0	0	0
TRPV4	EFO_0000253	0	0.00803904833199385	0.722			0.01109	10925	0.05635286539843	0	0	0	0
TSLP	EFO_0000253	0	0.00803904833199385	0.803			0.04233	4847	0.021787286656674	0	0	0	0
TTLL5	EFO_0000253	0	0.00803904833199385	0.184		0.00948090839251159	0.03845	11752	0.0232435042266745	0	0	0	0
UBAC2	EFO_0000253	0	0.00803904833199385	0.437			0.04324	11336	0.0214799453367362	0	0	0	0
USP20	EFO_0000253	0	0.00803904833199385	0.921			0.03697	8175	0.0238709125854227	0	0	0	0
USP37	EFO_0000253	0	0.00803904833199385	0.821			0.01888	2716	0.0382577849741376	0	0	0	0
WDR34	EFO_0000253	0	0.00803904833199385	0.837			0.00226	8149	0.17799030661077	0	0	0	0
WDR89	EFO_0000253	0	0.00803904833199385	0.66			0.03131	11649	0.0267546826437864	0	0	0	0
XBP1	EFO_0000253	0	0.00803904833199385	0.781			0.02476	16491	0.031529893559398	0	0	0	0
ZIC2	EFO_0000253	0	0.00803904833199385	0.573			0.00349	11339	0.131180166941258	0	0	0	0
ZNF426	EFO_0000253	0	0.00803904833199385	0.06047		0.0172696292478111	0.00612	14669	0.087250858651448	0	0	0	0
ZNF503	EFO_0000253	0	0.00803904833199385	0.03487	8601	0.0248427527121764	0.02222	8614	0.0340464615588639	0	0	0	0
ZNF695	EFO_0000253	0	0.00803904833199385	0.764			0.01042	1741	0.0589919660509107	0	0	0	0
ZNF746	EFO_0000253	1	0.00803904833199385	0.812			0.04002	6987	0.0226236945676229	0	0	0	1
