gene	disease	status	prediction	P.phs000101.pha002846	block.phs000101.pha002846	PPA.phs000101.pha002846	P.phs000127.pha002851	block.phs000127.pha002851	PPA.phs000127.pha002851	NPC_GiGaD	NPC_GsTpD	NPC_GaDaGaD	ld.with.positive
NCOA5	EFO_0000253	0	0.0246256421346111	0.02692	15986	0.0871287792899576	0.08536		0.0423435302239338	0	0	0.00869565217391	0
TNFRSF1A	EFO_0000253	0	0.0190535322373581	0.02268	10158	0.0768188498866562	0.327		0.0191742164700542	0	0	0.0066889632107	0
MAPK1	EFO_0000253	0	0.0175304878601643	0.04021	16387	0.0483425814717847	0.758			0	0.00208550573514	0.00434782608696	0
CLEC16A	EFO_0000253	0	0.0136860318987624	0.02877	12565	0.0476214223724883	0.999			0	0	0.00411522633745	0
BARD1	EFO_0000253	0	0.0124030362608382	0.00071	2688	0.472995519303112	0.651			0	0.00413223140496	0	0
STAT3	EFO_0000253	0	0.011575025808953	0.04975	13675	0.0280482853366917	0.438			0	0	0.00281690140845	0
CD1C	EFO_0000253	0	0.0100150180249135	0.001059	1211	0.339060164545641	0.728			0	0.00209205020921	0	0
NDE1	EFO_0000253	0	0.0100150180249135	0.03435	12591	0.0311376260641036	0.69			0	0.00209205020921	0	0
ANKRD2	EFO_0000253	0	0.0100104287169013	0.03862	8724	0.0287495462194616	0.408			0	0.00208768267223	0	0
ASB2	EFO_0000253	0	0.0100104287169013	0.04859	11774	0.0246884478079864	0.993			0	0.00208768267223	0	0
CHRD	EFO_0000253	0	0.0100104287169013	0.01418	3746	0.0580604805510215	0.02418	3764	0.0396898677165672	0	0.00208768267223	0	0
IKZF5	EFO_0000253	0	0.0100104287169013	0.03598	8895	0.0301580256060983	0.832			0	0.00208768267223	0	0
MYOT	EFO_0000253	0	0.0100104287169013	0.04036	4922	0.0279118353747967	0.223		0.0109941436480221	0	0.00208768267223	0	0
SGCA	EFO_0000253	0	0.0100104287169013	0.03051	13820	0.0337584791824552	0.72			0	0.00208768267223	0	0
TOMM7	EFO_0000253	0	0.0100104287169013	0.00756	6321	0.0915105959626091	0.8			0	0.00208768267223	0	0
UQCRB	EFO_0000253	0	0.0100104287169013	0.02362	7385	0.0403489735732035	0.215		0.011130662893296	0	0.00208768267223	0	0
DDX18	EFO_0000253	0	0.0100081420186388	0.0198	2339	0.0457015241582642	0.583			0	0.00208550573514	0	0
DOCK1	EFO_0000253	0	0.0100081420186388	0.00239	8919	0.20494756434424	0.733			0	0.00208550573514	0	0
EEF2	EFO_0000253	0	0.0100081420186388	0.03974	14505	0.0281964725146831	0.06426		0.0206495792274168	0	0.00208550573514	0	0
INTS8	EFO_0000253	0	0.0100081420186388	0.02919	7380	0.0347979503271555	0.507			0	0.00208550573514	0	0
MPND	EFO_0000253	0	0.0100081420186388	0.02638	14515	0.0373341192821483	0.8			0	0.00208550573514	0	0
OAS3	EFO_0000253	0	0.0100081420186388	0.02773	10898	0.0360586779024123	0.4			0	0.00208550573514	0	0
RPS10	EFO_0000253	0	0.0100081420186388	0.03349	5627	0.0316597512835708	0.746			0	0.00208550573514	0	0
SEPT9	EFO_0000253	0	0.0100081420186388	0.01736	14060	0.0501963364891381	0.53			0	0.00208550573514	0	0
TSPAN17	EFO_0000253	0	0.0100081420186388	0.03461	5182	0.0309572737848005	0.878			0	0.00208550573514	0	0
USP40	EFO_0000253	0	0.0100081420186388	0.01483	2827	0.0562041507612724	0.482			0	0.00208550573514	0	0
ZDHHC16	EFO_0000253	0	0.0100081420186388	0.02684	8723	0.0368867349123528	0.997			0	0.00208550573514	0	0
ZNF317	EFO_0000253	0	0.0100081420186388	0.02108	14620	0.0437140738473505	0.545			0	0.00208550573514	0	0
CALN1	EFO_0000253	0	0.0100035844421468	0.00381	6503	0.149052803267345	0.378			0	0.00208116545265	0	0
TH	EFO_0000253	0	0.0100035844421468	0.003176	9022	0.169075186027135	0.222		0.0110029861499649	0	0.00208116545265	0	0
ABCA9	EFO_0000253	0	0.0100013135276044	0.03207	13967	0.0325912831786788	0.09108		0.0167448494755691	0	0.002079002079	0	0
GREM1	EFO_0000253	0	0.0100013135276044	0.02754	11905	0.0362073940899855	0.626			0	0.002079002079	0	0
ASB16	EFO_0000253	0	0.00999904783812285	0.03606	13722	0.0300791021204562	0.392			0	0.00207684319834	0	0
CAMKV	EFO_0000253	0	0.00999904783812285	0.03038	3182	0.0338204479504968	0.358		0.0100026511132371	0	0.00207684319834	0	0
CCDC63	EFO_0000253	0	0.00999904783812285	0.01206	10882	0.0651916216418889	0.762			0	0.00207684319834	0	0
ELAVL3	EFO_0000253	0	0.00999904783812285	0.04725	14680	0.0251160911806729	0.516			0	0.00207684319834	0	0
ERMN	EFO_0000253	0	0.00999904783812285	0.01089	2448	0.0701884705713997	0.716			0	0.00207684319834	0	0
EVI2A	EFO_0000253	0	0.00999904783812285	0.00999	13476	0.0747135287705844	0.746			0	0.00207684319834	0	0
FAM19A5	EFO_0000253	0	0.00999904783812285	0.02669	16671	0.0369983848331081	0.869			0	0.00207684319834	0	0
GPR83	EFO_0000253	0	0.00999904783812285	0.03781	9846	0.0291304609239015	0.05349		0.0231720425382469	0	0.00207684319834	0	0
GRM2	EFO_0000253	0	0.00999904783812285	0.02104	3207	0.0437345222829238	0.222		0.0109980013543699	0	0.00207684319834	0	0
GRM3	EFO_0000253	0	0.00999904783812285	0.01066	6565	0.0712818882398845	0.542			0	0.00207684319834	0	0
KIAA1045	EFO_0000253	0	0.00999904783812285	0.01295	7739	0.0619216174329304	0.29		0.0102442932614736	0	0.00207684319834	0	0
PHYHIP	EFO_0000253	0	0.00999904783812285	0.00777	7101	0.0896225969493823	0.152		0.0128095502645835	0	0.00207684319834	0	0
SCN2B	EFO_0000253	0	0.00999904783812285	0.01608	9970	0.0529824063500845	0.08787		0.0170905596840937	0	0.00207684319834	0	0
TMPRSS5	EFO_0000253	0	0.00999904783812285	0.03844	9938	0.0288079067005441	0.222		0.0109980013543699	0	0.00207684319834	0	0
DSC3	EFO_0000253	0	0.00999678735574066	0.04409	14232	0.0262818596364269	0.359		0.00999969456439842	0	0.00207468879668	0	0
SLC2A3	EFO_0000253	0	0.00998110828702956	0.0239	10202	0.0399023366803663	0.31		0.0101120773325254	0	0.00205973223481	0	0
VAMP5	EFO_0000253	0	0.00998110828702956	0.04471	2185	0.026000145019034	0.443			0	0.00205973223481	0	0
XIRP1	EFO_0000253	0	0.0099766744119353	0.00831	3055	0.0851944560560021	0.08638		0.0172226198341822	0	0.00205549845838	0	0
ABCC4	EFO_0000253	0	0.00803904833199385	0.03	11246	0.0275598095584142	0.471			0	0	0	0
ABCG2	EFO_0000253	0	0.00803904833199385	0.02848	4200	0.0285766088969313	0.189		0.00937959090753767	0	0	0	0
ABO	EFO_0000253	0	0.00803904833199385	0.00287	8187	0.150720673124208	0.391			0	0	0	0
ABTB1	EFO_0000253	0	0.00803904833199385	0.01412	3497	0.0472222079506295	0.123		0.0114344057009247	0	0	0	0
ACYP2	EFO_0000253	0	0.00803904833199385	0.039	2037	0.0230212719113086	0.863			0	0	0	0
ADAD1	EFO_0000253	0	0.00803904833199385	0.01616	4311	0.0428081537650201	0.378			0	0	0	0
ADAM15	EFO_0000253	0	0.00803904833199385	0.02319	1136	0.0330274780982375	0.158		0.0101229169770059	0	0	0	0
ADAMTS14	EFO_0000253	0	0.00803904833199385	0.04109	8554	0.022225751058817	0.961			0	0	0	0
ADH7	EFO_0000253	0	0.00803904833199385	0.00378	4229	0.123881308198097	0.797			0	0	0	0
ADPRHL1	EFO_0000253	0	0.00803904833199385	0.03291	11309	0.0258495464090038	0.523			0	0	0	0
ALK	EFO_0000253	0	0.00803904833199385	0.0415	1943	0.0220781667858009	0.207		0.00906152531321281	0	0	0	0
AMACR	EFO_0000253	0	0.00803904833199385	0.04577	4566	0.0206835717147955	0.652			0	0	0	0
AMD1	EFO_0000253	0	0.00803904833199385	0.02425	5970	0.0319973962282956	0.652			0	0	0	0
AMIGO3	EFO_0000253	0	0.00803904833199385	0.04378	3181	0.0213030144368946	0.368			0	0	0	0
ANAPC7	EFO_0000253	0	0.00803904833199385	0.02436	10875	0.0318950864836661	0.872			0	0	0	0
ANGEL2	EFO_0000253	0	0.00803904833199385	0.00543	1592	0.0952414846294682	0.986			0	0	0	0
ANKAR	EFO_0000253	0	0.00803904833199385	0.00444	2583	0.110285034119663	0.09877		0.0128712457694388	0	0	0	0
ANKRD27	EFO_0000253	0	0.00803904833199385	0.01005	14938	0.0605806522294268	0.356		0.00804325369216559	0	0	0	0
ANP32E	EFO_0000253	0	0.00803904833199385	0.0309	995	0.0270000968019483	0.643			0	0	0	0
ANXA3	EFO_0000253	0	0.00803904833199385	0.04803	4158	0.0200364709308529	0.472			0	0	0	0
ANXA5	EFO_0000253	0	0.00803904833199385	0.00642	4306	0.0842392028968695	0.563			0	0	0	0
AP2B1	EFO_0000253	0	0.00803904833199385	0.04064	13513	0.02239081395149	0.302		0.00817766449600491	0	0	0	0
APLNR	EFO_0000253	0	0.00803904833199385	0.04778	9405	0.020105332261599	0.177		0.00963361393872122	0	0	0	0
APOD	EFO_0000253	0	0.00803904833199385	0.00347	3804	0.131720409864025	0.68			0	0	0	0
AQP5	EFO_0000253	0	0.00803904833199385	0.04339	10459	0.0214304000842031	0.665			0	0	0	0
ARID4A	EFO_0000253	0	0.00803904833199385	0.015	11570	0.0451880275466841	0.223		0.00883076570595791	0	0	0	0
ASPA	EFO_0000253	0	0.00803904833199385	0.02153	13161	0.0348208729972649	0.475			0	0	0	0
ATAD3A	EFO_0000253	0	0.00803904833199385	0.02554	24	0.0308471968943135	0.268		0.00837756428736431	0	0	0	0
ATP1B1	EFO_0000253	0	0.00803904833199385	0.0306	1333	0.0271833930425324	0.963			0	0	0	0
ATP2C2	EFO_0000253	0	0.00803904833199385	0.01113	13054	0.056204139835028	0.937			0	0	0	0
ATP6V0D2	EFO_0000253	0	0.00803904833199385	0.01081	7351	0.0574208990942243	0.275		0.00832779655038579	0	0	0	0
ATP6V1E2	EFO_0000253	0	0.00803904833199385	0.01807	2012	0.0394855183093754	0.776			0	0	0	0
ATPBD4	EFO_0000253	0	0.00803904833199385	0.01509	11923	0.0449918327967601	0.376			0	0	0	0
ATXN3	EFO_0000253	0	0.00803904833199385	0.02177	11759	0.0345465582797323	0.58			0	0	0	0
ATXN7L1	EFO_0000253	0	0.00803904833199385	0.002917	6722	0.149005226441746	0.165		0.00992862698159916	0	0	0	0
BCL2L10	EFO_0000253	0	0.00803904833199385	0.03409	12061	0.0252309781124139	0.63			0	0	0	0
BCL7A	EFO_0000253	0	0.00803904833199385	0.02916	10970	0.0281100093463823	0.215		0.00894066415931353	0	0	0	0
BICD2	EFO_0000253	0	0.00803904833199385	0.00707	7873	0.078475092419674	0.05567		0.0182041812671015	0	0	0	0
BMP8B	EFO_0000253	0	0.00803904833199385	0.03463	460	0.0249605359708076	0.62			0	0	0	0
BOLL	EFO_0000253	0	0.00803904833199385	0.02538	2611	0.0309841831079631	0.774			0	0	0	0
BSG	EFO_0000253	0	0.00803904833199385	0.02653	14396	0.030032481703226	0.255		0.00848336972012967	0	0	0	0
BTG2	EFO_0000253	0	0.00803904833199385	0.03588	1504	0.0243626037173098	0.08176		0.0143538075660725	0	0	0	0
BTRC	EFO_0000253	0	0.00803904833199385	0.04469	8767	0.0210135831009723	0.896			0	0	0	0
BUB1	EFO_0000253	0	0.00803904833199385	0.03959	2310	0.0227890551997098	0.722			0	0	0	0
C17orf70	EFO_0000253	0	0.00803904833199385	0.03323	14105	0.0256779106710387	0.902			0	0	0	0
C1QTNF7	EFO_0000253	0	0.00803904833199385	0.02639	3935	0.0301443780908742	0.58			0	0	0	0
C1R	EFO_0000253	0	0.00803904833199385	0.03984	10192	0.0226925247820928	0.277		0.008314449073514	0	0	0	0
C1orf86	EFO_0000253	0	0.00803904833199385	0.04345	36	0.0214106682617674	0.544			0	0	0	0
C20orf27	EFO_0000253	0	0.00803904833199385	0.03808	15712	0.0233962472559055	0.15		0.0103681952552558	0	0	0	0
C5	EFO_0000253	0	0.00803904833199385	0.01056	8032	0.0584163076626439	0.669			0	0	0	0
CABYR	EFO_0000253	0	0.00803904833199385	0.01374	14222	0.048171386322019	0.362		0.00804007235957959	0	0	0	0
CAMKK1	EFO_0000253	0	0.00803904833199385	0.03511	13169	0.0247264145656678	0.455			0	0	0	0
CARD10	EFO_0000253	0	0.00803904833199385	0.02235	16535	0.0339053308849077	0.03507	16591	0.0247457050673762	0	0	0	0
CAST	EFO_0000253	0	0.00803904833199385	0.00233	4786	0.174292285605198	0.28		0.00829513200229406	0	0	0	0
CBLL1	EFO_0000253	0	0.00803904833199385	0.02177	6734	0.0345465582797323	0.452			0	0	0	0
CBX6	EFO_0000253	0	0.00803904833199385	0.02068	16568	0.0358378104353455	0.457			0	0	0	0
CCDC88A	EFO_0000253	0	0.00803904833199385	0.0298	2042	0.027688291761983	0.273		0.0083415264107617	0	0	0	0
CCL18	EFO_0000253	0	0.00803904833199385	0.02178	13526	0.0345352453146125	0.695			0	0	0	0
CCL24	EFO_0000253	0	0.00803904833199385	0.02651	6536	0.0300484022878748	0.473			0	0	0	0
CCNYL1	EFO_0000253	0	0.00803904833199385	0.00919	2666	0.064701014252092	0.349		0.00804974808901351	0	0	0	0
CD36	EFO_0000253	0	0.00803904833199385	0.03376	6559	0.0254000618638601	0.726			0	0	0	0
CDC42	EFO_0000253	0	0.00803904833199385	0.0031	233	0.14273070697522	0.522			0	0	0	0
CDC5L	EFO_0000253	0	0.00803904833199385	0.01659	5760	0.0420011344645645	0.493			0	0	0	0
CDK6	EFO_0000253	0	0.00803904833199385	0.0053	6591	0.0969436282269565	0.633			0	0	0	0
CENPC1	EFO_0000253	0	0.00803904833199385	0.01815	4067	0.039359938590775	0.04754	4085	0.0201720538689682	0	0	0	0
CENPF	EFO_0000253	0	0.00803904833199385	0.03188	1596	0.0264229024927621	0.01699	1585	0.0412829887832848	0	0	0	0
CENPM	EFO_0000253	0	0.00803904833199385	0.03574	16616	0.0244277046013754	0.608			0	0	0	0
CHST6	EFO_0000253	0	0.00803904833199385	0.02267	13011	0.0335640805544316	0.134		0.0109484319619002	0	0	0	0
CLIP1	EFO_0000253	0	0.00803904833199385	0.02822	10974	0.0287603190198675	0.284		0.00827066079739816	0	0	0	0
CMAS	EFO_0000253	0	0.00803904833199385	0.04566	10325	0.0207165398553609	0.481			0	0	0	0
COBLL1	EFO_0000253	0	0.00803904833199385	0.00109	2473	0.286205256541681	0.564			0	0	0	0
COL1A2	EFO_0000253	0	0.00803904833199385	0.02962	6600	0.0278052518530552	0.288		0.00824761880802515	0	0	0	0
COL9A1	EFO_0000253	0	0.00803904833199385	0.012	5835	0.0531859537246499	0.377			0	0	0	0
COLEC12	EFO_0000253	0	0.00803904833199385	0.04598	14148	0.0206210276595325	0.711			0	0	0	0
COQ2	EFO_0000253	0	0.00803904833199385	0.00886	4177	0.0664659396766554	0.08856		0.0136975232456831	0	0	0	0
CRIM1	EFO_0000253	0	0.00803904833199385	0.01838	1962	0.0390043056004338	0.614			0	0	0	0
CRIPT	EFO_0000253	0	0.00803904833199385	0.04586	2013	0.0206567038745179	0.792			0	0	0	0
CRYZ	EFO_0000253	0	0.00803904833199385	0.02156	693	0.0347862865186155	0.859			0	0	0	0
CSNK1G3	EFO_0000253	0	0.00803904833199385	0.00825	4846	0.0700491449083399	0.874			0	0	0	0
CTCFL	EFO_0000253	0	0.00803904833199385	0.00372	16033	0.125314077676844	0.79			0	0	0	0
CTTNBP2NL	EFO_0000253	0	0.00803904833199385	0.0207	884	0.0358130303064913	0.925			0	0	0	0
CYP2J2	EFO_0000253	0	0.00803904833199385	0.02979	639	0.0276947563712345	0.699			0	0	0	0
CYP4F3	EFO_0000253	0	0.00803904833199385	0.01218	14789	0.0526089832907124	0.551			0	0	0	0
CYS1	EFO_0000253	0	0.00803904833199385	0.03588	1828	0.0243626037173098	0.155		0.0102118239409061	0	0	0	0
DAAM1	EFO_0000253	0	0.00803904833199385	0.04306	11574	0.0215398097931391	0.08893		0.0136644925358007	0	0	0	0
DAG1	EFO_0000253	0	0.00803904833199385	0.03415	3177	0.0252005504773372	0.574			0	0	0	0
DAZAP2	EFO_0000253	0	0.00803904833199385	0.01285	10476	0.0505869156999576	0.629			0	0	0	0
DCTN1	EFO_0000253	0	0.00803904833199385	0.03279	2147	0.025914683177282	0.643			0	0	0	0
DDX46	EFO_0000253	0	0.00803904833199385	0.0414	4902	0.0221139204163927	0.174		0.00970323143135078	0	0	0	0
DDX60	EFO_0000253	0	0.00803904833199385	0.04535	4432	0.0208102254672641	0.44			0	0	0	0
DERL1	EFO_0000253	0	0.00803904833199385	0.01057	7464	0.0583757003260699	0.538			0	0	0	0
DFFB	EFO_0000253	0	0.00803904833199385	0.02653	57	0.030032481703226	0.129		0.0111592342684638	0	0	0	0
DHX35	EFO_0000253	0	0.00803904833199385	0.0049	15919	0.102656705012037	0.414			0	0	0	0
DIRAS2	EFO_0000253	0	0.00803904833199385	0.04227	7866	0.0218079692118642	0.416			0	0	0	0
DIS3	EFO_0000253	0	0.00803904833199385	0.00611	11219	0.0873555985048717	0.503			0	0	0	0
DNAJB3	EFO_0000253	0	0.00803904833199385	0.04758	2830	0.0201608914163148	0.442			0	0	0	0
DSCR3	EFO_0000253	0	0.00803904833199385	0.03619	16225	0.0242200612406707	0.54			0	0	0	0
DUSP18	EFO_0000253	0	0.00803904833199385	0.04046	16473	0.0224577631354385	0.697			0	0	0	0
DYNC2H1	EFO_0000253	0	0.00803904833199385	0.01371	9882	0.0482482957287384	0.712			0	0	0	0
E2F3	EFO_0000253	0	0.00803904833199385	0.03213	5338	0.0262807141855772	0.852			0	0	0	0
EBF3	EFO_0000253	0	0.00803904833199385	0.0339	8923	0.0253279689975534	0.416			0	0	0	0
EEF1A1	EFO_0000253	0	0.00803904833199385	0.02994	5848	0.0275981929735596	0.47			0	0	0	0
EID3	EFO_0000253	0	0.00803904833199385	0.03295	10830	0.0258279286312212	0.114		0.0118998231568278	0	0	0	0
ELF2	EFO_0000253	0	0.00803904833199385	0.0247	4335	0.031583999754234	0.148		0.0104337855745476	0	0	0	0
ELOVL5	EFO_0000253	0	0.00803904833199385	0.01075	5809	0.0576560970144389	0.852			0	0	0	0
ELTD1	EFO_0000253	0	0.00803904833199385	0.04416	713	0.0211808462364784	0.379			0	0	0	0
ENY2	EFO_0000253	0	0.00803904833199385	0.03106	7437	0.0269036354921782	0.496			0	0	0	0
EPC1	EFO_0000253	0	0.00803904833199385	0.04616	8420	0.020567827086494	0.423			0	0	0	0
EPM2A	EFO_0000253	0	0.00803904833199385	0.02482	6110	0.0314760207414891	0.398			0	0	0	0
ERGIC3	EFO_0000253	0	0.00803904833199385	0.02874	15882	0.0283958727653312	0.786			0	0	0	0
ETV4	EFO_0000253	0	0.00803904833199385	0.02681	13709	0.0298118222570414	0.149		0.0104007652484382	0	0	0	0
EXOSC10	EFO_0000253	0	0.00803904833199385	0.02166	111	0.034671614268669	0.04329	108	0.0214633958978081	0	0	0	0
FAM159A	EFO_0000253	0	0.00803904833199385	0.04673	597	0.0204017995704514	0.111		0.0120710804143042	0	0	0	0
FAM160A2	EFO_0000253	0	0.00803904833199385	0.0449	9108	0.0209482940035779	0.528			0	0	0	0
FBN2	EFO_0000253	0	0.00803904833199385	0.01475	4857	0.0457440966273091	0.273		0.0083415264107617	0	0	0	0
FBXL7	EFO_0000253	0	0.00803904833199385	0.02587	4545	0.0305694437526718	0.769			0	0	0	0
FBXW2	EFO_0000253	0	0.00803904833199385	0.02074	8031	0.0357635975745353	0.943			0	0	0	0
FCER1A	EFO_0000253	0	0.00803904833199385	0.02547	1229	0.0309069393937296	0.07983		0.0145588750953505	0	0	0	0
FGD3	EFO_0000253	0	0.00803904833199385	0.02409	7874	0.032147696548174	0.02473	7898	0.0315569173867521	0	0	0	0
FMO4	EFO_0000253	0	0.00803904833199385	0.02557	1349	0.0308216823339737	0.787			0	0	0	0
FOXC1	EFO_0000253	0	0.00803904833199385	0.04714	5257	0.0202846181288039	0.903			0	0	0	0
FREM2	EFO_0000253	0	0.00803904833199385	0.03229	11123	0.0261907491128389	0.445			0	0	0	0
FRS2	EFO_0000253	0	0.00803904833199385	0.03738	10703	0.0236926382596734	0.102		0.0126422800814565	0	0	0	0
GAS1	EFO_0000253	0	0.00803904833199385	0.0123	7851	0.0522325955135473	0.932			0	0	0	0
GAS6	EFO_0000253	0	0.00803904833199385	0.01866	11314	0.038581878543469	0.991			0	0	0	0
GCNT3	EFO_0000253	0	0.00803904833199385	0.01281	12096	0.0507024016492017	0.823			0	0	0	0
GHSR	EFO_0000253	0	0.00803904833199385	0.00838	3708	0.0692475766348507	0.372			0	0	0	0
GJC1	EFO_0000253	0	0.00803904833199385	0.01475	13735	0.0457440966273091	0.825			0	0	0	0
GNAT1	EFO_0000253	0	0.00803904833199385	0.02468	3183	0.0316020872854359	0.03055	3195	0.0272142554875233	0	0	0	0
GOLIM4	EFO_0000253	0	0.00803904833199385	0.01603	3687	0.0430596694821881	0.69			0	0	0	0
GOPC	EFO_0000253	0	0.00803904833199385	0.04026	6002	0.0225327822120488	0.366		0.00803915257865006	0	0	0	0
GYPA	EFO_0000253	0	0.00803904833199385	0.0143	4354	0.0467881654829708	0.43			0	0	0	0
HCN4	EFO_0000253	0	0.00803904833199385	0.03343	12191	0.0255721346320424	0.321		0.00810731077667384	0	0	0	0
HGFAC	EFO_0000253	0	0.00803904833199385	0.04385	3876	0.0212803664724598	0.964			0	0	0	0
HMGB2	EFO_0000253	0	0.00803904833199385	0.04617	4442	0.020564882469743	0.839			0	0	0	0
HMOX2	EFO_0000253	0	0.00803904833199385	0.04511	12533	0.0208835530312971	0.191		0.00934075725403949	0	0	0	0
HNF4G	EFO_0000253	0	0.00803904833199385	0.04737	7324	0.0202196840515547	0.973			0	0	0	0
HPGD	EFO_0000253	0	0.00803904833199385	0.0049	4446	0.102656705012037	0.203		0.00912640729196542	0	0	0	0
HRK	EFO_0000253	0	0.00803904833199385	0.03862	10917	0.0231742070824391	0.682			0	0	0	0
HSD17B14	EFO_0000253	0	0.00803904833199385	0.04796	15343	0.0200556867741269	0.945			0	0	0	0
HSF2BP	EFO_0000253	0	0.00803904833199385	0.03001	16267	0.0275534256727783	0.944			0	0	0	0
HVCN1	EFO_0000253	0	0.00803904833199385	0.01324	10881	0.0494932119608568	0.986			0	0	0	0
IARS	EFO_0000253	0	0.00803904833199385	0.04956	7871	0.0196287368570001	0.177		0.00963361393872122	0	0	0	0
IKBKE	EFO_0000253	0	0.00803904833199385	0.000211	1538	0.625392017427141	0.797			0	0	0	0
IL31RA	EFO_0000253	0	0.00803904833199385	0.04323	4643	0.0214832593612257	0.736			0	0	0	0
IMPA1	EFO_0000253	0	0.00803904833199385	0.01404	7340	0.0474182655147447	0.936			0	0	0	0
INTS4	EFO_0000253	0	0.00803904833199385	0.01444	9796	0.0464571891089347	0.05049		0.0193918313433875	0	0	0	0
IQCA1	EFO_0000253	0	0.00803904833199385	0.04642	2841	0.020491639064884	0.862			0	0	0	0
IQGAP1	EFO_0000253	0	0.00803904833199385	0.02886	12330	0.028313438581517	0.21		0.00901485078575763	0	0	0	0
IRF5	EFO_0000253	0	0.00803904833199385	0.00483	6812	0.103738300891826	0.405			0	0	0	0
ITGB1	EFO_0000253	0	0.00803904833199385	0.02245	8421	0.0337977597092692	0.381			0	0	0	0
KAT5	EFO_0000253	0	0.00803904833199385	0.0264	9621	0.030136350358103	0.417			0	0	0	0
KCTD5	EFO_0000253	0	0.00803904833199385	0.01615	12484	0.0428273738558172	0.134		0.0109484319619002	0	0	0	0
KIAA1377	EFO_0000253	0	0.00803904833199385	0.03408	9867	0.0252360587221227	0.834			0	0	0	0
KIR2DL1	EFO_0000253	0	0.00803904833199385	0.04909	15533	0.0197515448224921	0.736			0	0	0	0
KLRG1	EFO_0000253	0	0.00803904833199385	0.0434	10217	0.0214271080350713	0.546			0	0	0	0
KRT3	EFO_0000253	0	0.00803904833199385	0.02204	10507	0.0342443183983554	0.483			0	0	0	0
LEP	EFO_0000253	0	0.00803904833199385	0.01997	6800	0.0367460204315211	0.229		0.0087549534521095	0	0	0	0
LHX4	EFO_0000253	0	0.00803904833199385	0.01767	1394	0.0401285182156803	0.535			0	0	0	0
LIN28B	EFO_0000253	0	0.00803904833199385	0.01223	5932	0.0524513658264824	0.975			0	0	0	0
LPAL2	EFO_0000253	0	0.00803904833199385	0.02375	6182	0.0324730713708071	0.815			0	0	0	0
LSG1	EFO_0000253	0	0.00803904833199385	0.03541	3802	0.0245829826068508	0.598			0	0	0	0
MAEL	EFO_0000253	0	0.00803904833199385	0.03651	1319	0.024075201131197	0.908			0	0	0	0
MAPK7	EFO_0000253	0	0.00803904833199385	0.03242	13397	0.0261182383827891	0.05528		0.0182865634327121	0	0	0	0
MARCKSL1	EFO_0000253	0	0.00803904833199385	0.03934	374	0.0228866877351487	0.05501		0.0183442171962796	0	0	0	0
MEF2D	EFO_0000253	0	0.00803904833199385	0.02874	1182	0.0283958727653312	0.578			0	0	0	0
METTL2A	EFO_0000253	0	0.00803904833199385	0.03832	13911	0.0232968687296064	0.138		0.010790696822504	0	0	0	0
MKNK1	EFO_0000253	0	0.00803904833199385	0.04942	560	0.0196650972512425	0.333		0.00807625185000401	0	0	0	0
MMP11	EFO_0000253	0	0.00803904833199385	0.0242	16404	0.0320441747160478	0.218		0.00889822213539832	0	0	0	0
MND1	EFO_0000253	0	0.00803904833199385	0.02266	4383	0.0335746146390095	0.187		0.00941937861147564	0	0	0	0
MNT	EFO_0000253	0	0.00803904833199385	0.04054	13151	0.0224279419365833	0.532			0	0	0	0
MRPL37	EFO_0000253	0	0.00803904833199385	0.01035	617	0.0592849005957584	0.892			0	0	0	0
MRPS6	EFO_0000253	0	0.00803904833199385	0.04045	16209	0.0224614982432699	0.816			0	0	0	0
MTMR6	EFO_0000253	0	0.00803904833199385	0.00663	11069	0.0822708567756389	0.446			0	0	0	0
MYOC	EFO_0000253	0	0.00803904833199385	0.04974	1350	0.019582259605929	0.76			0	0	0	0
NDUFAF1	EFO_0000253	0	0.00803904833199385	0.0365	11959	0.0240796934938877	0.408			0	0	0	0
NDUFB5	EFO_0000253	0	0.00803904833199385	0.02165	3722	0.034683039064419	0.807			0	0	0	0
NFIC	EFO_0000253	0	0.00803904833199385	0.04744	14488	0.0202000343140823	0.01401	14529	0.0474922962751918	0	0	0	0
NPR3	EFO_0000253	0	0.00803904833199385	0.0439	4562	0.0212642291933928	0.482			0	0	0	0
NSMAF	EFO_0000253	0	0.00803904833199385	0.00702	7268	0.0788857497060903	0.00174	7291	0.212391984962614	0	0	0	0
NTS	EFO_0000253	0	0.00803904833199385	0.03537	10746	0.0246019807411364	0.682			0	0	0	0
OAZ3	EFO_0000253	0	0.00803904833199385	0.0481	1036	0.0200173055859814	0.298		0.00819600723009445	0	0	0	0
PABPN1	EFO_0000253	0	0.00803904833199385	0.03296	11396	0.0258225315326698	0.997			0	0	0	0
PAPOLG	EFO_0000253	0	0.00803904833199385	0.04347	2050	0.0214041018899217	0.174		0.00970323143135078	0	0	0	0
PAPSS1	EFO_0000253	0	0.00803904833199385	0.0119	4259	0.0535131128969609	0.948			0	0	0	0
PARD6G	EFO_0000253	0	0.00803904833199385	0.02347	14387	0.0327473276461029	0.532			0	0	0	0
PDCD6IP	EFO_0000253	0	0.00803904833199385	0.03855	3030	0.0232026746987618	0.774			0	0	0	0
PDE9A	EFO_0000253	0	0.00803904833199385	0.00688	16260	0.0800628858394937	0.94			0	0	0	0
PDGFRA	EFO_0000253	0	0.00803904833199385	0.04877	4043	0.0198363813116469	0.05569		0.0181999847454884	0	0	0	0
PF4	EFO_0000253	0	0.00803904833199385	0.04286	4122	0.0216068566399651	0.391			0	0	0	0
PFKP	EFO_0000253	0	0.00803904833199385	0.03656	8293	0.0240527724070558	0.468			0	0	0	0
PHB2	EFO_0000253	0	0.00803904833199385	0.03372	10190	0.0254207583582839	0.831			0	0	0	0
PIK3CA	EFO_0000253	0	0.00803904833199385	0.04802	3717	0.0200392129548089	0.0347	3734	0.0249260316104066	0	0	0	0
PLAC4	EFO_0000253	0	0.00803904833199385	0.04707	16242	0.0203044943032555	0.942			0	0	0	0
PNLIPRP2	EFO_0000253	0	0.00803904833199385	0.02298	8854	0.0332415783417522	0.875			0	0	0	0
POMP	EFO_0000253	0	0.00803904833199385	0.00104	11089	0.294466451698618	0.794			0	0	0	0
POU3F3	EFO_0000253	0	0.00803904833199385	0.02385	2286	0.0323765146526001	0.733			0	0	0	0
PREX1	EFO_0000253	0	0.00803904833199385	0.03661	15997	0.0240303986783529	0.17		0.00980023162760503	0	0	0	0
PRSS1	EFO_0000253	0	0.00803904833199385	0.00832	6897	0.0696148291591474	0.803			0	0	0	0
PSPC1	EFO_0000253	0	0.00803904833199385	0.01673	11041	0.0417463241820283	0.563			0	0	0	0
PTBP2	EFO_0000253	0	0.00803904833199385	0.04981	787	0.0195642671064305	0.317		0.00811990300060759	0	0	0	0
PTDSS1	EFO_0000253	0	0.00803904833199385	0.03099	7386	0.0269457276136852	0.08451		0.0140766089235111	0	0	0	0
PTGFR	EFO_0000253	0	0.00803904833199385	0.04352	711	0.0213877097430834	0.11176		0.0120268628153006	0	0	0	0
QSER1	EFO_0000253	0	0.00803904833199385	0.02675	9262	0.0298587590961019	0.786			0	0	0	0
RAB20	EFO_0000253	0	0.00803904833199385	0.04455	11290	0.021057417224765	0.306		0.00816058696764785	0	0	0	0
RAB21	EFO_0000253	0	0.00803904833199385	0.00847	10714	0.0687051800047131	0.423			0	0	0	0
RAB40B	EFO_0000253	0	0.00803904833199385	0.0404	14140	0.0224801987221224	0.977			0	0	0	0
RAC2	EFO_0000253	0	0.00803904833199385	0.02747	16534	0.0293076250569171	0.08094		0.0144398309174494	0	0	0	0
RAD18	EFO_0000253	0	0.00803904833199385	0.01792	2909	0.0397236590401014	0.939			0	0	0	0
RANBP3L	EFO_0000253	0	0.00803904833199385	0.01151	4581	0.0548366008679175	0.301		0.0081821303242241	0	0	0	0
RASGRF1	EFO_0000253	0	0.00803904833199385	0.02187	12259	0.0344338431367655	0.84			0	0	0	0
RBKS	EFO_0000253	0	0.00803904833199385	0.00588	1933	0.0898483704811687	0.41			0	0	0	0
RCN1	EFO_0000253	0	0.00803904833199385	0.02431	9259	0.0319414885701594	0.72			0	0	0	0
RDH11	EFO_0000253	0	0.00803904833199385	0.04453	11623	0.0210636995154184	0.982			0	0	0	0
RETSAT	EFO_0000253	0	0.00803904833199385	0.01578	2182	0.0435536454544446	0.416			0	0	0	0
RNF114	EFO_0000253	0	0.00803904833199385	0.01418	16005	0.0470764466508478	0.166		0.0099022855551446	0	0	0	0
RPL14	EFO_0000253	0	0.00803904833199385	0.03947	3063	0.0228357800785392	0.747			0	0	0	0
RPL7A	EFO_0000253	0	0.00803904833199385	0.04998	8189	0.0195207606941717	0.119		0.0116328566510276	0	0	0	0
RPS3	EFO_0000253	0	0.00803904833199385	0.04913	9777	0.0197410104653659	0.491			0	0	0	0
RRAS2	EFO_0000253	0	0.00803904833199385	0.0436	9185	0.0213615527516893	0.906			0	0	0	0
RTN4R	EFO_0000253	0	0.00803904833199385	0.0248	16364	0.0314939525131714	0.0387	16412	0.0231417859849232	0	0	0	0
RXFP2	EFO_0000253	0	0.00803904833199385	0.00668	11099	0.0818179051222473	0.921			0	0	0	0
RXRA	EFO_0000253	0	0.00803904833199385	0.0177	8205	0.0400793998145364	0.577			0	0	0	0
SAP130	EFO_0000253	0	0.00803904833199385	0.02368	2375	0.0325410934094535	0.177		0.00963361393872122	0	0	0	0
SCN8A	EFO_0000253	0	0.00803904833199385	0.01361	10480	0.0485068183725187	0.236		0.00867313838181296	0	0	0	0
SEC23B	EFO_0000253	0	0.00803904833199385	0.01127	15767	0.0556909000330231	0.633			0	0	0	0
SEC24A	EFO_0000253	0	0.00803904833199385	0.03814	4901	0.0233712973108495	0.07441		0.0151869772350415	0	0	0	0
SEPT2	EFO_0000253	0	0.00803904833199385	0.03666	2883	0.024008079736746	0.654			0	0	0	0
SERINC3	EFO_0000253	0	0.00803904833199385	0.04339	15940	0.0214304000842031	0.578			0	0	0	0
SFTPD	EFO_0000253	0	0.00803904833199385	0.04251	8614	0.0217255544146429	0.717			0	0	0	0
SHPRH	EFO_0000253	0	0.00803904833199385	0.04846	6111	0.0199195309937469	0.717			0	0	0	0
SHQ1	EFO_0000253	0	0.00803904833199385	0.00623	3307	0.0861177495953539	0.445			0	0	0	0
SHROOM3	EFO_0000253	0	0.00803904833199385	0.000305	4150	0.546999486519715	0.439			0	0	0	0
SLAMF8	EFO_0000253	0	0.00803904833199385	0.04512	1233	0.0208804836791568	0.271		0.00835564472370771	0	0	0	0
SLBP	EFO_0000253	0	0.00803904833199385	0.02219	3856	0.0340792392003028	0.307		0.00815651163104022	0	0	0	0
SLC13A1	EFO_0000253	0	0.00803904833199385	0.03657	6781	0.0240482932683626	0.705			0	0	0	0
SLC1A7	EFO_0000253	0	0.00803904833199385	0.00536	602	0.0961493110531251	0.463			0	0	0	0
SLC26A2	EFO_0000253	0	0.00803904833199385	0.04898	5052	0.0197805944271015	0.793			0	0	0	0
SLC27A2	EFO_0000253	0	0.00803904833199385	0.02232	12045	0.0339377695629771	0.437			0	0	0	0
SLC30A3	EFO_0000253	0	0.00803904833199385	0.04993	1913	0.0195335289052632	0.298		0.00819600723009445	0	0	0	0
SLC4A1	EFO_0000253	0	0.00803904833199385	0.04156	13726	0.0220567889276164	0.05071		0.0193369389055237	0	0	0	0
SLC7A5	EFO_0000253	0	0.00803904833199385	0.02581	13076	0.0306194727136972	0.386			0	0	0	0
SMARCA5	EFO_0000253	0	0.00803904833199385	0.02326	4352	0.032956877178579	0.917			0	0	0	0
SMOC2	EFO_0000253	0	0.00803904833199385	0.04456	6208	0.0210542779851661	0.354		0.00804480067212645	0	0	0	0
SNRPD3	EFO_0000253	0	0.00803904833199385	0.00132	16419	0.254098241779721	0.514			0	0	0	0
SPESP1	EFO_0000253	0	0.00803904833199385	0.03943	12166	0.0228514118360691	0.718			0	0	0	0
SPRED1	EFO_0000253	0	0.00803904833199385	0.03299	11926	0.0258063578276072	0.183		0.00950192532104096	0	0	0	0
SPTLC3	EFO_0000253	0	0.00803904833199385	0.01695	15747	0.041353451141958	0.457			0	0	0	0
SRP54	EFO_0000253	0	0.00803904833199385	0.04672	11469	0.020404680828183	0.2		0.00917714039750212	0	0	0	0
ST8SIA4	EFO_0000253	0	0.00803904833199385	0.03184	4792	0.0264458381110727	0.07229		0.0154561338327242	0	0	0	0
STX2	EFO_0000253	0	0.00803904833199385	0.01798	11019	0.0396279798239388	0.845			0	0	0	0
SUMO2	EFO_0000253	0	0.00803904833199385	0.0252	14011	0.0311401464391135	0.798			0	0	0	0
SWAP70	EFO_0000253	0	0.00803904833199385	0.03886	9164	0.0230773037378897	0.335		0.00807202657563177	0	0	0	0
T	EFO_0000253	0	0.00803904833199385	0.00804	6191	0.0713913544384411	0.259		0.00844887678211416	0	0	0	0
TAF12	EFO_0000253	0	0.00803904833199385	0.01678	338	0.0416562337107191	0.119		0.0116328566510276	0	0	0	0
TANK	EFO_0000253	0	0.00803904833199385	0.01796	2462	0.039659809888228	0.575			0	0	0	0
TBC1D23	EFO_0000253	0	0.00803904833199385	0.0141	3350	0.0472710382675594	0.549			0	0	0	0
TEKT3	EFO_0000253	0	0.00803904833199385	0.03089	13343	0.0270061553244034	0.311		0.00814097260136099	0	0	0	0
THBS1	EFO_0000253	0	0.00803904833199385	0.04445	11930	0.0210888796139434	0.677			0	0	0	0
TIPARP	EFO_0000253	0	0.00803904833199385	0.00818	3654	0.070489903805227	0.603			0	0	0	0
TMEM100	EFO_0000253	0	0.00803904833199385	0.03056	13851	0.0272080757690083	0.24		0.00862940770305765	0	0	0	0
TNFRSF9	EFO_0000253	0	0.00803904833199385	0.03205	83	0.0263259982919921	0.04709	78	0.0202988099555463	0	0	0	0
TNIP3	EFO_0000253	0	0.00803904833199385	0.02946	4305	0.0279102889189971	0.93			0	0	0	0
TRH	EFO_0000253	0	0.00803904833199385	0.04933	3523	0.0196885702304919	0.02941	3547	0.0279433225546114	0	0	0	0
TROVE2	EFO_0000253	0	0.00803904833199385	0.03299	1440	0.0258063578276072	0.786			0	0	0	0
TRPM1	EFO_0000253	0	0.00803904833199385	0.02049	11900	0.036075365569632	0.03216	11948	0.0262637846718226	0	0	0	0
UBR3	EFO_0000253	0	0.00803904833199385	0.03522	2499	0.0246735683819005	0.392			0	0	0	0
VCAN	EFO_0000253	0	0.00803904833199385	0.03603	4757	0.0242933567145515	0.37			0	0	0	0
VSNL1	EFO_0000253	0	0.00803904833199385	0.0292	1849	0.0280831679756113	0.758			0	0	0	0
WDFY3	EFO_0000253	0	0.00803904833199385	0.03882	4183	0.0230933795208306	0.173		0.00972702477649406	0	0	0	0
WFDC8	EFO_0000253	0	0.00803904833199385	0.03334	15964	0.025619593113636	0.143		0.0106059405406851	0	0	0	0
ZBTB2	EFO_0000253	0	0.00803904833199385	0.00932	6138	0.0640357171470868	0.589			0	0	0	0
ZFR	EFO_0000253	0	0.00803904833199385	0.00299	4561	0.146427657470534	0.954			0	0	0	0
ZNF10	EFO_0000253	0	0.00803904833199385	0.00729	11038	0.0767260848887644	0.05729		0.0178728881441195	0	0	0	0
ZNF195	EFO_0000253	0	0.00803904833199385	0.01868	9035	0.0385521355615912	0.928			0	0	0	0
ZNF33B	EFO_0000253	0	0.00803904833199385	0.01096	8433	0.0568427893579219	0.238		0.00865100682632343	0	0	0	0
ZNF397	EFO_0000253	0	0.00803904833199385	0.00764	14252	0.0741238116105192	0.717			0	0	0	0
ZNF503	EFO_0000253	0	0.00803904833199385	0.03487	8601	0.0248427527121764	0.02222	8614	0.0340464615588639	0	0	0	0
ZNF554	EFO_0000253	0	0.00803904833199385	0.03756	14476	0.0236154761394745	0.306		0.00816058696764785	0	0	0	0
ZNF595	EFO_0000253	0	0.00803904833199385	0.03105	3834	0.026909638251307	0.931			0	0	0	0
