name	metapath	auc_global	auc_grouped	auc_grouped_weighted	TcD	DsD	GfG	DcT	GeT
GaDsD_DsD=0.1	GaDsD	0.62156082949355218	0.61359581150443243	0.62234830552906428		0.1			
GaDsDsD_DsD=0.1	GaDsDsD	0.63529961886118014	0.62959056358337329	0.63620186767158116		0.1			
GaDsD_DsD=0.12	GaDsD	0.57067990588965811	0.56851293148325388	0.57108439093849228		0.12			
GaDsDsD_DsD=0.12	GaDsDsD	0.63578360266404033	0.63038840344639424	0.63696261103195018		0.12			
GaDsD_DsD=0.14	GaDsD	0.57156937260780194	0.56939391954143947	0.57178443253401579		0.14			
GaDsDsD_DsD=0.14	GaDsDsD	0.60653628883084842	0.60480332305234685	0.60732968303029344		0.14			
GaDsD_DsD=0.16	GaDsD	0.57162078249886339	0.56945331607268213	0.57182976838197741		0.16			
GaDsDsD_DsD=0.16	GaDsDsD	0.59183734414486699	0.59169974210546605	0.59249396814988153		0.16			
GaDsD_DsD=0.18	GaDsD	0.57162153852667319	0.56945331607268213	0.57182976838197741		0.18			
GaDsDsD_DsD=0.18	GaDsDsD	0.59212866686088172	0.59199018013040838	0.59270390611968815		0.18			
GaDsD_DsD=0.2	GaDsD	0.57161901843397411	0.56945331607268213	0.57182976838197741		0.2			
GaDsDsD_DsD=0.2	GaDsDsD	0.59212917087942152	0.59199018013040838	0.59270390611968815		0.2			
GaDsD_DsD=0.22	GaDsD	0.57173569872594188	0.56955763875262455	0.57193833108917602		0.22			
GaDsDsD_DsD=0.22	GaDsDsD	0.59212891887015162	0.59198287899508184	0.59269833335046762		0.22			
GaDsD_DsD=0.24	GaDsD	0.56975301579493298	0.56656722255358116	0.5698676533778827		0.24			
GaDsDsD_DsD=0.24	GaDsDsD	0.59220502566966426	0.59204397876212966	0.59273949415261895		0.24			
GaDsD_DsD=0.26	GaDsD	0.56864669510003252	0.5651179471912624	0.56876145868761718		0.26			
GaDsDsD_DsD=0.26	GaDsDsD	0.59241331133124397	0.5922526561910838	0.5929350958085744		0.26			
GaDsD_DsD=0.28	GaDsD	0.56864543505368303	0.5651179471912624	0.56876145868761718		0.28			
GaDsDsD_DsD=0.28	GaDsDsD	0.58930717107498076	0.58781296462972166	0.58975822340701578		0.28			
GaDsD_DsD=0.3	GaDsD	0.56753697227998845	0.56424838197387106	0.56765526399735167		0.3			
GaDsDsD_DsD=0.3	GaDsDsD	0.58819492816223751	0.58694339941233042	0.58865202871675026		0.3			
GaDsD_DsD=0.32	GaDsD	0.56753646826144866	0.56424838197387106	0.56765526399735167		0.32			
GaDsDsD_DsD=0.32	GaDsDsD	0.58824167588180565	0.58700279594357285	0.588697364564712		0.32			
GaDsD_DsD=0.34	GaDsD	0.56753646826144866	0.56424838197387106	0.56765526399735167		0.34			
GaDsDsD_DsD=0.34	GaDsDsD	0.58824167588180565	0.58700279594357285	0.588697364564712		0.34			
GaDsD_DsD=0.36	GaDsD	0.56752966401116112	0.56424549113205791	0.56765232199019688		0.36			
GaDsDsD_DsD=0.36	GaDsDsD	0.58713522918227024	0.58596679078672376	0.58758881261747498		0.36			
GaDsD_DsD=0.38	GaDsD	0.55870568542993293	0.55762808795658947	0.55885596947596794		0.38			
GaDsDsD_DsD=0.38	GaDsDsD	0.57537118445364888	0.57509739302532503	0.57579804719632965		0.38			
GaDsD_DsD=0.4	GaDsD	0.55545564788055157	0.55467551740545584	0.55556714999762102		0.4			
GaDsDsD_DsD=0.4	GaDsDsD	0.57333205144618038	0.57262798422947003	0.57373675184240214		0.4			
GaDsD_DsD=0.42	GaDsD	0.55436255767232145	0.55372229225122571	0.55445522372864942		0.42			
GaDsDsD_DsD=0.42	GaDsDsD	0.54706840136407586	0.55312120413835497	0.54737375189678406		0.42			
GaDsD_DsD=0.44	GaDsD	0.55436230566305156	0.55373033782133485	0.55446095530735551		0.44			
GaDsDsD_DsD=0.44	GaDsDsD	0.54407125511704824	0.5486386214883282	0.5442594996130774		0.44			
GaDsD_DsD=0.46	GaDsD	0.55226609255594861	0.55012981316891352	0.55234564572377787		0.46			
GaDsDsD_DsD=0.46	GaDsDsD	0.53886260152193433	0.54076167402086661	0.53900445540393083		0.46			
GaDsD_DsD=0.48	GaDsD	0.55115800779615876	0.54868053780659465	0.55123945103351246		0.48			
GaDsDsD_DsD=0.48	GaDsDsD	0.5377527526972552	0.53930116396581662	0.53788682717681513		0.48			
GaDsD_DsD=0.5	GaDsD	0.55005055305954365	0.54758553571474644	0.55012752476454085		0.5			
GaDsDsD_DsD=0.5	GaDsDsD	0.53786842495214349	0.53940566009256352	0.53797367334662183		0.5			
GfGaD_GfG=0.2	GfGaD	0.63515723362368171	0.63056959926224021	0.63046720796419986			0.2		
GfGfGaD_GfG=0.2	GfGfGaD	0.71495533891718721	0.71542769596315259	0.70709433614574846			0.2		
GfGaD_GfG=0.25	GfGaD	0.6333330645234454	0.62975397410149536	0.6287644115464287			0.25		
GfGfGaD_GfG=0.25	GfGfGaD	0.7107864755697153	0.71117812354180832	0.70407186667430199			0.25		
GfGaD_GfG=0.3	GfGaD	0.6328774317634499	0.62893572404098441	0.62841518947251229			0.3		
GfGfGaD_GfG=0.3	GfGfGaD	0.70910443969770776	0.70939272421840438	0.7024367766668026			0.3		
GfGaD_GfG=0.35	GfGaD	0.63356062889417331	0.62966824720552383	0.62955756701433163			0.35		
GfGfGaD_GfG=0.35	GfGfGaD	0.70410785190322467	0.70243753178333213	0.69817898334429762			0.35		
GfGaD_GfG=0.4	GfGaD	0.63145811555532261	0.62688276408507038	0.62762199201818114			0.4		
GfGfGaD_GfG=0.4	GfGfGaD	0.70220203179953611	0.70107417382112458	0.69625938639315332			0.4		
GfGaD_GfG=0.45	GfGaD	0.63054596800288698	0.62601028399716319	0.62669001497100207			0.45		
GfGfGaD_GfG=0.45	GfGfGaD	0.70127967787167012	0.69925381102015494	0.69494945990224799			0.45		
GfGaD_GfG=0.5	GfGaD	0.63072401255207777	0.62624940940534646	0.62700628481536724			0.5		
GfGfGaD_GfG=0.5	GfGfGaD	0.70027038074568337	0.69845767034118655	0.69428921521759446			0.5		
GfGaD_GfG=0.55	GfGaD	0.62967313389655721	0.62571635476434762	0.62598231611312627			0.55		
GfGfGaD_GfG=0.55	GfGfGaD	0.69933681240530554	0.69668838002273514	0.69361864206549784			0.55		
GfGaD_GfG=0.6	GfGaD	0.6296462949093119	0.62552847518203603	0.62589662513409827			0.6		
GfGfGaD_GfG=0.6	GfGfGaD	0.69665064559734913	0.69597442270079279	0.69126526023408441			0.6		
GfGaD_GfG=0.65	GfGaD	0.62971446341682225	0.62559631651593794	0.62594987768678234			0.65		
GfGfGaD_GfG=0.65	GfGfGaD	0.69618858660096961	0.69617111168004753	0.6907939775890235			0.65		
GfGaD_GfG=0.7	GfGaD	0.62971244734266296	0.62558846938476298	0.62593903029491005			0.7		
GfGfGaD_GfG=0.7	GfGfGaD	0.69661145815587899	0.69648272141356637	0.69116692534513124			0.7		
GfGaD_GfG=0.75	GfGaD	0.62971244734266296	0.62558846938476298	0.62593903029491005			0.75		
GfGfGaD_GfG=0.75	GfGfGaD	0.69663653307823492	0.69649798643926175	0.69118227277899968			0.75		
GfGaD_GfG=0.8	GfGaD	0.62971244734266296	0.62558846938476298	0.62593903029491005			0.8		
GfGfGaD_GfG=0.8	GfGfGaD	0.69663653307823492	0.69649798643926175	0.69118227277899968			0.8		
GfGaD_GfG=0.85	GfGaD	0.62971244734266296	0.62558846938476298	0.62593903029491005			0.85		
GfGfGaD_GfG=0.85	GfGfGaD	0.69663653307823492	0.69649798643926175	0.69118227277899968			0.85		
GfGaD_GfG=0.9	GfGaD	0.62971244734266296	0.62558846938476298	0.62593903029491005			0.9		
GfGfGaD_GfG=0.9	GfGfGaD	0.69663653307823492	0.69649798643926175	0.69118227277899968			0.9		
GfGaD_GfG=0.95	GfGaD	0.62971244734266296	0.62558846938476298	0.62593903029491005			0.95		
GfGfGaD_GfG=0.95	GfGfGaD	0.69663653307823492	0.69649798643926175	0.69118227277899968			0.95		
GfGaD_GfG=1.0	GfGaD	0.62971244734266296	0.62558846938476298	0.62593903029491005			1.0		
GfGfGaD_GfG=1.0	GfGfGaD	0.69663653307823492	0.69649798643926175	0.69118227277899968			1.0		
GeTeGaD_GeT=1.0	GeTeGaD	0.56819421245591095	0.51387489312491041	0.51258203751480691					1.0
GeTeGaD_GeT=1.2	GeTeGaD	0.56818703019171857	0.5426458341617183	0.53630812265793337					1.2
GeTeGaD_GeT=1.4	GeTeGaD	0.55898302163146851	0.54156866020509487	0.53485212109250146					1.4
GeTeGaD_GeT=1.6	GeTeGaD	0.57005870303933248	0.56032705882070932	0.55508417867677351					1.6
GeTeGaD_GeT=1.8	GeTeGaD	0.56601231619703896	0.55609462130693221	0.55252308497823832					1.8
GeTeGaD_GeT=2.0	GeTeGaD	0.55454753247643429	0.54689799315514676	0.54350417434195764					2.0
GeTeGaD_GeT=2.2	GeTeGaD	0.55319915687778654	0.55398572866963569	0.54428175847031135					2.2
GeTeGaD_GeT=2.4	GeTeGaD	0.54176625232982578	0.54655664297353224	0.53608139038626146					2.4
GeTeGaD_GeT=2.6	GeTeGaD	0.53159314212213982	0.53786760402981149	0.52884324322541798					2.6
GeTeGaD_GeT=2.8	GeTeGaD	0.5079013726440913	0.51117936041035394	0.50739699870636745					2.8
GeTeGaD_GeT=3.0	GeTeGaD	0.50604595439438649	0.51106937297028987	0.50583664589942823					3.0
GeTeGaD_GeT=3.2	GeTeGaD	0.50383507706947495	0.50519940241446415	0.50430777769943269					3.2
GeTeGaD_GeT=3.4	GeTeGaD	0.5057364870109381	0.50775412161630873	0.50603994333766056					3.4
GeTeGaD_GeT=3.6	GeTeGaD	0.50911920744092642	0.51119705107212288	0.50909340243786172					3.6
GeTeGaD_GeT=3.8	GeTeGaD	0.51037774173485184	0.51248614017267602	0.51045129786196675					3.8
GeTeGaD_GeT=4.0	GeTeGaD	0.50204228312334243	0.50274307265442342	0.50203317211369702					4.0
GaDcTcD_DcT=15.0	GaDcTcD	0.68274628613938937	0.67060713120876769	0.68408873467723386				15.0	
GaDcTcD_DcT=16.0	GaDcTcD	0.68278988374308358	0.67062058929886559	0.68410402873469311				16.0	
GaDcTcD_DcT=17.0	GaDcTcD	0.68282113289255231	0.6706966045603705	0.684168058176718				17.0	
GaDcTcD_DcT=18.0	GaDcTcD	0.68286372245916693	0.67076721121801819	0.6842386448505875				18.0	
GaDcTcD_DcT=19.0	GaDcTcD	0.68302425236409892	0.67090978634754717	0.68437667517308087				19.0	
GaDcTcD_DcT=20.0	GaDcTcD	0.68322837987272522	0.67104075544151565	0.68455094897489566				20.0	
GaDcTcD_DcT=21.0	GaDcTcD	0.68345216410440446	0.67126349609867997	0.68478026139909576				21.0	
GaDcTcD_DcT=22.0	GaDcTcD	0.68356506425732366	0.67126130491144453	0.68477453390936427				22.0	
GaDcTcD_DcT=23.0	GaDcTcD	0.68389116425258589	0.67144328230217898	0.68494373534096831				23.0	
GaDcTcD_DcT=24.0	GaDcTcD	0.68410688418762799	0.67151832174758008	0.68507061451007745				24.0	
GaDcTcD_DcT=25.0	GaDcTcD	0.68442063572866463	0.6718965356535892	0.68543593666862124				25.0	
GaDcTcD_DcT=26.0	GaDcTcD	0.68521597698449743	0.67249525420081968	0.68593747065418453				26.0	
GaDcTcD_DcT=27.0	GaDcTcD	0.68547743660202798	0.67292767578519841	0.68624073713695632				27.0	
GaDcTcD_DcT=28.0	GaDcTcD	0.68391838125373594	0.67097935292706767	0.68463903338698251				28.0	
GaDcTcD_DcT=29.0	GaDcTcD	0.67854831572124552	0.66357957457693506	0.67926137158314903				29.0	
GaDcTcD_DcT=30.0	GaDcTcD	0.67453494209330989	0.65878425257243323	0.67530142585721609				30.0	
GaDcTcD_DcT=31.0	GaDcTcD	0.65915091020708105	0.64490104345697208	0.66009639261453679				31.0	
GaDcTcD_DcT=32.0	GaDcTcD	0.64618767936759791	0.63417076596412869	0.64680425726374269				32.0	
GaDcTcD_DcT=33.0	GaDcTcD	0.62228321406574616	0.60956464041341918	0.62265464971734519				33.0	
GaDcTcD_DcT=34.0	GaDcTcD	0.59141170048799063	0.58792960439849218	0.59168912558952402				34.0	
GaDcTcD_DcT=35.0	GaDcTcD	0.5786698597921226	0.57545317602119728	0.57884957676786386				35.0	
GaDcTcD_DcT=36.0	GaDcTcD	0.55303812295431476	0.54966377794890509	0.55312645512421477				36.0	
GaDcTcD_DcT=37.0	GaDcTcD	0.54544042148046379	0.54203369262694667	0.54556387866723643				37.0	
GaDcTcD_DcT=38.0	GaDcTcD	0.54123287471006343	0.53814782365449998	0.54131858730918947				38.0	
GaDcTcD_DcT=39.0	GaDcTcD	0.53167580116266999	0.52806463219858468	0.53173576118440014				39.0	
GaDcTcD_DcT=40.0	GaDcTcD	0.53173603137817815	0.52811939071353375	0.53177755695355378				40.0	
GaDcTcD_DcT=41.0	GaDcTcD	0.50221238938053092	0.50254180602006682	0.50221238938053092				41.0	
GaDcTcD_DcT=42.0	GaDcTcD	0.50221238938053092	0.50254180602006682	0.50221238938053092				42.0	
GaDcTcD_DcT=43.0	GaDcTcD	0.50221238938053092	0.50254180602006682	0.50221238938053092				43.0	
GaDcTcD_DcT=44.0	GaDcTcD	0.5	0.5	0.5				44.0	
GaDcTcD_DcT=45.0	GaDcTcD	0.5	0.5	0.5				45.0	
GeTcD_GeT=1.0_TcD=15.0	GeTcD	0.56403127132628661	0.55570863804751791	0.55106233707795016	15.0				1.0
GeTcD_GeT=1.0_TcD=16.0	GeTcD	0.56294007118757916	0.55685647746468347	0.55166993609223758	16.0				1.0
GeTcD_GeT=1.0_TcD=17.0	GeTcD	0.56209332004068446	0.55641752510935771	0.55173222111950349	17.0				1.0
GeTcD_GeT=1.0_TcD=18.0	GeTcD	0.56430507939804031	0.55938507770204049	0.55405638598203555	18.0				1.0
GeTcD_GeT=1.0_TcD=19.0	GeTcD	0.56289823764877422	0.55621798191744942	0.55090357360969189	19.0				1.0
GeTcD_GeT=1.0_TcD=20.0	GeTcD	0.55978516713758741	0.55429621511363258	0.54883491525786843	20.0				1.0
GeTcD_GeT=1.0_TcD=21.0	GeTcD	0.55986984225227632	0.55553825138901158	0.54981564709594111	21.0				1.0
GeTcD_GeT=1.0_TcD=22.0	GeTcD	0.55958179565677002	0.55716242696478191	0.55109899776808435	22.0				1.0
GeTcD_GeT=1.0_TcD=23.0	GeTcD	0.56541581025516374	0.56087804163142962	0.55452072192241342	23.0				1.0
GeTcD_GeT=1.0_TcD=24.0	GeTcD	0.56934009860618739	0.56408654171163064	0.55774760537451362	24.0				1.0
GeTcD_GeT=1.0_TcD=25.0	GeTcD	0.56859440317652676	0.56506628170446671	0.55995469533137388	25.0				1.0
GeTcD_GeT=1.0_TcD=26.0	GeTcD	0.57620533513704786	0.57295214279395756	0.56617874427144199	26.0				1.0
GeTcD_GeT=1.0_TcD=27.0	GeTcD	0.58465722203125492	0.58040461939697541	0.57180581479512238	27.0				1.0
GeTcD_GeT=1.0_TcD=28.0	GeTcD	0.58126391721193094	0.58223604381503014	0.57455427240285029	28.0				1.0
GeTcD_GeT=1.0_TcD=29.0	GeTcD	0.58375036667348912	0.58589214086150698	0.57309929825072292	29.0				1.0
GeTcD_GeT=1.0_TcD=30.0	GeTcD	0.5832675169123418	0.5920873184027875	0.57978148828660248	30.0				1.0
GeTcD_GeT=1.0_TcD=31.0	GeTcD	0.57843158502742209	0.591156829975646	0.58081298899774492	31.0				1.0
GeTcD_GeT=1.0_TcD=32.0	GeTcD	0.58133347177042616	0.59403525463451656	0.58299164821355409	32.0				1.0
GeTcD_GeT=1.0_TcD=33.0	GeTcD	0.57603081871763517	0.59127636333732358	0.57890069351351325	33.0				1.0
GeTcD_GeT=1.0_TcD=34.0	GeTcD	0.56389947047812228	0.58561006906060054	0.57126149339392718	34.0				1.0
GeTcD_GeT=1.0_TcD=35.0	GeTcD	0.56147035312546945	0.58775248951804149	0.57394145868609792	35.0				1.0
GeTcD_GeT=1.0_TcD=36.0	GeTcD	0.53997093829099418	0.56881287490462618	0.55310138070711179	36.0				1.0
GeTcD_GeT=1.0_TcD=37.0	GeTcD	0.53556329616028586	0.55946844671434015	0.54453056085708929	37.0				1.0
GeTcD_GeT=1.0_TcD=38.0	GeTcD	0.53196346974427111	0.55406688648067193	0.53705793715079542	38.0				1.0
GeTcD_GeT=1.0_TcD=39.0	GeTcD	0.52470094059939898	0.55317631251014643	0.53862890859245149	39.0				1.0
GeTcD_GeT=1.0_TcD=40.0	GeTcD	0.52494727966073507	0.55121374352208008	0.53748269356975809	40.0				1.0
GeTcD_GeT=1.0_TcD=41.0	GeTcD	0.50347747591547398	0.53575720621937895	0.5277768147125067	41.0				1.0
GeTcD_GeT=1.0_TcD=42.0	GeTcD	0.50744447983774632	0.52901227731391776	0.52377559673763074	42.0				1.0
GeTcD_GeT=1.0_TcD=43.0	GeTcD	0.50408192014935072	0.52435670744095653	0.51912120491509728	43.0				1.0
GeTcD_GeT=1.0_TcD=44.0	GeTcD	0.49605681095373405	0.51791469838796866	0.51225889291379312	44.0				1.0
GeTcD_GeT=1.0_TcD=45.0	GeTcD	0.49977104957828766	0.51201776811930477	0.50870007267986594	45.0				1.0
GeTcD_GeT=1.2_TcD=15.0	GeTcD	0.5535119003817448	0.55481920808187102	0.54624223949752893	15.0				1.2
GeTcD_GeT=1.2_TcD=16.0	GeTcD	0.55235605986530667	0.55404370997019747	0.54566862377056624	16.0				1.2
GeTcD_GeT=1.2_TcD=17.0	GeTcD	0.55215785457452216	0.55415135651023451	0.54563217751192483	17.0				1.2
GeTcD_GeT=1.2_TcD=18.0	GeTcD	0.55433672672215717	0.55619029050909874	0.5477860098561258	18.0				1.2
GeTcD_GeT=1.2_TcD=19.0	GeTcD	0.55351618453933193	0.55520333403698341	0.54751087855733616	19.0				1.2
GeTcD_GeT=1.2_TcD=20.0	GeTcD	0.55409958599917086	0.55520827477359025	0.547603612747672	20.0				1.2
GeTcD_GeT=1.2_TcD=21.0	GeTcD	0.55568926047375755	0.55687053197788972	0.54926840433156709	21.0				1.2
GeTcD_GeT=1.2_TcD=22.0	GeTcD	0.55573374010989629	0.55572487184767094	0.54944536590318038	22.0				1.2
GeTcD_GeT=1.2_TcD=23.0	GeTcD	0.55937691212033491	0.55792426501747061	0.55116389236977337	23.0				1.2
GeTcD_GeT=1.2_TcD=24.0	GeTcD	0.56360587967867648	0.56345932323826642	0.55597214241610471	24.0				1.2
GeTcD_GeT=1.2_TcD=25.0	GeTcD	0.5633655888398198	0.56376074639534512	0.55654803884926529	25.0				1.2
GeTcD_GeT=1.2_TcD=26.0	GeTcD	0.56913219095851186	0.56856547402641799	0.560881373690719	26.0				1.2
GeTcD_GeT=1.2_TcD=27.0	GeTcD	0.57567094948020581	0.57366490406373105	0.56543350425017447	27.0				1.2
GeTcD_GeT=1.2_TcD=28.0	GeTcD	0.57252612580101137	0.5781294612964506	0.56958319329378893	28.0				1.2
GeTcD_GeT=1.2_TcD=29.0	GeTcD	0.57614535693080926	0.57932153755962579	0.57109256366688255	29.0				1.2
GeTcD_GeT=1.2_TcD=30.0	GeTcD	0.57622322779521218	0.58287900248431546	0.57307901033837028	30.0				1.2
GeTcD_GeT=1.2_TcD=31.0	GeTcD	0.57238374056351304	0.58021351335927407	0.57306997567744267	31.0				1.2
GeTcD_GeT=1.2_TcD=32.0	GeTcD	0.57445702082705385	0.58244575492918826	0.57501091025377404	32.0				1.2
GeTcD_GeT=1.2_TcD=33.0	GeTcD	0.56806959387194089	0.58233247268940458	0.57560354623432564	33.0				1.2
GeTcD_GeT=1.2_TcD=34.0	GeTcD	0.55786473049624674	0.5747038824417976	0.56661712198095904	34.0				1.2
GeTcD_GeT=1.2_TcD=35.0	GeTcD	0.54937945237377628	0.56709161664501262	0.55874147436727584	35.0				1.2
GeTcD_GeT=1.2_TcD=36.0	GeTcD	0.52810482980805973	0.54576191133663843	0.53540710322927254	36.0				1.2
GeTcD_GeT=1.2_TcD=37.0	GeTcD	0.52585413501850242	0.54131875041368316	0.53217603347763431	37.0				1.2
GeTcD_GeT=1.2_TcD=38.0	GeTcD	0.52425891633997868	0.53959306396732354	0.52968225102629918	38.0				1.2
GeTcD_GeT=1.2_TcD=39.0	GeTcD	0.51923800965094702	0.53916750025064208	0.53089487715183958	39.0				1.2
GeTcD_GeT=1.2_TcD=40.0	GeTcD	0.52009408514082778	0.54019585464036834	0.53093789114149414	40.0				1.2
GeTcD_GeT=1.2_TcD=41.0	GeTcD	0.50832210212020434	0.53602428683533343	0.52613232050513814	41.0				1.2
GeTcD_GeT=1.2_TcD=42.0	GeTcD	0.51025161109526262	0.52950876583898299	0.52224783664330532	42.0				1.2
GeTcD_GeT=1.2_TcD=43.0	GeTcD	0.50542172743282188	0.52309892034596162	0.51635704308177299	43.0				1.2
GeTcD_GeT=1.2_TcD=44.0	GeTcD	0.49806356077001934	0.51648313596508377	0.5098917929196749	44.0				1.2
GeTcD_GeT=1.2_TcD=45.0	GeTcD	0.4988872530687169	0.50867446237469105	0.5052385298178852	45.0				1.2
GeTcD_GeT=1.4_TcD=15.0	GeTcD	0.54750803153543282	0.54917224641811513	0.54123513181543537	15.0				1.4
GeTcD_GeT=1.4_TcD=16.0	GeTcD	0.54736199216351999	0.54968540472370109	0.54162361819116878	16.0				1.4
GeTcD_GeT=1.4_TcD=17.0	GeTcD	0.54715899869660845	0.54984541657918984	0.54153703787392793	17.0				1.4
GeTcD_GeT=1.4_TcD=18.0	GeTcD	0.54771001696526445	0.54962271461623335	0.54200633584525204	18.0				1.4
GeTcD_GeT=1.4_TcD=19.0	GeTcD	0.54886043928239825	0.55067629674485274	0.54311229468449274	19.0				1.4
GeTcD_GeT=1.4_TcD=20.0	GeTcD	0.55075189485770071	0.55252309356742901	0.54562507167439778	20.0				1.4
GeTcD_GeT=1.4_TcD=21.0	GeTcD	0.55248004842610166	0.55441482675593667	0.54738979595683357	21.0				1.4
GeTcD_GeT=1.4_TcD=22.0	GeTcD	0.55332579153591621	0.55407250846701717	0.54818392816066219	22.0				1.4
GeTcD_GeT=1.4_TcD=23.0	GeTcD	0.55686878986156718	0.5549403711190467	0.54959902023327556	23.0				1.4
GeTcD_GeT=1.4_TcD=24.0	GeTcD	0.5596537443033307	0.55887016023037872	0.55325183766304287	24.0				1.4
GeTcD_GeT=1.4_TcD=25.0	GeTcD	0.56252866605445218	0.56131645123514817	0.55641620915955237	25.0				1.4
GeTcD_GeT=1.4_TcD=26.0	GeTcD	0.56661020818989871	0.56450208347780784	0.55862522993426333	26.0				1.4
GeTcD_GeT=1.4_TcD=27.0	GeTcD	0.57060228703452587	0.56586129061890367	0.56011897109463493	27.0				1.4
GeTcD_GeT=1.4_TcD=28.0	GeTcD	0.57019982823048154	0.57064601158067962	0.56408973668397222	28.0				1.4
GeTcD_GeT=1.4_TcD=29.0	GeTcD	0.57285096574992389	0.57633658165059709	0.56749979650359128	29.0				1.4
GeTcD_GeT=1.4_TcD=30.0	GeTcD	0.57384123617603089	0.57887469174825323	0.57035890656456001	30.0				1.4
GeTcD_GeT=1.4_TcD=31.0	GeTcD	0.57165316569004654	0.58144239310801749	0.5720567669890595	31.0				1.4
GeTcD_GeT=1.4_TcD=32.0	GeTcD	0.57152867311071187	0.58016975281562067	0.57101902192237008	32.0				1.4
GeTcD_GeT=1.4_TcD=33.0	GeTcD	0.56904738983918768	0.57814870998378365	0.5710585775971454	33.0				1.4
GeTcD_GeT=1.4_TcD=34.0	GeTcD	0.55807604026906521	0.57183714939132169	0.56320587496708319	34.0				1.4
GeTcD_GeT=1.4_TcD=35.0	GeTcD	0.55294865966349704	0.56741319970249793	0.5581487112832294	35.0				1.4
GeTcD_GeT=1.4_TcD=36.0	GeTcD	0.52860506820882902	0.54240471933200141	0.53355283791983221	36.0				1.4
GeTcD_GeT=1.4_TcD=37.0	GeTcD	0.52779309434118227	0.53937937063562391	0.53130534457401113	37.0				1.4
GeTcD_GeT=1.4_TcD=38.0	GeTcD	0.52761215168538755	0.54060144410552757	0.53090704640760933	38.0				1.4
GeTcD_GeT=1.4_TcD=39.0	GeTcD	0.52263181848881124	0.54043526373369299	0.52992324947007663	39.0				1.4
GeTcD_GeT=1.4_TcD=40.0	GeTcD	0.52365207801803781	0.5399766251527468	0.53004453959210784	40.0				1.4
GeTcD_GeT=1.4_TcD=41.0	GeTcD	0.50998599332477856	0.53017141769316078	0.52264833594057958	41.0				1.4
GeTcD_GeT=1.4_TcD=42.0	GeTcD	0.51140568754681082	0.52540605886154246	0.51978051605339537	42.0				1.4
GeTcD_GeT=1.4_TcD=43.0	GeTcD	0.50487826944226322	0.517479937513871	0.51240482774273211	43.0				1.4
GeTcD_GeT=1.4_TcD=44.0	GeTcD	0.4977113778153216	0.51125858145021741	0.50619408903298091	44.0				1.4
GeTcD_GeT=1.4_TcD=45.0	GeTcD	0.49976512736044487	0.50779383481022333	0.5042530097480985	45.0				1.4
GeTcD_GeT=1.6_TcD=15.0	GeTcD	0.55422622065730021	0.55685192612763468	0.5501964662870481	15.0				1.6
GeTcD_GeT=1.6_TcD=16.0	GeTcD	0.55345242619404511	0.55631006109688164	0.54998904707104157	16.0				1.6
GeTcD_GeT=1.6_TcD=17.0	GeTcD	0.5538253999135101	0.55678845850220138	0.55036410883039544	17.0				1.6
GeTcD_GeT=1.6_TcD=18.0	GeTcD	0.55606437627201621	0.559141962493792	0.55287150645380978	18.0				1.6
GeTcD_GeT=1.6_TcD=19.0	GeTcD	0.55650438445727768	0.55903254512302214	0.55342529757189496	19.0				1.6
GeTcD_GeT=1.6_TcD=20.0	GeTcD	0.55845090405805498	0.56119377267882309	0.55606285287852331	20.0				1.6
GeTcD_GeT=1.6_TcD=21.0	GeTcD	0.55997530813173424	0.56383632353445579	0.55765956925374871	21.0				1.6
GeTcD_GeT=1.6_TcD=22.0	GeTcD	0.56091769679655856	0.56421079904132587	0.55917052810618739	22.0				1.6
GeTcD_GeT=1.6_TcD=23.0	GeTcD	0.56348970340524984	0.56344280671333424	0.55976025142013153	23.0				1.6
GeTcD_GeT=1.6_TcD=24.0	GeTcD	0.56706369887109886	0.5679483717306909	0.56414083860361675	24.0				1.6
GeTcD_GeT=1.6_TcD=25.0	GeTcD	0.5672711025002346	0.56810876580764136	0.56454375692837888	25.0				1.6
GeTcD_GeT=1.6_TcD=26.0	GeTcD	0.56962713716461311	0.56901511275064853	0.56599671464761903	26.0				1.6
GeTcD_GeT=1.6_TcD=27.0	GeTcD	0.57482079620816706	0.57247603032182059	0.56900696616345048	27.0				1.6
GeTcD_GeT=1.6_TcD=28.0	GeTcD	0.57469794168908706	0.57639563113699821	0.57100735423037785	28.0				1.6
GeTcD_GeT=1.6_TcD=29.0	GeTcD	0.57460280818969656	0.57804222422412566	0.57101723038000984	29.0				1.6
GeTcD_GeT=1.6_TcD=30.0	GeTcD	0.57343172111242935	0.57944220813680491	0.57125453030632989	30.0				1.6
GeTcD_GeT=1.6_TcD=31.0	GeTcD	0.57113238853377957	0.58259446847563834	0.5727342861025505	31.0				1.6
GeTcD_GeT=1.6_TcD=32.0	GeTcD	0.56792040438415481	0.57707645666438268	0.5678011763253803	32.0				1.6
GeTcD_GeT=1.6_TcD=33.0	GeTcD	0.56368072643184097	0.57203538243809038	0.56575860228849961	33.0				1.6
GeTcD_GeT=1.6_TcD=34.0	GeTcD	0.5499081678220451	0.5627917399363529	0.55555945277958763	34.0				1.6
GeTcD_GeT=1.6_TcD=35.0	GeTcD	0.54610043375835537	0.55847902308838271	0.55081619338668375	35.0				1.6
GeTcD_GeT=1.6_TcD=36.0	GeTcD	0.52234339387940054	0.53647149507416581	0.52838694215372484	36.0				1.6
GeTcD_GeT=1.6_TcD=37.0	GeTcD	0.52331577164734422	0.53686150993619475	0.52670106891726165	37.0				1.6
GeTcD_GeT=1.6_TcD=38.0	GeTcD	0.52028977033891211	0.5341973047068197	0.52300338746313402	38.0				1.6
GeTcD_GeT=1.6_TcD=39.0	GeTcD	0.51661434114192462	0.5330971879092109	0.52220651180237565	39.0				1.6
GeTcD_GeT=1.6_TcD=40.0	GeTcD	0.51632868863448278	0.53113619907274834	0.52094348221762232	40.0				1.6
GeTcD_GeT=1.6_TcD=41.0	GeTcD	0.50696654425736398	0.52190704682806677	0.51597771678135673	41.0				1.6
GeTcD_GeT=1.6_TcD=42.0	GeTcD	0.50697221446593688	0.51708731773171135	0.51285214866381912	42.0				1.6
GeTcD_GeT=1.6_TcD=43.0	GeTcD	0.50632807877204955	0.51630085711538309	0.51172995152873246	43.0				1.6
GeTcD_GeT=1.6_TcD=44.0	GeTcD	0.49986378898961414	0.5107093143021435	0.50612032640858806	44.0				1.6
GeTcD_GeT=1.6_TcD=45.0	GeTcD	0.5013118342545112	0.50810733494046212	0.50458034024216192	45.0				1.6
GeTcD_GeT=1.8_TcD=15.0	GeTcD	0.54973705352777691	0.55292030392968838	0.54736974652297932	15.0				1.8
GeTcD_GeT=1.8_TcD=16.0	GeTcD	0.54989254324731085	0.55331641432734446	0.54779873895603748	16.0				1.8
GeTcD_GeT=1.8_TcD=17.0	GeTcD	0.55044570359476119	0.55373803700607416	0.54817007953826713	17.0				1.8
GeTcD_GeT=1.8_TcD=18.0	GeTcD	0.55148183970799169	0.55535892664382491	0.54964318512170218	18.0				1.8
GeTcD_GeT=1.8_TcD=19.0	GeTcD	0.5521456321249314	0.55560950848671697	0.55006567151347341	19.0				1.8
GeTcD_GeT=1.8_TcD=20.0	GeTcD	0.55314195077351747	0.55693172019618242	0.55177685441665714	20.0				1.8
GeTcD_GeT=1.8_TcD=21.0	GeTcD	0.55540524602656982	0.55936978605906862	0.55377786112975713	21.0				1.8
GeTcD_GeT=1.8_TcD=22.0	GeTcD	0.55670145570634655	0.55991272982349227	0.55526967087973256	22.0				1.8
GeTcD_GeT=1.8_TcD=23.0	GeTcD	0.55904602394894454	0.55953416045161464	0.55640978598118385	23.0				1.8
GeTcD_GeT=1.8_TcD=24.0	GeTcD	0.5621326334867901	0.56349078317556012	0.55956058320877844	24.0				1.8
GeTcD_GeT=1.8_TcD=25.0	GeTcD	0.56131561943374531	0.56107447260119903	0.55868112246346868	25.0				1.8
GeTcD_GeT=1.8_TcD=26.0	GeTcD	0.56303848080747798	0.56185661809102039	0.55956729674064354	26.0				1.8
GeTcD_GeT=1.8_TcD=27.0	GeTcD	0.56713098534616468	0.56543684188553278	0.56260608977304394	27.0				1.8
GeTcD_GeT=1.8_TcD=28.0	GeTcD	0.56819131434930714	0.56877028078947345	0.56576491951351826	28.0				1.8
GeTcD_GeT=1.8_TcD=29.0	GeTcD	0.56675990169622414	0.56899706396235761	0.56438382041196022	29.0				1.8
GeTcD_GeT=1.8_TcD=30.0	GeTcD	0.56681962789319251	0.56962697683022934	0.564946059552911	30.0				1.8
GeTcD_GeT=1.8_TcD=31.0	GeTcD	0.55954034013187159	0.56698562097379535	0.56032902928116224	31.0				1.8
GeTcD_GeT=1.8_TcD=32.0	GeTcD	0.55499938509738156	0.56125036588413002	0.55550711292975774	32.0				1.8
GeTcD_GeT=1.8_TcD=33.0	GeTcD	0.55062236209296733	0.55929438945651133	0.55251154703103933	33.0				1.8
GeTcD_GeT=1.8_TcD=34.0	GeTcD	0.54037919330824669	0.55419570941287144	0.54499712943651535	34.0				1.8
GeTcD_GeT=1.8_TcD=35.0	GeTcD	0.53603934167114398	0.54904632686153232	0.53985206262312735	35.0				1.8
GeTcD_GeT=1.8_TcD=36.0	GeTcD	0.51678658947790734	0.52802648918044959	0.5208552407059579	36.0				1.8
GeTcD_GeT=1.8_TcD=37.0	GeTcD	0.51855632457584322	0.52899904170242507	0.52008195446454009	37.0				1.8
GeTcD_GeT=1.8_TcD=38.0	GeTcD	0.51765765951934772	0.52794473648168194	0.5186706003301127	38.0				1.8
GeTcD_GeT=1.8_TcD=39.0	GeTcD	0.51297998945593215	0.52555097968280717	0.51625576961299624	39.0				1.8
GeTcD_GeT=1.8_TcD=40.0	GeTcD	0.51378074891106784	0.52539854140515696	0.51653630963004504	40.0				1.8
GeTcD_GeT=1.8_TcD=41.0	GeTcD	0.50545133852203616	0.51727083077756386	0.51199383338325355	41.0				1.8
GeTcD_GeT=1.8_TcD=42.0	GeTcD	0.50576156193329425	0.51426095469874999	0.51032879536819775	42.0				1.8
GeTcD_GeT=1.8_TcD=43.0	GeTcD	0.50550829261703567	0.51388064642619213	0.5096820470180059	43.0				1.8
GeTcD_GeT=1.8_TcD=44.0	GeTcD	0.50178624170511488	0.51075131336829005	0.50659010515348357	44.0				1.8
GeTcD_GeT=1.8_TcD=45.0	GeTcD	0.50191375839568886	0.50690166585134566	0.50430213725374196	45.0				1.8
GeTcD_GeT=2.0_TcD=15.0	GeTcD	0.54187990851055479	0.54359136473110292	0.53992522220066508	15.0				2.0
GeTcD_GeT=2.0_TcD=16.0	GeTcD	0.54212738161360541	0.54400663225143409	0.54035148338719174	16.0				2.0
GeTcD_GeT=2.0_TcD=17.0	GeTcD	0.5420364062671682	0.54380310104234764	0.54013690394045488	17.0				2.0
GeTcD_GeT=2.0_TcD=18.0	GeTcD	0.54340191849616981	0.54588584629904502	0.54165192522281647	18.0				2.0
GeTcD_GeT=2.0_TcD=19.0	GeTcD	0.5438018572075155	0.54601874122749838	0.54215629190219872	19.0				2.0
GeTcD_GeT=2.0_TcD=20.0	GeTcD	0.54282821939322201	0.54529241371649617	0.54121081187399289	20.0				2.0
GeTcD_GeT=2.0_TcD=21.0	GeTcD	0.54518299401125181	0.5470810347588414	0.54339960043525926	21.0				2.0
GeTcD_GeT=2.0_TcD=22.0	GeTcD	0.54513057608311066	0.54728196546534169	0.5440823993216154	22.0				2.0
GeTcD_GeT=2.0_TcD=23.0	GeTcD	0.54830627089786887	0.54868514609847774	0.54601332672604352	23.0				2.0
GeTcD_GeT=2.0_TcD=24.0	GeTcD	0.55080897495733483	0.5513053853132005	0.54926145399189441	24.0				2.0
GeTcD_GeT=2.0_TcD=25.0	GeTcD	0.55003568451261919	0.54922872687706659	0.5483283662654822	25.0				2.0
GeTcD_GeT=2.0_TcD=26.0	GeTcD	0.5513575991379267	0.55026261758364614	0.54882143158966246	26.0				2.0
GeTcD_GeT=2.0_TcD=27.0	GeTcD	0.55384845876170696	0.55218212084488139	0.5501012364420883	27.0				2.0
GeTcD_GeT=2.0_TcD=28.0	GeTcD	0.55513862021900617	0.55688920397727337	0.55303974538182699	28.0				2.0
GeTcD_GeT=2.0_TcD=29.0	GeTcD	0.55346250656484153	0.55693773404028712	0.55130398402295566	29.0				2.0
GeTcD_GeT=2.0_TcD=30.0	GeTcD	0.55364861541066923	0.55703436762719538	0.55177914488674717	30.0				2.0
GeTcD_GeT=2.0_TcD=31.0	GeTcD	0.54237901286960932	0.55125551629540337	0.54266255768852212	31.0				2.0
GeTcD_GeT=2.0_TcD=32.0	GeTcD	0.54411938888760081	0.55280748083687936	0.54427018894264179	32.0				2.0
GeTcD_GeT=2.0_TcD=33.0	GeTcD	0.5379344513808596	0.54737601477828013	0.53983171094282534	33.0				2.0
GeTcD_GeT=2.0_TcD=34.0	GeTcD	0.52768095021607275	0.5409389520520973	0.53132578656077778	34.0				2.0
GeTcD_GeT=2.0_TcD=35.0	GeTcD	0.52125988002342671	0.5348802516771286	0.52415745971030792	35.0				2.0
GeTcD_GeT=2.0_TcD=36.0	GeTcD	0.50846549539478247	0.52013966972504311	0.51142405376345279	36.0				2.0
GeTcD_GeT=2.0_TcD=37.0	GeTcD	0.51108475374158169	0.52242103740742407	0.51216385026177991	37.0				2.0
GeTcD_GeT=2.0_TcD=38.0	GeTcD	0.51203268661034429	0.52300969553778942	0.51213511152349733	38.0				2.0
GeTcD_GeT=2.0_TcD=39.0	GeTcD	0.5091296658256278	0.51929468753550956	0.51111786732403364	39.0				2.0
GeTcD_GeT=2.0_TcD=40.0	GeTcD	0.50897959430539685	0.51789503794778347	0.51048959841769126	40.0				2.0
GeTcD_GeT=2.0_TcD=41.0	GeTcD	0.50430167223271138	0.51237360309628965	0.50882269875693298	41.0				2.0
GeTcD_GeT=2.0_TcD=42.0	GeTcD	0.50547729547683684	0.51200163091924578	0.50874559606248038	42.0				2.0
GeTcD_GeT=2.0_TcD=43.0	GeTcD	0.504256058554858	0.51069701241235876	0.50720231441146502	43.0				2.0
GeTcD_GeT=2.0_TcD=44.0	GeTcD	0.50173054765646496	0.50848145852388671	0.50512774986324827	44.0				2.0
GeTcD_GeT=2.0_TcD=45.0	GeTcD	0.50048499183993977	0.5033003975077317	0.50204579557622075	45.0				2.0
GeTcD_GeT=2.2_TcD=15.0	GeTcD	0.54239614949996329	0.54872583146012721	0.54125955452333674	15.0				2.2
GeTcD_GeT=2.2_TcD=16.0	GeTcD	0.54289575787755795	0.5491966347722671	0.54173559091827372	16.0				2.2
GeTcD_GeT=2.2_TcD=17.0	GeTcD	0.54307909462141646	0.54930827720901965	0.54192450769963796	17.0				2.2
GeTcD_GeT=2.2_TcD=18.0	GeTcD	0.54400119654001344	0.55085979480027913	0.5429101149753055	18.0				2.2
GeTcD_GeT=2.2_TcD=19.0	GeTcD	0.54320661131199044	0.54950831317620619	0.54213554545464915	19.0				2.2
GeTcD_GeT=2.2_TcD=20.0	GeTcD	0.54412669715642825	0.55024788516053169	0.54362906075124584	20.0				2.2
GeTcD_GeT=2.2_TcD=21.0	GeTcD	0.54634538676870692	0.55271342908283227	0.54597284981548133	21.0				2.2
GeTcD_GeT=2.2_TcD=22.0	GeTcD	0.54641897347552038	0.55237273175459223	0.54619296445688748	22.0				2.2
GeTcD_GeT=2.2_TcD=23.0	GeTcD	0.54797790281917724	0.55155839772916482	0.546415907245828	23.0				2.2
GeTcD_GeT=2.2_TcD=24.0	GeTcD	0.54822524991759292	0.55318136133083062	0.5466254472908727	24.0				2.2
GeTcD_GeT=2.2_TcD=25.0	GeTcD	0.54987679266794154	0.55353431841817635	0.5483074591238265	25.0				2.2
GeTcD_GeT=2.2_TcD=26.0	GeTcD	0.55090700656332947	0.55428350878113253	0.54838275391057734	26.0				2.2
GeTcD_GeT=2.2_TcD=27.0	GeTcD	0.55379175667597758	0.55779282515574913	0.55111894969707775	27.0				2.2
GeTcD_GeT=2.2_TcD=28.0	GeTcD	0.55644654832983376	0.56252064011066349	0.55423814183102782	28.0				2.2
GeTcD_GeT=2.2_TcD=29.0	GeTcD	0.55287494695204864	0.56021469668883872	0.55035284466772472	29.0				2.2
GeTcD_GeT=2.2_TcD=30.0	GeTcD	0.55165900222473774	0.55865286912142309	0.54966986356824776	30.0				2.2
GeTcD_GeT=2.2_TcD=31.0	GeTcD	0.54551501622435683	0.55686631350500004	0.54581359135502217	31.0				2.2
GeTcD_GeT=2.2_TcD=32.0	GeTcD	0.5450871044840514	0.55690667024925111	0.5455735299187322	32.0				2.2
GeTcD_GeT=2.2_TcD=33.0	GeTcD	0.53918933154037141	0.55199652878727856	0.54076356139056669	33.0				2.2
GeTcD_GeT=2.2_TcD=34.0	GeTcD	0.53056557432408591	0.54531670133588184	0.53339399096232687	34.0				2.2
GeTcD_GeT=2.2_TcD=35.0	GeTcD	0.52634303300212593	0.53964414602388411	0.52890878764605354	35.0				2.2
GeTcD_GeT=2.2_TcD=36.0	GeTcD	0.51312149266098617	0.52445334990723358	0.51577747695165255	36.0				2.2
GeTcD_GeT=2.2_TcD=37.0	GeTcD	0.51373400119149992	0.52376611443409604	0.51484650845093938	37.0				2.2
GeTcD_GeT=2.2_TcD=38.0	GeTcD	0.51496985465113354	0.52469495405138933	0.51528018283149601	38.0				2.2
GeTcD_GeT=2.2_TcD=39.0	GeTcD	0.5129576866355452	0.52190265595436258	0.51442455196617431	39.0				2.2
GeTcD_GeT=2.2_TcD=40.0	GeTcD	0.51241322060790684	0.52023750888347708	0.51370123983016613	40.0				2.2
GeTcD_GeT=2.2_TcD=41.0	GeTcD	0.50671251891329572	0.51240286406907776	0.50987960984003933	41.0				2.2
GeTcD_GeT=2.2_TcD=42.0	GeTcD	0.50782967600680229	0.51303140907260081	0.51014949807252652	42.0				2.2
GeTcD_GeT=2.2_TcD=43.0	GeTcD	0.50597954995176542	0.51140657238160148	0.50810379837869291	43.0				2.2
GeTcD_GeT=2.2_TcD=44.0	GeTcD	0.50256860448354723	0.50830362273114549	0.50500540209820688	44.0				2.2
GeTcD_GeT=2.2_TcD=45.0	GeTcD	0.50027582414591543	0.50211066079482758	0.50130656263108553	45.0				2.2
GeTcD_GeT=2.4_TcD=15.0	GeTcD	0.53687765050749625	0.54404545460579634	0.53626323123879849	15.0				2.4
GeTcD_GeT=2.4_TcD=16.0	GeTcD	0.53747995266257875	0.54470900986263104	0.53694823493640964	16.0				2.4
GeTcD_GeT=2.4_TcD=17.0	GeTcD	0.53756361974018851	0.54478536293916413	0.53704735993662733	17.0				2.4
GeTcD_GeT=2.4_TcD=18.0	GeTcD	0.53726574478315603	0.54555471089671248	0.53696147644945824	18.0				2.4
GeTcD_GeT=2.4_TcD=19.0	GeTcD	0.53555019167825069	0.54206819135197037	0.53504620057784025	19.0				2.4
GeTcD_GeT=2.4_TcD=20.0	GeTcD	0.53524551247093066	0.54056051885848999	0.53514049843306477	20.0				2.4
GeTcD_GeT=2.4_TcD=21.0	GeTcD	0.53784032591854858	0.54327812083108729	0.53789612168456469	21.0				2.4
GeTcD_GeT=2.4_TcD=22.0	GeTcD	0.53809283920699735	0.54347173260855497	0.5381824444883615	22.0				2.4
GeTcD_GeT=2.4_TcD=23.0	GeTcD	0.53962770166537799	0.54379886794893306	0.53865881486364509	23.0				2.4
GeTcD_GeT=2.4_TcD=24.0	GeTcD	0.53965882481021188	0.54413495014936919	0.538502271376602	24.0				2.4
GeTcD_GeT=2.4_TcD=25.0	GeTcD	0.54063498271720423	0.54477111407426226	0.53941899364747536	25.0				2.4
GeTcD_GeT=2.4_TcD=26.0	GeTcD	0.54258175432725109	0.54642049227980238	0.54110202019994758	26.0				2.4
GeTcD_GeT=2.4_TcD=27.0	GeTcD	0.54297085663999067	0.54794229139603967	0.54095117170283324	27.0				2.4
GeTcD_GeT=2.4_TcD=28.0	GeTcD	0.54256625575715178	0.55039318794265579	0.54093908777696709	28.0				2.4
GeTcD_GeT=2.4_TcD=29.0	GeTcD	0.54180972392888505	0.55119422418827402	0.54030871255168023	29.0				2.4
GeTcD_GeT=2.4_TcD=30.0	GeTcD	0.53723726773565639	0.54482551406319768	0.5357351862139309	30.0				2.4
GeTcD_GeT=2.4_TcD=31.0	GeTcD	0.53241141622153432	0.54369640425422039	0.53311399933097847	31.0				2.4
GeTcD_GeT=2.4_TcD=32.0	GeTcD	0.53330113494894793	0.54522882029971076	0.53385592058041431	32.0				2.4
GeTcD_GeT=2.4_TcD=33.0	GeTcD	0.53094283220113969	0.54381684235746619	0.5323194434336066	33.0				2.4
GeTcD_GeT=2.4_TcD=34.0	GeTcD	0.52268902459308075	0.536013761325564	0.5253943749453075	34.0				2.4
GeTcD_GeT=2.4_TcD=35.0	GeTcD	0.52243134511459866	0.53561914313529702	0.52494484208533243	35.0				2.4
GeTcD_GeT=2.4_TcD=36.0	GeTcD	0.5108894465574022	0.5217261742148811	0.51313749135356856	36.0				2.4
GeTcD_GeT=2.4_TcD=37.0	GeTcD	0.51488984170793739	0.52556376523154835	0.51601851296909718	37.0				2.4
GeTcD_GeT=2.4_TcD=38.0	GeTcD	0.51409324040575499	0.5241511499796484	0.51453631280368406	38.0				2.4
GeTcD_GeT=2.4_TcD=39.0	GeTcD	0.51438645319129417	0.52472701892155627	0.51547544972412318	39.0				2.4
GeTcD_GeT=2.4_TcD=40.0	GeTcD	0.5134162175021445	0.52251390438853729	0.51439616238790642	40.0				2.4
GeTcD_GeT=2.4_TcD=41.0	GeTcD	0.50986666693547655	0.51544816760619094	0.5121929549966906	41.0				2.4
GeTcD_GeT=2.4_TcD=42.0	GeTcD	0.51029672075457633	0.51538121552528293	0.51202296616491638	42.0				2.4
GeTcD_GeT=2.4_TcD=43.0	GeTcD	0.50919191211529524	0.51452173404198298	0.51074538382250145	43.0				2.4
GeTcD_GeT=2.4_TcD=44.0	GeTcD	0.50499129559981726	0.51063757459632453	0.50674608938237231	44.0				2.4
GeTcD_GeT=2.4_TcD=45.0	GeTcD	0.50186134046754782	0.50368440600354736	0.50258691579788251	45.0				2.4
GeTcD_GeT=2.6_TcD=15.0	GeTcD	0.5279648386586252	0.53378925024537571	0.527839314301494	15.0				2.6
GeTcD_GeT=2.6_TcD=16.0	GeTcD	0.52830807528424117	0.53419737914256682	0.52824462223957502	16.0				2.6
GeTcD_GeT=2.6_TcD=17.0	GeTcD	0.52842273950204977	0.53432241736974229	0.5283237336406138	17.0				2.6
GeTcD_GeT=2.6_TcD=18.0	GeTcD	0.52866870054948101	0.53494401832482652	0.52869481441791666	18.0				2.6
GeTcD_GeT=2.6_TcD=19.0	GeTcD	0.52778339198429081	0.53320337531584039	0.52765919212715107	19.0				2.6
GeTcD_GeT=2.6_TcD=20.0	GeTcD	0.52547536508582926	0.5300415762743127	0.52582927015172942	20.0				2.6
GeTcD_GeT=2.6_TcD=21.0	GeTcD	0.52752835860314284	0.53218607024462083	0.52810737500580363	21.0				2.6
GeTcD_GeT=2.6_TcD=22.0	GeTcD	0.5257380847497094	0.53091108637282391	0.52601606164329406	22.0				2.6
GeTcD_GeT=2.6_TcD=23.0	GeTcD	0.52798625944656752	0.53275724897638133	0.52777267548188922	23.0				2.6
GeTcD_GeT=2.6_TcD=24.0	GeTcD	0.53021326536475322	0.53464989132567808	0.52970037633860245	24.0				2.6
GeTcD_GeT=2.6_TcD=25.0	GeTcD	0.52997410856760963	0.53383997283581242	0.52901547948011984	25.0				2.6
GeTcD_GeT=2.6_TcD=26.0	GeTcD	0.5306232844468951	0.53412636564195703	0.52928415484836577	26.0				2.6
GeTcD_GeT=2.6_TcD=27.0	GeTcD	0.53175379803170675	0.53544691748571627	0.5302640452424735	27.0				2.6
GeTcD_GeT=2.6_TcD=28.0	GeTcD	0.53055965210624301	0.53583906890814981	0.52943347111338468	28.0				2.6
GeTcD_GeT=2.6_TcD=29.0	GeTcD	0.53205331104899367	0.53845681994784622	0.53106722146146024	29.0				2.6
GeTcD_GeT=2.6_TcD=30.0	GeTcD	0.52587971395939825	0.53042267804384902	0.52508245163591105	30.0				2.6
GeTcD_GeT=2.6_TcD=31.0	GeTcD	0.52253769302650022	0.52788957145244253	0.52308147103038072	31.0				2.6
GeTcD_GeT=2.6_TcD=32.0	GeTcD	0.52294519201594314	0.52842905727166412	0.52332880376409074	32.0				2.6
GeTcD_GeT=2.6_TcD=33.0	GeTcD	0.5179050066177634	0.52428897350542913	0.51846614592426776	33.0				2.6
GeTcD_GeT=2.6_TcD=34.0	GeTcD	0.51351198102470996	0.52005922930639858	0.5148926984663208	34.0				2.6
GeTcD_GeT=2.6_TcD=35.0	GeTcD	0.51189811366021287	0.51935612048149671	0.51308914585394427	35.0				2.6
GeTcD_GeT=2.6_TcD=36.0	GeTcD	0.50626167432942848	0.51230959440408941	0.50726493234158043	36.0				2.6
GeTcD_GeT=2.6_TcD=37.0	GeTcD	0.50899811698673514	0.51514218309272564	0.50933282817996728	37.0				2.6
GeTcD_GeT=2.6_TcD=38.0	GeTcD	0.50881049608528806	0.51481493814273727	0.50854207583067168	38.0				2.6
GeTcD_GeT=2.6_TcD=39.0	GeTcD	0.5101404750072327	0.5167318680035009	0.51048511562751087	39.0				2.6
GeTcD_GeT=2.6_TcD=40.0	GeTcD	0.51037509563751793	0.51680251758156293	0.51059075365968321	40.0				2.6
GeTcD_GeT=2.6_TcD=41.0	GeTcD	0.50783874834051901	0.51132343779489664	0.50922684808339835	41.0				2.6
GeTcD_GeT=2.6_TcD=42.0	GeTcD	0.50874875381416029	0.51221265522695436	0.50978249439695067	42.0				2.6
GeTcD_GeT=2.6_TcD=43.0	GeTcD	0.50731242698031409	0.51100654319853611	0.50820910172361566	43.0				2.6
GeTcD_GeT=2.6_TcD=44.0	GeTcD	0.50478187589652301	0.50875717650903762	0.50584498746496254	44.0				2.6
GeTcD_GeT=2.6_TcD=45.0	GeTcD	0.50304591004075505	0.50479560933163581	0.50351613690262853	45.0				2.6
GeTcD_GeT=2.8_TcD=15.0	GeTcD	0.50934084959381143	0.51357088852000277	0.50851880263692706	15.0				2.8
GeTcD_GeT=2.8_TcD=16.0	GeTcD	0.5094814707664207	0.51371113361473963	0.50859846195432457	16.0				2.8
GeTcD_GeT=2.8_TcD=17.0	GeTcD	0.50956047567253715	0.51374349297461352	0.50863180976116751	17.0				2.8
GeTcD_GeT=2.8_TcD=18.0	GeTcD	0.51071278805919595	0.51483126205555163	0.51005300127878495	18.0				2.8
GeTcD_GeT=2.8_TcD=19.0	GeTcD	0.51144449697437677	0.51547077986879852	0.51076135349573437	19.0				2.8
GeTcD_GeT=2.8_TcD=20.0	GeTcD	0.51214621678643835	0.51669793647154061	0.512115615288258	20.0				2.8
GeTcD_GeT=2.8_TcD=21.0	GeTcD	0.5137190066399403	0.51814499708197315	0.51371996455612889	21.0				2.8
GeTcD_GeT=2.8_TcD=22.0	GeTcD	0.51511186187472724	0.51855564784670838	0.51507222331965252	22.0				2.8
GeTcD_GeT=2.8_TcD=23.0	GeTcD	0.51724864847428542	0.52055381437306292	0.51683853582657913	23.0				2.8
GeTcD_GeT=2.8_TcD=24.0	GeTcD	0.52012004209562834	0.52352030599779042	0.51965092074894847	24.0				2.8
GeTcD_GeT=2.8_TcD=25.0	GeTcD	0.52058865333302429	0.52320491723454698	0.5199464681565471	25.0				2.8
GeTcD_GeT=2.8_TcD=26.0	GeTcD	0.52109166383576244	0.52226625944620475	0.52014517305492347	26.0				2.8
GeTcD_GeT=2.8_TcD=27.0	GeTcD	0.52124690154602649	0.52274239396291688	0.52026659481650883	27.0				2.8
GeTcD_GeT=2.8_TcD=28.0	GeTcD	0.52122308667002015	0.52348726580904359	0.52034683974630258	28.0				2.8
GeTcD_GeT=2.8_TcD=29.0	GeTcD	0.52307384274823165	0.5255388281137745	0.52201395150844321	29.0				2.8
GeTcD_GeT=2.8_TcD=30.0	GeTcD	0.51933944338208538	0.52199816854628767	0.51826515332333523	30.0				2.8
GeTcD_GeT=2.8_TcD=31.0	GeTcD	0.51913418183174453	0.52198372117742553	0.51896231963560679	31.0				2.8
GeTcD_GeT=2.8_TcD=32.0	GeTcD	0.51665466262510995	0.51936767418155294	0.51663033686263293	32.0				2.8
GeTcD_GeT=2.8_TcD=33.0	GeTcD	0.51446848220864949	0.51796805617750485	0.51476359807154004	33.0				2.8
GeTcD_GeT=2.8_TcD=34.0	GeTcD	0.50939918973979548	0.51382589959004465	0.51030599734114013	34.0				2.8
GeTcD_GeT=2.8_TcD=35.0	GeTcD	0.50869356378405028	0.51364011639461682	0.50920298633169414	35.0				2.8
GeTcD_GeT=2.8_TcD=36.0	GeTcD	0.50683323135358216	0.51215401615198797	0.50758720853285333	36.0				2.8
GeTcD_GeT=2.8_TcD=37.0	GeTcD	0.50750899421084306	0.51285915081617683	0.50783210461556061	37.0				2.8
GeTcD_GeT=2.8_TcD=38.0	GeTcD	0.50782035166381556	0.51307581667772106	0.50768867905136206	38.0				2.8
GeTcD_GeT=2.8_TcD=39.0	GeTcD	0.50820113767064812	0.5139806581036922	0.5084693340305485	39.0				2.8
GeTcD_GeT=2.8_TcD=40.0	GeTcD	0.50825771375174267	0.5140352790344328	0.50849712786698742	40.0				2.8
GeTcD_GeT=2.8_TcD=41.0	GeTcD	0.50589978901783927	0.50923625632592096	0.50670426115451705	41.0				2.8
GeTcD_GeT=2.8_TcD=42.0	GeTcD	0.50663401802571917	0.50995991290573373	0.50716419874424934	42.0				2.8
GeTcD_GeT=2.8_TcD=43.0	GeTcD	0.50713690252382249	0.51049749756430141	0.50754526246698295	43.0				2.8
GeTcD_GeT=2.8_TcD=44.0	GeTcD	0.50548472975029912	0.50889329216512547	0.50600187330110746	44.0				2.8
GeTcD_GeT=2.8_TcD=45.0	GeTcD	0.50272888237920943	0.50385382479384444	0.50303181781509554	45.0				2.8
GeTcD_GeT=3.0_TcD=15.0	GeTcD	0.50667862366649297	0.51344753105000851	0.50661580584186749	15.0				3.0
GeTcD_GeT=3.0_TcD=16.0	GeTcD	0.50685326609053982	0.51362746212174992	0.50676186849462423	16.0				3.0
GeTcD_GeT=3.0_TcD=17.0	GeTcD	0.50697322250301657	0.51371282679209063	0.5068584623305088	17.0				3.0
GeTcD_GeT=3.0_TcD=18.0	GeTcD	0.50773643257693601	0.51439012972276399	0.50766412604576383	18.0				3.0
GeTcD_GeT=3.0_TcD=19.0	GeTcD	0.50803657561739757	0.51455983628943491	0.50782746132748391	19.0				3.0
GeTcD_GeT=3.0_TcD=20.0	GeTcD	0.50935332405267197	0.51592011841146157	0.50935424180898237	20.0				3.0
GeTcD_GeT=3.0_TcD=21.0	GeTcD	0.51055238415889892	0.51698985970814237	0.51074562521669731	21.0				3.0
GeTcD_GeT=3.0_TcD=22.0	GeTcD	0.51144185087704275	0.51685935475443057	0.51181189494040513	22.0				3.0
GeTcD_GeT=3.0_TcD=23.0	GeTcD	0.51222522169255469	0.51762672687067357	0.51246108533092338	23.0				3.0
GeTcD_GeT=3.0_TcD=24.0	GeTcD	0.51442173448908135	0.51992803587066627	0.51455739075812634	24.0				3.0
GeTcD_GeT=3.0_TcD=25.0	GeTcD	0.51354310416954374	0.51768692324054089	0.51348519587880481	25.0				3.0
GeTcD_GeT=3.0_TcD=26.0	GeTcD	0.51324812731911529	0.51605239911999168	0.51308984864969587	26.0				3.0
GeTcD_GeT=3.0_TcD=27.0	GeTcD	0.51347165954152452	0.51589564724387604	0.51338761809894429	27.0				3.0
GeTcD_GeT=3.0_TcD=28.0	GeTcD	0.51158184202647716	0.51436048843806548	0.51147554593210887	28.0				3.0
GeTcD_GeT=3.0_TcD=29.0	GeTcD	0.51241876481184478	0.5147498530192065	0.51214640925968857	29.0				3.0
GeTcD_GeT=3.0_TcD=30.0	GeTcD	0.5102987368287355	0.51278590047204364	0.51008650764668662	30.0				3.0
GeTcD_GeT=3.0_TcD=31.0	GeTcD	0.50798503972170106	0.51102960944072651	0.50814099422173475	31.0				3.0
GeTcD_GeT=3.0_TcD=32.0	GeTcD	0.50825809176564751	0.51148483376548481	0.50840849808674038	32.0				3.0
GeTcD_GeT=3.0_TcD=33.0	GeTcD	0.50814997978885645	0.51190693832772638	0.5083612680293278	33.0				3.0
GeTcD_GeT=3.0_TcD=34.0	GeTcD	0.50813851336707572	0.51240696677386843	0.50842206722121364	34.0				3.0
GeTcD_GeT=3.0_TcD=35.0	GeTcD	0.50789419037989891	0.5121757522103273	0.50794276021057583	35.0				3.0
GeTcD_GeT=3.0_TcD=36.0	GeTcD	0.50516480398214969	0.50888489411698301	0.50567245519930115	36.0				3.0
GeTcD_GeT=3.0_TcD=37.0	GeTcD	0.50535595301337555	0.50804175739480417	0.50567683597519408	37.0				3.0
GeTcD_GeT=3.0_TcD=38.0	GeTcD	0.50526094551862	0.50794920624615381	0.50522933717016438	38.0				3.0
GeTcD_GeT=3.0_TcD=39.0	GeTcD	0.50379336953530507	0.50657119398483752	0.50391675717853046	39.0				3.0
GeTcD_GeT=3.0_TcD=40.0	GeTcD	0.50385372575544818	0.50665378094487867	0.5039619455774943	40.0				3.0
GeTcD_GeT=3.0_TcD=41.0	GeTcD	0.50537623975960333	0.50815935223886544	0.50582685394779392	41.0				3.0
GeTcD_GeT=3.0_TcD=42.0	GeTcD	0.50582658032493066	0.5086014138648598	0.50608618628281499	42.0				3.0
GeTcD_GeT=3.0_TcD=43.0	GeTcD	0.5060496085288001	0.50881866668135656	0.5062879492178407	43.0				3.0
GeTcD_GeT=3.0_TcD=44.0	GeTcD	0.50522264010959383	0.50801375530858583	0.50551339625069036	44.0				3.0
GeTcD_GeT=3.0_TcD=45.0	GeTcD	0.50229945858328451	0.50279266149080559	0.50243645514187052	45.0				3.0
GeTcD_GeT=3.2_TcD=15.0	GeTcD	0.51089499076134026	0.51708424424754729	0.5103835131671135	15.0				3.2
GeTcD_GeT=3.2_TcD=16.0	GeTcD	0.51102200343337434	0.51722878473169309	0.51047405153944125	16.0				3.2
GeTcD_GeT=3.2_TcD=17.0	GeTcD	0.51108500575085158	0.51728321684322698	0.5105113781748053	17.0				3.2
GeTcD_GeT=3.2_TcD=18.0	GeTcD	0.51151342150969681	0.5177085047091553	0.51087181903035783	18.0				3.2
GeTcD_GeT=3.2_TcD=19.0	GeTcD	0.51187455079347643	0.51806138480480346	0.51124259171401076	19.0				3.2
GeTcD_GeT=3.2_TcD=20.0	GeTcD	0.5127757359426709	0.5189199506372687	0.51225282221450485	20.0				3.2
GeTcD_GeT=3.2_TcD=21.0	GeTcD	0.51382863067235063	0.5200005551205833	0.5134618727222785	21.0				3.2
GeTcD_GeT=3.2_TcD=22.0	GeTcD	0.51404926478815594	0.52042689133660813	0.5139811608916417	22.0				3.2
GeTcD_GeT=3.2_TcD=23.0	GeTcD	0.51374949976159934	0.52013410610932476	0.51357349151817633	23.0				3.2
GeTcD_GeT=3.2_TcD=24.0	GeTcD	0.51505037161286937	0.5215275089627982	0.51480663136510774	24.0				3.2
GeTcD_GeT=3.2_TcD=25.0	GeTcD	0.51454458900816213	0.51993380632566488	0.51418310715827464	25.0				3.2
GeTcD_GeT=3.2_TcD=26.0	GeTcD	0.5126788383783909	0.51688983162892621	0.51230063292670813	26.0				3.2
GeTcD_GeT=3.2_TcD=27.0	GeTcD	0.51373614327029404	0.51742984570294026	0.51333815469027433	27.0				3.2
GeTcD_GeT=3.2_TcD=28.0	GeTcD	0.51436238630601783	0.51819661629447089	0.51418960239569622	28.0				3.2
GeTcD_GeT=3.2_TcD=29.0	GeTcD	0.51421596892020083	0.5175759959749161	0.51383996296738954	29.0				3.2
GeTcD_GeT=3.2_TcD=30.0	GeTcD	0.51200798970189321	0.51492473822144247	0.51159340404269071	30.0				3.2
GeTcD_GeT=3.2_TcD=31.0	GeTcD	0.51101356112283236	0.51420962525716207	0.51089065669844558	31.0				3.2
GeTcD_GeT=3.2_TcD=32.0	GeTcD	0.51094602263849664	0.51438228281327636	0.51088281602958052	32.0				3.2
GeTcD_GeT=3.2_TcD=33.0	GeTcD	0.51038252991098021	0.5144135008616707	0.51026475466805943	33.0				3.2
GeTcD_GeT=3.2_TcD=34.0	GeTcD	0.50884602939234513	0.51352583813909303	0.50879148050764111	34.0				3.2
GeTcD_GeT=3.2_TcD=35.0	GeTcD	0.5083052174991205	0.51302848511869226	0.50820282109197956	35.0				3.2
GeTcD_GeT=3.2_TcD=36.0	GeTcD	0.50538342202379583	0.50967552290644291	0.50561784433344292	36.0				3.2
GeTcD_GeT=3.2_TcD=37.0	GeTcD	0.50523423253600963	0.50847216728158084	0.50534010990777278	37.0				3.2
GeTcD_GeT=3.2_TcD=38.0	GeTcD	0.50574555934465493	0.50903581176637358	0.50570015357349585	38.0				3.2
GeTcD_GeT=3.2_TcD=39.0	GeTcD	0.50514892739814532	0.50798591812061578	0.50522643281102908	39.0				3.2
GeTcD_GeT=3.2_TcD=40.0	GeTcD	0.50521003964609834	0.50803724008898432	0.50526038252019334	40.0				3.2
GeTcD_GeT=3.2_TcD=41.0	GeTcD	0.50616654083003787	0.50897037068327267	0.50642457902365623	41.0				3.2
GeTcD_GeT=3.2_TcD=42.0	GeTcD	0.50644765717062123	0.50924687145702197	0.50658820263485727	42.0				3.2
GeTcD_GeT=3.2_TcD=43.0	GeTcD	0.50661385728412633	0.50940075559011222	0.50672777625221077	43.0				3.2
GeTcD_GeT=3.2_TcD=44.0	GeTcD	0.50578789690199955	0.5085958442173415	0.50595322328506043	44.0				3.2
GeTcD_GeT=3.2_TcD=45.0	GeTcD	0.50275206723204102	0.50324444592143081	0.50280334626259671	45.0				3.2
GeTcD_GeT=3.4_TcD=15.0	GeTcD	0.51308154919170534	0.51979727383220786	0.51298115606836159	15.0				3.4
GeTcD_GeT=3.4_TcD=16.0	GeTcD	0.51331364972929161	0.52005075884166552	0.51314946256366256	16.0				3.4
GeTcD_GeT=3.4_TcD=17.0	GeTcD	0.51337324992162503	0.52010658371520202	0.51318204747672569	17.0				3.4
GeTcD_GeT=3.4_TcD=18.0	GeTcD	0.51368410335605785	0.52044842375785549	0.51350235441476011	18.0				3.4
GeTcD_GeT=3.4_TcD=19.0	GeTcD	0.5140298600743729	0.52078010000212249	0.51381082352331486	19.0				3.4
GeTcD_GeT=3.4_TcD=20.0	GeTcD	0.51463405229897974	0.52140410189158282	0.51454976947110898	20.0				3.4
GeTcD_GeT=3.4_TcD=21.0	GeTcD	0.5154795433995244	0.52232469098619294	0.51553274661020321	21.0				3.4
GeTcD_GeT=3.4_TcD=22.0	GeTcD	0.51530162485496878	0.52231755523043077	0.5155476884732354	22.0				3.4
GeTcD_GeT=3.4_TcD=23.0	GeTcD	0.5150540257472831	0.52207422349218091	0.51524740358568888	23.0				3.4
GeTcD_GeT=3.4_TcD=24.0	GeTcD	0.51622057665769183	0.5233279404080704	0.51639043128499784	24.0				3.4
GeTcD_GeT=3.4_TcD=25.0	GeTcD	0.51511097984228249	0.52109751945333893	0.51521389728264688	25.0				3.4
GeTcD_GeT=3.4_TcD=26.0	GeTcD	0.51281139525436303	0.51761762776548503	0.51285064238900091	26.0				3.4
GeTcD_GeT=3.4_TcD=27.0	GeTcD	0.51319394532608487	0.51748576813232972	0.51328011295749365	27.0				3.4
GeTcD_GeT=3.4_TcD=28.0	GeTcD	0.51327836843150443	0.51770339793912123	0.51346583460438944	28.0				3.4
GeTcD_GeT=3.4_TcD=29.0	GeTcD	0.51168692989202913	0.51587376253487649	0.51178942317104426	29.0				3.4
GeTcD_GeT=3.4_TcD=30.0	GeTcD	0.51004219139196816	0.51424961456807061	0.5101555444287269	30.0				3.4
GeTcD_GeT=3.4_TcD=31.0	GeTcD	0.509832015660864	0.51405924576645734	0.51006043985530092	31.0				3.4
GeTcD_GeT=3.4_TcD=32.0	GeTcD	0.50907775191602644	0.51286656443861045	0.50930619834448587	32.0				3.4
GeTcD_GeT=3.4_TcD=33.0	GeTcD	0.50810524814344771	0.51109999239441828	0.50837842349212092	33.0				3.4
GeTcD_GeT=3.4_TcD=34.0	GeTcD	0.50756128613434925	0.51105184712851082	0.50797003359200588	34.0				3.4
GeTcD_GeT=3.4_TcD=35.0	GeTcD	0.50796361893375885	0.51142115602937022	0.50827894480912672	35.0				3.4
GeTcD_GeT=3.4_TcD=36.0	GeTcD	0.50451953424654772	0.50749083752440416	0.50486253798159331	36.0				3.4
GeTcD_GeT=3.4_TcD=37.0	GeTcD	0.50408922841817805	0.50597361674134256	0.50427509687360761	37.0				3.4
GeTcD_GeT=3.4_TcD=38.0	GeTcD	0.50443221303452412	0.50636157242148361	0.50451729868167938	38.0				3.4
GeTcD_GeT=3.4_TcD=39.0	GeTcD	0.50499721781766016	0.50691975248589527	0.50512310738002919	39.0				3.4
GeTcD_GeT=3.4_TcD=40.0	GeTcD	0.50517034818608764	0.50708840289920543	0.50525903930709215	40.0				3.4
GeTcD_GeT=3.4_TcD=41.0	GeTcD	0.50562220080703446	0.50752737173028262	0.50575864320652719	41.0				3.4
GeTcD_GeT=3.4_TcD=42.0	GeTcD	0.50579079500860358	0.50769293258252757	0.50585435193034711	42.0				3.4
GeTcD_GeT=3.4_TcD=43.0	GeTcD	0.50590167908736361	0.50781059479848845	0.50594693121203771	43.0				3.4
GeTcD_GeT=3.4_TcD=44.0	GeTcD	0.50507723076085631	0.50700568342571772	0.50517237824488725	44.0				3.4
GeTcD_GeT=3.4_TcD=45.0	GeTcD	0.50303532565141884	0.50352495421386434	0.50306435623950652	45.0				3.4
GeTcD_GeT=3.6_TcD=15.0	GeTcD	0.51242796315019645	0.51796167251157887	0.51210251807750051	15.0				3.6
GeTcD_GeT=3.6_TcD=16.0	GeTcD	0.51259655735176568	0.51813778246551012	0.51219422975114326	16.0				3.6
GeTcD_GeT=3.6_TcD=17.0	GeTcD	0.51265703957654374	0.51820769630370178	0.51224440714497121	17.0				3.6
GeTcD_GeT=3.6_TcD=18.0	GeTcD	0.51295163841306735	0.51855427495635864	0.51249720717857694	18.0				3.6
GeTcD_GeT=3.6_TcD=19.0	GeTcD	0.5132868107420463	0.51890071390220205	0.51284302832791595	19.0				3.6
GeTcD_GeT=3.6_TcD=20.0	GeTcD	0.51254502145606917	0.51761445794667194	0.5122038305174369	20.0				3.6
GeTcD_GeT=3.6_TcD=21.0	GeTcD	0.51318751908970217	0.51826107407103639	0.5129725041284745	21.0				3.6
GeTcD_GeT=3.6_TcD=22.0	GeTcD	0.51386819612772627	0.51894847026990454	0.51382728016980106	22.0				3.6
GeTcD_GeT=3.6_TcD=23.0	GeTcD	0.51439338344621666	0.51944635719270071	0.51435653118193136	23.0				3.6
GeTcD_GeT=3.6_TcD=24.0	GeTcD	0.51526344545057745	0.52035053383256447	0.51513688641978095	24.0				3.6
GeTcD_GeT=3.6_TcD=25.0	GeTcD	0.51488442350863428	0.51943555073245262	0.51468602331102764	25.0				3.6
GeTcD_GeT=3.6_TcD=26.0	GeTcD	0.51221816543299736	0.51534963819369273	0.51195959922264522	26.0				3.6
GeTcD_GeT=3.6_TcD=27.0	GeTcD	0.51210274518737897	0.51481088558059374	0.51201986640682351	27.0				3.6
GeTcD_GeT=3.6_TcD=28.0	GeTcD	0.51156684747491754	0.5144319131715348	0.51141242857720159	28.0				3.6
GeTcD_GeT=3.6_TcD=29.0	GeTcD	0.51114183384121592	0.51423293077726573	0.51089365214460092	29.0				3.6
GeTcD_GeT=3.6_TcD=30.0	GeTcD	0.51141879202884599	0.51452152830704323	0.51117741442714626	30.0				3.6
GeTcD_GeT=3.6_TcD=31.0	GeTcD	0.51082846031408424	0.51398924186398132	0.5107084671832357	31.0				3.6
GeTcD_GeT=3.6_TcD=32.0	GeTcD	0.51100524481692544	0.51418615954456892	0.51091626665192191	32.0				3.6
GeTcD_GeT=3.6_TcD=33.0	GeTcD	0.50926461678966406	0.5116311691722214	0.50939161059435234	33.0				3.6
GeTcD_GeT=3.6_TcD=34.0	GeTcD	0.50844054647706161	0.51132541354622352	0.50860420694356723	34.0				3.6
GeTcD_GeT=3.6_TcD=35.0	GeTcD	0.50850102870183966	0.51137976137231056	0.50864015827100084	35.0				3.6
GeTcD_GeT=3.6_TcD=36.0	GeTcD	0.50476247118273987	0.50715391931945408	0.50490106926078981	36.0				3.6
GeTcD_GeT=3.6_TcD=37.0	GeTcD	0.50410901114586604	0.50545127756269348	0.50420127284838667	37.0				3.6
GeTcD_GeT=3.6_TcD=38.0	GeTcD	0.50422342335440473	0.50557582633300124	0.5042830766531704	38.0				3.6
GeTcD_GeT=3.6_TcD=39.0	GeTcD	0.50462096797768619	0.50597612417458215	0.50463494856128666	39.0				3.6
GeTcD_GeT=3.6_TcD=40.0	GeTcD	0.50479674444344758	0.50615359960940542	0.50478944733937314	40.0				3.6
GeTcD_GeT=3.6_TcD=41.0	GeTcD	0.50490964459636678	0.50626625649360213	0.50495107231086633	41.0				3.6
GeTcD_GeT=3.6_TcD=42.0	GeTcD	0.50502279675855588	0.50637549835508344	0.50500665998374394	42.0				3.6
GeTcD_GeT=3.6_TcD=43.0	GeTcD	0.50507735676549126	0.50642800833197898	0.50506277130861255	43.0				3.6
GeTcD_GeT=3.6_TcD=44.0	GeTcD	0.50419771840887395	0.50556465843653409	0.50421387730044975	44.0				3.6
GeTcD_GeT=3.6_TcD=45.0	GeTcD	0.50314860381824278	0.50364397265061978	0.50314446146177882	45.0				3.6
GeTcD_GeT=3.8_TcD=15.0	GeTcD	0.51077541236276836	0.51510402599612437	0.51061055917494114	15.0				3.8
GeTcD_GeT=3.8_TcD=16.0	GeTcD	0.51083337449484745	0.51516695520093347	0.51064663585119441	16.0				3.8
GeTcD_GeT=3.8_TcD=17.0	GeTcD	0.51083438253192703	0.51516695520093347	0.51064663585119441	17.0				3.8
GeTcD_GeT=3.8_TcD=18.0	GeTcD	0.51094879474046573	0.51528911680251777	0.51073349107090871	18.0				3.8
GeTcD_GeT=3.8_TcD=19.0	GeTcD	0.51112167309962331	0.51546806473975038	0.5108930540233626	19.0				3.8
GeTcD_GeT=3.8_TcD=20.0	GeTcD	0.51013089865497607	0.51390043413419173	0.50985753514161547	20.0				3.8
GeTcD_GeT=3.8_TcD=21.0	GeTcD	0.51047489130840185	0.5142493335727647	0.51026769599973232	21.0				3.8
GeTcD_GeT=3.8_TcD=22.0	GeTcD	0.51098458005679281	0.51476272869174777	0.51089568495030813	22.0				3.8
GeTcD_GeT=3.8_TcD=23.0	GeTcD	0.51130790795008596	0.51512315220517846	0.51129143635665442	23.0				3.8
GeTcD_GeT=3.8_TcD=24.0	GeTcD	0.51182515697657427	0.51562836588622429	0.51176969829926766	24.0				3.8
GeTcD_GeT=3.8_TcD=25.0	GeTcD	0.51227297744920253	0.51608311962003428	0.5121733011117372	25.0				3.8
GeTcD_GeT=3.8_TcD=26.0	GeTcD	0.51172951945864376	0.51444451910953826	0.51156123272334664	26.0				3.8
GeTcD_GeT=3.8_TcD=27.0	GeTcD	0.51117799717144796	0.51346744866748617	0.51116656749318334	27.0				3.8
GeTcD_GeT=3.8_TcD=28.0	GeTcD	0.51146138159546073	0.51374001318536666	0.51143322719505524	28.0				3.8
GeTcD_GeT=3.8_TcD=29.0	GeTcD	0.51069552542420715	0.51321744589517881	0.51060907400544819	29.0				3.8
GeTcD_GeT=3.8_TcD=30.0	GeTcD	0.51098180795482395	0.5135109440090736	0.51090336819352355	30.0				3.8
GeTcD_GeT=3.8_TcD=31.0	GeTcD	0.50906326138300662	0.51172451042362466	0.50910045942125237	31.0				3.8
GeTcD_GeT=3.8_TcD=32.0	GeTcD	0.50918145373059398	0.51185243722172946	0.50922292459280405	32.0				3.8
GeTcD_GeT=3.8_TcD=33.0	GeTcD	0.5083062255362002	0.5100990187207125	0.50837868152750654	33.0				3.8
GeTcD_GeT=3.8_TcD=34.0	GeTcD	0.5063269447303349	0.50820537716673564	0.50635269295282981	34.0				3.8
GeTcD_GeT=3.8_TcD=35.0	GeTcD	0.5063274487488747	0.50820537716673564	0.50635269295282981	35.0				3.8
GeTcD_GeT=3.8_TcD=36.0	GeTcD	0.50578789690199955	0.50819405623367497	0.50592048715363158	36.0				3.8
GeTcD_GeT=3.8_TcD=37.0	GeTcD	0.50490687249439781	0.50625896202719789	0.50500334626233367	37.0				3.8
GeTcD_GeT=3.8_TcD=38.0	GeTcD	0.50490611646658812	0.50625896202719789	0.50500334626233367	38.0				3.8
GeTcD_GeT=3.8_TcD=39.0	GeTcD	0.50507735676549126	0.50642875566423751	0.5051097021908405	39.0				3.8
GeTcD_GeT=3.8_TcD=40.0	GeTcD	0.5052491010829343	0.50659948366249452	0.50521704936564593	40.0				3.8
GeTcD_GeT=3.8_TcD=41.0	GeTcD	0.50530517314548895	0.5066565417476252	0.50534189548554465	41.0				3.8
GeTcD_GeT=3.8_TcD=42.0	GeTcD	0.50536174922658361	0.50671116267836591	0.50536968932198345	42.0				3.8
GeTcD_GeT=3.8_TcD=43.0	GeTcD	0.50541756927986847	0.50676367265526145	0.50542580064685194	43.0				3.8
GeTcD_GeT=3.8_TcD=44.0	GeTcD	0.50431137458960296	0.50567671613352227	0.50431960595658654	44.0				3.8
GeTcD_GeT=3.8_TcD=45.0	GeTcD	0.50320517989933744	0.50370043154854205	0.50321341126632102	45.0				3.8
GeTcD_GeT=4.0_TcD=15.0	GeTcD	0.50835713140872163	0.51146152023940727	0.50811382636152147	15.0				4.0
GeTcD_GeT=4.0_TcD=16.0	GeTcD	0.50841773963813475	0.51151614117014788	0.50814162019796028	16.0				4.0
GeTcD_GeT=4.0_TcD=17.0	GeTcD	0.50841799164740475	0.51151614117014788	0.50814162019796028	17.0				4.0
GeTcD_GeT=4.0_TcD=18.0	GeTcD	0.50847658380265859	0.51158452358685513	0.50818885633813804	18.0				4.0
GeTcD_GeT=4.0_TcD=19.0	GeTcD	0.50864782410156173	0.51175945331954653	0.50832516718042353	19.0				4.0
GeTcD_GeT=4.0_TcD=20.0	GeTcD	0.5075436454854555	0.51007709346552799	0.50721079262112789	20.0				4.0
GeTcD_GeT=4.0_TcD=21.0	GeTcD	0.50788411000910261	0.51040826016430196	0.507545593570352	21.0				4.0
GeTcD_GeT=4.0_TcD=22.0	GeTcD	0.50816711641921031	0.51069291225046531	0.50801300948164052	22.0				4.0
GeTcD_GeT=4.0_TcD=23.0	GeTcD	0.5083387347320184	0.51087505919435483	0.50823922396203902	23.0				4.0
GeTcD_GeT=4.0_TcD=24.0	GeTcD	0.50862552128117478	0.51116576833319238	0.50851710735642286	24.0				4.0
GeTcD_GeT=4.0_TcD=25.0	GeTcD	0.50879512351982348	0.51133228674927977	0.5086887555426014	25.0				4.0
GeTcD_GeT=4.0_TcD=26.0	GeTcD	0.5090201677978522	0.51154886382985221	0.5088819787668355	26.0				4.0
GeTcD_GeT=4.0_TcD=27.0	GeTcD	0.50836002951532577	0.51045886711968413	0.50841162199178269	27.0				4.0
GeTcD_GeT=4.0_TcD=28.0	GeTcD	0.50853026177714922	0.51061502555028848	0.50852806614919244	28.0				4.0
GeTcD_GeT=4.0_TcD=29.0	GeTcD	0.50759681944140633	0.50993042892213125	0.50758689117160094	29.0				4.0
GeTcD_GeT=4.0_TcD=30.0	GeTcD	0.50666514117055284	0.5079186373049065	0.50660479136162806	30.0				4.0
GeTcD_GeT=4.0_TcD=31.0	GeTcD	0.50689270554128063	0.50814690252540884	0.50682317186802495	31.0				4.0
GeTcD_GeT=4.0_TcD=32.0	GeTcD	0.50584409496918936	0.50665270353326064	0.50574977540307731	32.0				4.0
GeTcD_GeT=4.0_TcD=33.0	GeTcD	0.50590180509199856	0.50670844489334987	0.505868904062029	33.0				4.0
GeTcD_GeT=4.0_TcD=34.0	GeTcD	0.50607317139553665	0.50687745932774442	0.50601012792978217	34.0				4.0
GeTcD_GeT=4.0_TcD=35.0	GeTcD	0.50607165933991716	0.50687461314675009	0.50600462447361161	35.0				4.0
GeTcD_GeT=4.0_TcD=36.0	GeTcD	0.5052485970643944	0.50659149569554351	0.50524923159485113	36.0				4.0
GeTcD_GeT=4.0_TcD=37.0	GeTcD	0.50536074118950391	0.50670625320898133	0.50536369368680589	37.0				4.0
GeTcD_GeT=4.0_TcD=38.0	GeTcD	0.50536048918023402	0.50670625320898133	0.50536369368680589	38.0				4.0
GeTcD_GeT=4.0_TcD=39.0	GeTcD	0.50536048918023402	0.50670625320898133	0.50536369368680589	39.0				4.0
GeTcD_GeT=4.0_TcD=40.0	GeTcD	0.50541832530767816	0.50676762157628819	0.50543863912652576	40.0				4.0
GeTcD_GeT=4.0_TcD=41.0	GeTcD	0.50541832530767816	0.50676762157628819	0.50543863912652576	41.0				4.0
GeTcD_GeT=4.0_TcD=42.0	GeTcD	0.50541832530767816	0.50676762157628819	0.50543863912652576	42.0				4.0
GeTcD_GeT=4.0_TcD=43.0	GeTcD	0.50547464937950282	0.50682013155318384	0.50549475045139436	43.0				4.0
GeTcD_GeT=4.0_TcD=44.0	GeTcD	0.50436832868460224	0.50573317503144466	0.50438855576112884	44.0				4.0
GeTcD_GeT=4.0_TcD=45.0	GeTcD	0.50326200798970178	0.50375689044646443	0.50328236107086333	45.0				4.0
